-27.5916015625
-27.67470703125
-14.696774088541666
-14.721344401041666
-36.53798502604167
-29.211044921875
-24.002750651041666
-23.333844401041667
-21.246435546875
-19.990709635416668
-20.402998046875
-20.509072265625
-20.560667317708333
-20.573470052083334
-20.58037109375
-20.610784505208333
-20.621598307291666
-20.642535807291665
-20.580266927083333
-20.425315755208334
-20.337955729166666
-20.362171223958335
-20.4009375
-20.435706380208334
-20.459736328125
-20.478411458333333
-20.48763671875
-20.480764973958333
-20.505319010416667
-20.48900390625
-20.482509765625
-20.497529296875
-20.512509765625
-20.266787109375
-20.166695963541667
-20.164186197916667
-20.17974934895833
-20.186643880208333
-20.198421223958334
-20.233375651041666
-20.235162760416667
-20.214342447916668
-20.223199869791667
-20.207483723958333
-20.221692708333332
-20.248033854166668
-20.26736002604167
-20.291083984375
-20.190680338541668
-20.004801432291668
-19.928629557291668
-19.9385546875
-20.017679036458333
-20.068860677083332
-20.077171223958334
-20.084563802083334
-20.088134765625
-20.07365234375
-20.09002604166667
-20.15041015625
-20.21767578125
-20.032356770833335
-19.865120442708335
-19.794833984375
-19.80244140625
-19.847399088541668
-19.896901041666666
-19.944794921875
-19.9648828125
-20.000589192708333
-20.008310546875
-20.024973958333334
-20.04363932291667
-20.082666015625
-20.131083984375
-20.081077473958334
-19.730377604166666
-19.687861328125
-19.715696614583333
-19.755162760416667
-20.302985026041668
-20.181500651041667
-20.63296875
-20.789593098958335
-20.781484375
-20.811044921875
-20.856393229166667
-20.883434244791665
-20.92708984375
-20.922317708333335
-20.708356119791667
-20.53837890625
-20.491555989583333
-20.515862630208332
-20.574602864583333
-20.625745442708332
-20.659573567708332
-20.693736979166665
-20.700628255208333
-20.69705078125
-20.729381510416665
-20.747190755208333
-20.774739583333332
-20.815618489583333
-20.848352864583333
-20.91388020833333
-20.882145182291666
-20.644332682291665
-20.501881510416666
-20.504274088541667
-20.539713541666668
-20.618372395833333
-20.675830078125
-20.712936197916665
-20.744459635416668
-20.759654947916665
-20.762532552083332
-20.798564453125
-20.82086263020833
-20.861673177083333
-20.907457682291668
-20.952067057291668
-20.9798046875
-21.022194010416666
-20.793391927083334
-20.616038411458334
-20.55959635416667
-20.589195963541666
-20.634156901041667
-20.684794921875
-20.735973307291665
-20.772333984375
-20.765084635416667
-20.779212239583334
-20.805146484375
-20.850494791666666
-20.898583984375
-20.94865234375
-20.98666015625
-21.014833984375
-21.032330729166667
-21.053388671875
-20.976572265625
-20.703668619791667
-20.564049479166666
-20.56667643229167
-20.598759765625
-20.651038411458334
-20.704186197916666
-20.719541015625
-20.732646484375
-20.7697265625
-20.774879557291666
-20.827867838541668
-20.88451171875
-20.928935546875
-20.988268229166668
-21.008675130208335
-21.023043619791668
-21.05462890625
-21.088229166666668
-21.082744140625
-20.87237630208333
-20.645055338541667
-20.559466145833333
-20.602197265625
-20.654195963541667
-20.694078776041668
-20.756139322916667
-20.761389973958334
-20.767919921875
-20.787994791666666
-20.798603515625
-20.818121744791668
-20.83501953125
-20.899430338541666
-20.949169921875
-20.982268880208334
-21.033199869791666
-21.085319010416665
-21.138111979166666
-21.186754557291668
-21.10397786458333
-20.852067057291666
-20.673489583333332
-20.60641927083333
-20.651751302083333
-20.711077473958333
-20.77056640625
-20.821884765625
-20.859544270833332
-20.883671875
-20.897604166666667
-20.913795572916666
-20.975764973958334
-21.025856119791666
-21.099658203125
-21.152356770833332
-21.189150390625
-21.233229166666668
-21.28087890625
-21.316822916666666
-21.247408854166668
-20.990231119791666
-20.791217447916665
-20.732526041666667
-20.751744791666667
-20.89546875
-20.982991536458332
-21.019010416666667
-21.011302083333334
-20.992080078125
-21.043069661458333
-21.084765625
-21.126751302083335
-21.157184244791665
-21.167171223958334
-21.20705729166667
-21.266744791666667
-21.243984375
-20.7816796875
-20.621956380208335
-20.695201822916665
-20.776263020833333
-20.843385416666667
-20.8808203125
-20.882880859375
-20.888759765625
-20.871624348958335
-20.910045572916665
-20.956350911458333
-20.989361979166667
-21.04091796875
-21.060514322916667
-21.04416015625
-21.07400390625
-21.080055338541666
-20.85033203125
-20.611826171875
-20.481324869791667
-20.516110026041666
-20.599065755208333
-20.695162760416668
-20.715345052083332
-20.74676432291667
-20.77341796875
-20.7772265625
-20.783225911458334
-20.823736979166668
-20.857607421875
-20.929918619791668
-20.982366536458333
-21.02532877604167
-21.090777994791665
-21.091097005208333
-20.88482421875
-20.612154947916668
-20.45919921875
-20.449446614583334
-20.52365559895833
-20.57342447916667
-20.623522135416668
-20.711617838541667
-20.67775390625
-20.69328125
-20.707796223958333
-20.708089192708332
-20.736419270833334
-20.785231119791668
-20.838662109375
-20.807428385416667
-20.585579427083335
-20.290152994791665
-20.097216796875
-20.040413411458335
-20.089775390625
-20.167913411458333
-20.236979166666668
-20.281139322916665
-20.285016276041667
-20.270794270833335
-20.285393880208332
-20.286334635416665
-20.2955078125
-20.344853515625
-20.389300130208333
-20.46333984375
-20.49580078125
-20.329817708333334
-20.02004557291667
-19.81498046875
-19.80125
-19.852203776041666
-20.486702473958335
-20.376572265625
-20.982981770833334
-20.8186328125
-20.817972005208333
-20.816263020833333
-20.808831380208332
-20.840413411458332
-20.89162109375
-20.933743489583332
-20.978873697916665
-20.929775390625
-20.62404947916667
-20.281402994791666
-20.144498697916667
-20.186412760416665
-20.239586588541666
-20.309837239583334
-20.33662109375
-20.31964192708333
-20.289615885416666
-20.261813151041668
-20.262991536458333
-20.27349934895833
-20.308430989583332
-20.366110026041667
-20.40305013020833
-20.43591796875
-20.236725260416666
-19.873889973958335
-19.683564453125
-19.665768229166666
-19.73205078125
-20.29201171875
-20.21630859375
-20.809127604166665
-20.659869791666665
-20.662731119791665
-20.651975911458333
-20.665638020833335
-20.701429036458332
-20.749342447916668
-20.792438151041665
-20.84333984375
-20.900071614583332
-20.798684895833333
-20.440146484375
-20.139983723958334
-20.064778645833332
-20.08732421875
-20.149368489583335
-20.247845052083335
-20.331298828125
-20.349007161458335
-20.367288411458333
-20.392213541666667
-20.405319010416665
-20.447900390625
-20.516188151041668
-20.596673177083332
-20.67059244791667
-20.734632161458332
-20.780172526041667
-20.824075520833333
-20.865677083333335
-20.9155078125
-20.995458984375
-20.999547526041667
-21.064231770833334
-21.14548828125
-21.199869791666668
-21.059195963541665
-20.675553385416666
-20.37626953125
-20.37693359375
-20.43419921875
-20.487721354166666
-20.531383463541665
-20.573707682291666
-20.601897786458334
-20.61550455729167
-20.64187174479167
-20.696608072916668
-20.762740885416665
-20.81408203125
-20.878763020833333
-20.957757161458332
-20.992503255208334
-21.025432942708335
-21.071474609375
-21.11564453125
-21.1579296875
-21.2154296875
-21.24267578125
-21.275302734375
-21.329388020833335
-21.1523046875
-20.798655598958334
-20.591920572916667
-20.570192057291667
-20.63681640625
-20.7110546875
-20.788893229166668
-20.838772786458332
-20.855569661458333
-20.865716145833332
-20.894938151041668
-20.923447265625
-20.99294596354167
-21.050589192708333
-21.093619791666665
-21.179267578125
-21.258076171875
-21.308688151041668
-21.3522265625
-21.408343098958333
-21.434759114583333
-21.472431640625
-21.54221028645833
-21.626995442708335
-21.680787760416667
-21.533059895833333
-21.229013671875
-21.002779947916668
-20.961884765625
-21.020234375
-21.079573567708334
-21.145940755208333
-21.193837890625
-21.21905598958333
-21.241396484375
-21.236162109375
-21.237958984375
-21.25482421875
-21.320452473958333
-21.418225911458332
-21.547076822916665
-21.585810546875
-21.619739583333335
-21.647216796875
-21.692750651041667
-21.749967447916667
-21.772841796875
-21.664329427083334
-21.363505859375
-21.088372395833332
-20.998147786458333
-21.036975911458335
-21.127418619791666
-21.2328515625
-21.327724609375
-21.375107421875
-21.376223958333334
-21.380465494791668
-21.37576171875
-21.41302408854167
-21.47235026041667
-21.5302734375
-21.605595703125
-21.65146484375
-21.715520833333333
-21.76193359375
-21.804182942708334
-21.855947265625
-21.874951171875
-21.935305989583334
-21.959358723958335
-21.775110677083333
-21.445934244791665
-21.174720052083334
-21.095442708333334
-21.124283854166666
-21.21364908854167
-21.37921223958333
-21.399853515625
-21.4070703125
-21.358248697916668
-21.342158203125
-21.352161458333335
-21.401028645833332
-21.443570963541667
-21.504322916666666
-21.561145833333335
-21.608505859375
-21.65203776041667
-21.680973307291666
-21.708642578125
-21.781988932291668
-21.815100911458334
-21.634921875
-21.336328125
-20.987138671875
-21.029166666666665
-21.104169921875
-21.18161458333333
-21.267278645833333
-21.298694661458335
-21.280771484375
-21.231656901041667
-21.218317057291667
-21.221852213541666
-21.278942057291665
-21.345875651041666
-21.413509114583334
-21.450641276041665
-21.464654947916667
-21.509873046875
-21.570716145833334
-21.647340494791667
-21.67978515625
-21.511396484375
-21.21150390625
-20.971673177083332
-20.879866536458334
-20.955065104166668
-21.093128255208335
-21.186100260416666
-21.2798046875
-21.319410807291668
-21.314918619791666
-21.314788411458334
-21.347272135416667
-21.3678125
-21.435921223958335
-21.507574869791668
-21.55609375
-21.621819661458332
-21.669918619791666
-21.749059244791667
-21.816481119791668
-21.75103841145833
-21.471611328125
-21.195361328125
-21.039925130208335
-21.05341796875
-21.142083333333332
-21.24896484375
-21.354189453125
-21.40680013020833
-21.416705729166665
-21.405940755208334
-21.375315755208334
-21.381549479166665
-21.4172265625
-21.414720052083332
-21.474231770833335
-21.518658854166667
-21.514293619791665
-21.37244140625
-20.68817057291667
-20.600755208333332
-20.658255208333333
-20.74001953125
-20.852669270833335
-20.917268880208333
-20.927395833333332
-20.944951171875
-20.892190755208333
-20.848108723958333
-20.922548828125
-20.945602213541665
-20.985361328125
-21.03046875
-20.924440104166667
-20.5636328125
-20.278727213541668
-20.269765625
-20.37359700520833
-20.459921875
-20.514495442708334
-20.529563802083334
-20.529169921875
-20.499319661458333
-20.50070638020833
-20.53796875
-20.589547526041667
-20.625087890625
-20.675211588541668
-20.63783203125
-20.387763671875
-20.01116861979167
-19.849453125
-19.874427083333334
-19.941139322916666
-20.494986979166665
-20.403440755208333
-21.040315755208333
-20.87115234375
-20.867705078125
-20.88323893229167
-20.92449869791667
-20.983391927083332
-21.046292317708332
-21.086969401041667
-21.16091796875
-21.18732421875
-20.948782552083333
-20.63087890625
-20.486276041666667
-20.493811848958334
-20.55083984375
-20.61492838541667
-20.68328776041667
-20.747490234375
-20.76083984375
-20.747711588541666
-20.752985026041667
-20.79021484375
-20.865400390625
-20.934303385416666
-20.980992838541667
-21.027008463541666
-21.090970052083332
-21.117203776041666
-21.197106119791666
-21.230341796875
-21.002200520833334
-20.73546875
-20.618463541666667
-20.61306640625
-20.662985026041667
-20.70608072916667
-20.777005208333332
-20.82267578125
-20.835621744791666
-20.861012369791666
-20.882913411458333
-20.888583984375
-20.951295572916667
-21.009130859375
-21.067177734375
-21.116819661458333
-21.169876302083335
-21.208518880208334
-21.25771484375
-21.316666666666666
-21.36689453125
-21.432431640625
-21.479866536458335
-21.525641276041668
-21.5881640625
-21.632255859375
-21.699674479166667
-21.7199609375
-21.488688151041668
-21.170709635416667
-21.02297526041667
-21.024039713541665
-21.094840494791665
-21.14427734375
-21.179134114583334
-21.231090494791665
-21.217444661458334
-21.236669921875
-21.288466796875
-21.332864583333333
-21.380592447916666
-21.413313802083334
-21.47572265625
-21.507913411458333
-21.536617838541666
-21.56603515625
-21.575553385416665
-21.607786458333333
-21.641748046875
-21.681412760416666
-21.708411458333334
-21.612604166666667
-21.325426432291668
-21.100211588541665
-21.043870442708332
-21.094690755208333
-21.141549479166667
-21.181487630208334
-21.229235026041668
-21.239847005208333
-21.260133463541667
-21.280305989583333
-21.318193359375
-21.352239583333333
-21.40692057291667
-21.472262369791668
-21.534918619791668
-21.60400390625
-21.627581380208333
-21.6812890625
-21.724368489583334
-21.760973307291668
-21.830302734375
-21.903001302083332
-21.946253255208333
-21.851184895833335
-21.56878580729167
-21.374915364583334
-21.358577473958334
-21.411790364583332
-21.503649088541668
-21.558395182291665
-21.59705078125
-21.626295572916668
-21.626041666666666
-21.629195963541665
-21.650393880208334
-21.677239583333332
-21.718938802083333
-21.7730859375
-21.832568359375
-21.880224609375
-21.926705729166667
-21.961012369791668
-21.993606770833335
-22.059947916666665
-22.162330729166666
-22.319899088541668
-22.449567057291667
-22.420009765625
-21.617578125
-21.5402734375
-20.966751302083335
-21.160354817708335
-21.223544921875
-21.280553385416667
-21.346119791666666
-21.356399739583335
-21.333984375
-21.313053385416666
-21.352779947916666
-21.36236328125
-21.414508463541665
-21.464934895833334
-21.512115885416666
-21.54677734375
-21.587750651041667
-21.620804036458335
-21.630481770833335
-21.67730794270833
-21.725218098958333
-21.724723307291665
-21.534423828125
-21.295283203125
-21.172099609375
-21.208489583333332
-21.272376302083334
-21.322760416666668
-21.3921484375
-21.474840494791668
-21.501471354166668
-21.5065234375
-21.502740885416667
-21.520553385416665
-21.546214192708334
-21.644202473958334
-21.710094401041665
-21.729938151041665
-21.75978515625
-21.778798828125
-21.821676432291667
-21.877044270833334
-21.840335286458334
-21.652197265625
-21.40744140625
-21.227890625
-21.234947916666666
-21.308616536458334
-21.371204427083335
-21.431780598958333
-21.451998697916668
-21.459544270833334
-21.457041015625
-21.414622395833334
-21.4144140625
-21.439173177083333
-21.464189453125
-21.481129557291666
-21.494807942708334
-21.51702799479167
-21.56564453125
-21.617444661458332
-21.59119140625
-21.411946614583332
-21.167379557291667
-20.958776041666667
-20.924069010416666
-21.011634114583334
-21.10294921875
-21.198570963541666
-21.24419921875
-21.228349609375
-21.20806640625
-21.167223307291668
-21.1503515625
-21.167141927083332
-21.182529296875
-21.17333984375
-21.179954427083334
-21.236363932291667
-21.229137369791665
-21.045559895833332
-20.759482421875
-20.505758463541667
-20.433336588541668
-20.500006510416668
-20.569124348958333
-20.61083984375
-20.663444010416665
-20.648779296875
-20.630319010416667
-20.617473958333335
-20.613548177083334
-20.643600260416665
-20.708919270833334
-20.738701171875
-20.810182291666667
-20.837578125
-20.652138671875
-20.329231770833335
-20.097041015625
-20.1919921875
-20.25442057291667
-20.33451171875
-20.39279296875
-20.433092447916668
-20.449251302083333
-20.446246744791665
-20.494658203125
-20.560345052083335
-20.581302083333334
-20.634345703125
-20.705442708333333
-20.632877604166666
-20.3116796875
-19.974690755208332
-19.88128580729167
-19.907903645833333
-19.923037109375
-20.446861979166666
-20.368216145833333
-20.975221354166667
-20.779189453125
-20.725748697916668
-20.722477213541666
-20.735986328125
-20.739977213541668
-20.762014973958333
-20.79615234375
-20.82681640625
-20.745963541666665
-20.469186197916667
-20.28908203125
-20.218802083333333
-20.250703125
-20.31912109375
-20.387955729166666
-20.441507161458333
-20.451357421875
-20.487233072916666
-20.540657552083335
-20.548785807291665
-20.537158203125
-20.5738671875
-20.632278645833335
-20.632718098958332
-20.63224609375
-20.684176432291668
-20.792376302083333
-20.811787109375
-20.626904296875
-20.360009765625
-20.260016276041668
-20.258017578125
-20.233831380208333
-20.25583984375
-20.352574869791667
-20.406442057291667
-20.438125
-20.512568359375
-20.53349609375
-20.585169270833333
-20.630966796875
-20.68892578125
-20.777115885416666
-20.808824869791668
-20.855657552083333
-20.927200520833335
-20.979391276041667
-21.018746744791667
-21.05841796875
-21.107786458333333
-21.154095052083335
-21.206145833333334
-21.267083333333332
-21.2465625
-21.037776692708334
-20.775647786458332
-20.663733723958334
-20.679440104166666
-20.729287109375
-20.772298177083332
-20.804612630208332
-20.803447265625
-20.810110677083333
-20.799811197916668
-20.78640625
-20.84849609375
-20.878984375
-20.91916341145833
-20.97849609375
-21.045699869791665
-21.100628255208335
-21.17087890625
-21.227373046875
-21.27828125
-21.29330078125
-21.31711263020833
-21.404918619791665
-21.418798828125
-21.294957682291667
-21.052545572916667
-20.846529947916668
-20.774622395833333
-20.819703776041667
-20.91548828125
-20.9618359375
-20.986871744791667
-21.005843098958334
-20.997119140625
-20.978011067708334
-20.984095052083333
-21.01517578125
-21.04568033854167
-21.098541666666666
-21.142008463541668
-21.178948567708332
-21.208896484375
-21.28265299479167
-21.318603515625
-21.297620442708332
-21.364993489583334
-21.418134765625
-21.491188151041666
-21.596569010416665
-21.481360677083334
-21.248792317708332
-21.123515625
-21.158219401041666
-21.304186197916668
-21.354140625
-21.4100390625
-21.456510416666667
-21.475533854166667
-21.472955729166667
-21.487919921875
-21.513079427083333
-21.563359375
-21.636946614583334
-21.701643880208334
-21.749905598958332
-21.784674479166668
-21.809306640625
-21.82482421875
-21.872027994791665
-21.93640625
-22.009290364583332
-21.962470703125
-21.747708333333332
-21.590068359375
-21.573746744791666
-21.626744791666667
-21.687877604166665
-21.716611328125
-21.774397786458334
-21.830921223958335
-21.871090494791666
-21.867724609375
-21.924189453125
-22.010458984375
-22.078004557291667
-22.149498697916666
-22.224069010416667
-22.268818359375
-22.366985677083335
-21.802939453125
-21.884840494791668
-21.215634765625
-21.297490234375
-21.244534505208332
-21.129521484375
-21.121438802083333
-21.158658854166667
-21.24634765625
-21.335891927083335
-21.369130859375
-21.380927734375
-21.402096354166666
-21.425305989583332
-21.425989583333333
-21.445068359375
-21.491409505208335
-21.531780598958335
-21.548095703125
-21.61261067708333
-21.649007161458332
-21.682392578125
-21.701038411458335
-21.570641276041666
-21.3426171875
-21.128095703125
-21.11294921875
-21.184498697916666
-21.244593098958333
-21.3053515625
-21.304853515625
-21.27907877604167
-21.26396484375
-21.228323567708333
-21.219713541666668
-21.245872395833334
-21.289228515625
-21.315416666666668
-21.352239583333333
-21.395091145833334
-21.383024088541667
-21.180908203125
-20.927001953125
-20.765543619791668
-20.766852213541668
-20.824016927083335
-20.916022135416668
-20.970589192708335
-20.984264322916665
-20.984820963541665
-20.95041341145833
-20.833697916666665
-20.754241536458334
-20.726585286458334
-20.73903971354167
-20.751881510416666
-20.781497395833334
-20.794469401041667
-20.65783203125
-20.386513671875
-20.197890625
-20.196442057291666
-20.257682291666665
-20.288001302083334
-20.330771484375
-20.295817057291668
-20.226158854166666
-20.166126302083335
-20.134560546875
-20.086396484375
-20.031129557291667
-20.017112630208334
-20.064892578125
-20.11091796875
-20.098190104166665
-19.8962890625
-19.521806640625
-19.326044921875
-19.330634765625
-19.841409505208333
-19.769905598958335
-20.885891927083332
-20.769606119791668
-21.373359375
-21.249752604166666
-21.297386067708334
-21.304300130208333
-21.35203125
-21.413896484375
-21.492607421875
-21.558203125
-21.586907552083332
-21.60101236979167
-21.464703776041667
-21.202073567708332
-20.99095703125
-20.98223958333333
-21.04709309895833
-21.089765625
-21.12673828125
-21.19436197916667
-21.195709635416666
-21.134970703125
-21.0896484375
-21.142802734375
-21.146344401041667
-21.155485026041667
-21.208675130208334
-21.273147786458335
-21.32110677083333
-21.387737630208335
-21.506363932291666
-21.551383463541665
-21.559186197916667
-21.561604817708332
-21.6436328125
-21.78082356770833
-21.858717447916668
-21.889638671875
-21.71771484375
-21.466783854166668
-21.350712890625
-21.386985677083334
-21.489954427083333
-21.573294270833333
-21.63091796875
-21.668841145833333
-21.664996744791665
-21.67919921875
-21.736217447916665
-21.795709635416667
-21.83575520833333
-21.855621744791666
-21.901442057291668
-21.994293619791666
-22.09791015625
-22.165159505208333
-22.2030859375
-22.23603515625
-22.255563151041667
-21.7109765625
-21.952936197916667
-21.405328776041667
-21.372981770833334
-21.112294921875
-20.94046875
-20.89630208333333
-20.892262369791666
-20.963430989583333
-21.102763671875
-21.145478515625
-21.122841796875
-21.126139322916668
-21.162347005208332
-21.175192057291667
-21.172223307291667
-21.208850911458335
-21.238818359375
-21.272750651041665
-21.291220703125
-21.354495442708334
-21.37066731770833
-21.357408854166668
-21.409111328125
-21.461966145833333
-21.5088671875
-21.532112630208335
-21.408987630208333
-21.180123697916667
-21.054921875
-21.022545572916666
-21.070843098958335
-21.125013020833332
-21.170677083333334
-21.20556640625
-21.213151041666666
-21.162213541666667
-21.113870442708333
-21.13935546875
-21.1659765625
-21.206018880208333
-21.229850260416665
-21.302161458333334
-21.332233072916665
-21.330856119791665
-21.337848307291665
-21.363753255208334
-21.436647135416667
-21.536692708333334
-21.623167317708333
-21.617073567708335
-21.442057291666668
-21.192392578125
-20.97044921875
-21.036966145833333
-21.070732421875
-21.095625
-21.168470052083332
-21.223141276041666
-21.197067057291665
-21.142333984375
-21.124417317708332
-21.173411458333334
-21.2446484375
-21.266953125
-21.290696614583332
-21.38742513020833
-21.424996744791667
-21.426985677083334
-21.420009765625
-21.48767578125
-21.534267578125
-21.396803385416668
-21.223600260416667
-21.156477864583334
-21.203837890625
-21.315221354166667
-21.435367838541666
-21.52370768229167
-21.582138671875
-21.611018880208334
-21.626585286458333
-21.607119140625
-21.5871484375
-21.63912109375
-21.679915364583334
-21.682893880208333
-21.687047526041667
-21.757991536458334
-21.792373046875
-21.789446614583333
-21.800611979166668
-21.826015625
-21.8509375
-21.836012369791668
-21.621917317708334
-21.378395182291666
-21.224254557291665
-21.253453776041667
-21.367509765625
-21.449150390625
-21.52880859375
-21.569853515625
-21.600472005208335
-21.607682291666666
-21.593772786458334
-21.589576822916666
-21.596546223958335
-21.684244791666668
-21.73341796875
-21.787796223958335
-21.817268880208335
-21.866624348958332
-21.873968098958333
-21.883492838541667
-21.924248046875
-21.950712890625
-21.756223958333333
-21.494703776041668
-21.341028645833333
-21.334817708333333
-21.379251302083333
-21.449915364583333
-21.58240234375
-21.6437890625
-21.664801432291668
-21.65001953125
-21.63978515625
-21.625673828125
-21.64390625
-21.691826171875
-21.746588541666668
-21.777067057291667
-21.8180078125
-21.845843098958333
-21.899541015625
-21.953483072916665
-21.943151041666667
-21.82189453125
-21.581956380208332
-21.36623697916667
-21.323583984375
-21.37111979166667
-21.460390625
-21.566175130208332
-21.609563802083333
-21.605846354166665
-21.5710546875
-21.573157552083334
-21.598160807291666
-21.61021484375
-21.63880859375
-21.702294921875
-21.752652994791667
-21.796669921875
-21.82134765625
-21.866682942708334
-21.825794270833335
-21.291555989583333
-21.191901041666668
-21.262529296875
-21.38962239583333
-21.462561848958334
-21.538984375
-21.577076822916666
-21.555992838541666
-21.509599609375
-21.475774739583333
-21.475104166666668
-21.526852213541666
-21.577858072916666
-21.61163411458333
-21.65008463541667
-21.727880859375
-21.742477213541665
-21.65521158854167
-21.150530598958333
-20.949319661458333
-21.05133138020833
-21.149329427083334
-21.23016276041667
-21.181373697916666
-21.123580729166665
-21.038014322916666
-20.989140625
-21.039951171875
-21.084501953125
-21.100458984375
-21.11728515625
-21.194710286458335
-21.195921223958333
-20.903662109375
-20.443258463541667
-20.078727213541665
-20.001455078125
-20.014534505208335
-19.97412109375
-19.978336588541666
-20.033040364583332
-20.024775390625
-20.535120442708333
-20.400921223958335
-20.441217447916667
-20.526416015625
-20.590211588541667
-20.643365885416667
-20.683824869791668
-20.768863932291666
-20.867626953125
-20.768776041666666
-20.43392578125
-20.193857421875
-20.15349609375
-20.225595703125
-20.37869140625
-20.514495442708334
-20.566220703125
-20.599156901041667
-20.656263020833332
-20.671083984375
-20.649775390625
-20.671018880208333
-20.714583333333334
-20.743538411458335
-20.786331380208335
-20.817307942708332
-20.843916015625
-20.8846484375
-20.911969401041667
-20.932770182291666
-20.974973958333333
-21.0152734375
-20.80886393229167
-20.422639973958333
-20.15871744791667
-20.067936197916666
-20.087223307291666
-20.171302083333334
-20.203382161458332
-20.208408203125
-20.247903645833333
-20.26
-20.25865234375
-20.275504557291665
-20.320927734375
-20.390439453125
-20.469134114583333
-20.473020833333333
-20.563525390625
-20.635074869791666
-20.706891276041667
-20.814371744791668
-20.871751302083332
-20.89720703125
-20.979615885416667
-21.071754557291666
-21.125628255208333
-20.929615885416666
-20.579752604166668
-20.2637890625
-20.164189453125
-20.229469401041666
-20.28728515625
-20.340836588541666
-20.35138671875
-20.282138671875
-20.2691015625
-20.313564453125
-20.313548177083334
-20.31716471354167
-20.352242838541667
-20.389749348958333
-20.419563802083335
-20.459886067708332
-20.559111328125
-20.621640625
-20.640146484375
-20.636399739583332
-20.664130859375
-20.763873697916665
-20.84294921875
-20.892106119791666
-20.72189778645833
-20.43701171875
-20.227213541666668
-20.164765625
-20.212210286458333
-20.322688802083334
-20.437161458333332
-20.483987630208333
-20.477008463541665
-20.5062109375
-20.527109375
-20.54744140625
-20.587467447916666
-20.618636067708334
-20.58494140625
-20.619547526041668
-20.67938151041667
-20.684397786458334
-20.656897786458334
-20.675553385416666
-20.73040690104167
-20.745022786458332
-20.747727864583332
-20.760419921875
-20.719319661458332
-20.509016927083334
-20.251077473958333
-20.093736979166668
-20.111822916666668
-20.218649088541667
-20.41072265625
-20.444547526041667
-20.471432291666666
-20.48494140625
-20.480354817708335
-20.471770833333334
-20.502972005208335
-20.55529296875
-20.598968098958334
-20.684290364583333
-20.744397786458332
-20.773434244791666
-20.803743489583333
-20.820960286458334
-20.839742838541667
-20.913160807291668
-21.027454427083335
-21.038619791666665
-20.784524739583333
-20.50442057291667
-20.360904947916666
-20.332643229166667
-20.373802083333334
-20.428466796875
-20.499837239583332
-20.538531901041665
-20.548388671875
-20.563961588541666
-20.536953125
-20.54990234375
-20.586481119791667
-20.60467447916667
-20.644410807291667
-20.697799479166665
-20.737184244791667
-20.789645182291668
-20.860520833333332
-20.904469401041666
-20.943850911458334
-20.99751953125
-21.08367838541667
-21.0724609375
-20.800904947916667
-20.539443359375
-20.420986328125
-20.44328125
-20.507535807291667
-20.55755533854167
-20.65399088541667
-20.743287760416667
-20.720263671875
-20.680289713541665
-20.652109375
-20.658854166666668
-20.687350260416668
-20.758870442708332
-20.858245442708334
-20.940885416666667
-20.984033203125
-21.064807942708335
-21.219085286458334
-21.171103515625
-20.97219401041667
-20.680452473958333
-20.535319010416668
-20.575947265625
-20.665003255208333
-20.771233723958332
-20.889091796875
-20.970693359375
-20.948766276041667
-20.887903645833333
-20.913294270833333
-20.966083984375
-21.046207682291666
-21.118707682291667
-21.195442708333335
-21.257275390625
-21.32841796875
-21.376650390625
-21.424521484375
-21.446588541666667
-21.207451171875
-20.853102213541668
-20.632347005208334
-20.614654947916666
-20.684612630208335
-20.769716796875
-20.868024088541667
-20.893268229166665
-20.900286458333333
-20.937858072916665
-20.92575520833333
-20.96330078125
-21.012190755208334
-21.032718098958334
-21.075569661458335
-21.15765625
-21.229117838541665
-21.266572265625
-21.218115234375
-20.926315104166665
-20.565234375
-20.36599609375
-20.379345703125
-20.46511393229167
-20.565377604166667
-20.6390234375
-20.661396484375
-20.644410807291667
-20.618216145833333
-20.605091145833335
-20.594215494791666
-20.651569010416665
-20.705576171875
-20.733248697916668
-20.790061848958334
-20.786025390625
-20.531822916666666
-20.159765625
-19.946432291666667
-20.020579427083334
-20.077415364583334
-20.654983723958335
-20.513229166666665
-20.50380859375
-20.48846354166667
-20.485611979166666
-20.488616536458334
-20.532180989583335
-20.56521484375
-20.58831705729167
-20.671142578125
-20.737747395833335
-20.761360677083335
-20.7129296875
-20.431044921875
-20.09833984375
-19.93005859375
-19.904329427083333
-19.946793619791666
-20.030068359375
-20.698714192708334
-20.573883463541666
-20.595465494791668
-20.617838541666668
-20.608818359375
-20.61370768229167
-20.680852864583333
-20.745283203125
-20.799925130208333
-20.869482421875
-20.923987630208334
-20.957102864583334
-21.01302734375
-21.06482421875
-21.060563151041666
-21.080537109375
-21.129596354166665
-21.188863932291667
-21.207877604166665
-21.073802083333334
-20.695559895833334
-20.370908203125
-20.222317708333332
-20.283834635416667
-20.324684244791666
-20.368307291666667
-20.370504557291667
-20.398470052083333
-20.394375
-20.375885416666666
-20.433414713541666
-20.52212890625
-20.559990234375
-20.571956380208334
-20.602239583333333
-20.658597005208332
-20.701044921875
-20.696920572916667
-20.714208984375
-20.766959635416665
-20.83660807291667
-20.899811197916666
-20.812210286458335
-20.510286458333333
-20.067744140625
-20.073522135416667
-20.13650390625
-20.219029947916667
-20.290087890625
-20.32353515625
-20.336949869791667
-20.344866536458333
-20.346077473958335
-20.374951171875
-20.418453776041666
-20.46955078125
-20.530712890625
-20.567972005208333
-20.6139453125
-20.652373046875
-20.660257161458333
-20.68115234375
-20.742018229166668
-20.78049153645833
-20.807607421875
-20.691263020833333
-20.392945963541667
-20.128053385416667
-19.9965234375
-20.03985677083333
-20.116780598958332
-20.172991536458333
-20.200084635416665
-20.21701171875
-20.27001953125
-20.275442708333333
-20.301839192708332
-20.3461328125
-20.3955859375
-20.447587890625
-20.513916015625
-20.54494791666667
-20.60256510416667
-20.665338541666667
-20.705895182291666
-20.73837890625
-20.800533854166666
-20.896595052083335
-20.9398046875
-20.746848958333334
-20.434671223958333
-20.21731119791667
-20.149768880208335
-20.187014973958334
-20.280166015625
-20.39265625
-20.479602864583335
-20.504876302083332
-20.492395833333333
-20.483385416666668
-20.496038411458333
-20.542975260416668
-20.604498697916668
-20.665185546875
-20.725608723958334
-20.79519205729167
-20.869840494791667
-20.907197265625
-20.925651041666665
-21.002548828125
-21.0821484375
-21.100074869791666
-20.96685872395833
-20.68414388020833
-20.448128255208335
-20.412620442708334
-20.48703125
-20.567513020833335
-20.680751953125
-20.749602864583334
-20.75246744791667
-20.789886067708334
-20.796214192708334
-20.773912760416668
-20.773190104166666
-20.838121744791668
-20.920338541666666
-21.004873046875
-21.091819661458334
-21.1309765625
-21.145299479166667
-21.191578776041666
-21.28017578125
-21.33208984375
-21.298196614583333
-21.061604817708332
-20.767320963541668
-20.57037109375
-20.564807942708335
-20.65275390625
-20.768463541666666
-20.888548177083333
-20.94772786458333
-21.035992838541667
-21.067138671875
-21.079143880208335
-21.158408203125
-21.257236328125
-21.369928385416667
-21.440250651041666
-21.483391927083332
-21.56646484375
-21.69166015625
-21.766796875
-21.791263020833334
-21.69866861979167
-21.414554036458334
-21.17278971354167
-21.088391927083332
-21.18193359375
-21.301097005208334
-21.42849283854167
-21.522672526041667
-21.537666015625
-21.546842447916667
-21.55677734375
-21.554391276041667
-21.568990885416667
-21.624417317708332
-21.670748697916668
-21.764791666666667
-21.854654947916668
-21.901839192708334
-21.968583984375
-22.015768229166667
-21.891878255208333
-21.554456380208332
-21.267412109375
-21.171533203125
-21.234918619791667
-21.35048828125
-21.470628255208332
-21.504847005208333
-21.448984375
-21.40188151041667
-21.358343098958333
-21.3567578125
-21.384069010416667
-21.429036458333332
-21.493548177083333
-21.581057942708334
-21.676184895833334
-21.740667317708333
-21.641796875
-21.3203515625
-20.998294270833334
-20.904212239583334
-20.976145833333334
-21.079612630208334
-21.190035807291668
-21.286197916666666
-21.33107421875
-21.304358723958334
-21.280462239583333
-21.302861328125
-21.351888020833332
-21.430537109375
-21.498736979166665
-21.66546549479167
-21.538824869791668
-21.209069010416666
-20.739619140625
-20.831494140625
-20.942174479166667
-21.028909505208333
-21.103255208333334
-21.13435546875
-21.143043619791666
-21.14874348958333
-21.1560546875
-21.168583984375
-21.217444661458334
-21.280930989583332
-21.352659505208333
-21.391728515625
-21.247386067708334
-20.876881510416666
-20.604612630208333
-20.551725260416667
-20.62790364583333
-20.6983984375
-20.802679036458333
-20.904742838541665
-20.9539453125
-20.945406901041668
-20.95123372395833
-20.981090494791665
-21.026520182291666
-21.085406901041665
-21.139583333333334
-21.2104296875
-21.269189453125
-21.2826171875
-21.0832421875
-20.712333984375
-20.495846354166666
-20.514860026041667
-20.587360026041665
-20.655657552083333
-20.752584635416667
-20.803317057291668
-20.832311197916667
-20.841129557291666
-20.871123046875
-20.917532552083333
-21.0111328125
-21.10681640625
-21.189798177083333
-21.235367838541666
-21.303899739583333
-21.33319010416667
-21.379039713541665
-21.44810546875
-21.490162760416666
-21.52752604166667
-21.585774739583332
-21.63625
-21.693805338541665
-21.685302734375
-21.398717447916667
-20.982939453125
-20.7740234375
-20.77423177083333
-20.873642578125
-20.925426432291665
-21.001637369791666
-21.0632421875
-21.06478515625
-21.080787760416666
-21.117317708333335
-21.174837239583333
-21.221595052083334
-21.311041666666668
-21.373369140625
-21.407890625
-21.431962890625
-21.45111002604167
-21.502021484375
-21.5416796875
-21.593131510416665
-21.64056315104167
-21.695901692708333
-21.61365234375
-21.3103125
-20.966949869791666
-20.814544270833334
-20.840755208333334
-20.912643229166665
-20.945283203125
-21.006871744791667
-21.060397135416668
-21.072278645833332
-21.071663411458335
-21.075240885416665
-21.106318359375
-21.1474609375
-21.227210286458334
-21.289085286458334
-21.343274739583332
-21.378216145833335
-21.400634765625
-21.444772135416667
-21.46970703125
-21.500113932291665
-21.540930989583334
-21.57400065104167
-21.613912760416667
-21.585130208333332
-21.323040364583335
-20.94400390625
-20.746695963541665
-20.749000651041666
-20.831526692708334
-20.88791341145833
-20.945013020833333
-20.99212565104167
-21.013792317708333
-21.019342447916667
-21.026468098958333
-21.0346484375
-21.09390625
-21.174000651041666
-21.229912109375
-21.296708984375
-21.36232421875
-21.414596354166665
-21.451832682291666
-21.47416015625
-21.496080729166668
-21.562799479166667
-21.626393229166666
-21.672679036458334
-21.664951171875
-21.44015950520833
-21.08359375
-20.828531901041668
-20.825862630208334
-20.912021484375
-21.013896484375
-21.086389973958333
-21.149303385416665
-21.176842447916666
-21.2134375
-21.210299479166668
-21.228033854166668
-21.30548828125
-21.36607421875
-21.442106119791667
-21.517705078125
-21.583577473958332
-21.64376953125
-21.6704296875
-21.679700520833332
-21.7187109375
-21.794518229166666
-21.859137369791668
-21.830380859375
-21.572311197916665
-21.23212890625
-21.010797526041667
-21.018929036458335
-21.119290364583332
-21.230885416666666
-21.31826171875
-21.388642578125
-21.38283203125
-21.347005208333332
-21.325791015625
-21.342972005208335
-21.393743489583333
-21.477255859375
-21.545130208333333
-21.603274739583334
-21.700804036458333
-21.762522786458334
-21.786175130208335
-21.806240234375
-21.87669921875
-21.961402994791666
-21.990065104166668
-21.802965494791668
-21.484651692708333
-21.237955729166668
-21.1915234375
-21.27883463541667
-21.409921875
-21.5571484375
-21.624690755208334
-21.645091145833334
-21.666171875
-21.699895833333333
-21.712275390625
-21.755182291666667
-21.916110026041668
-21.990852864583335
-22.029348958333333
-22.077265625
-22.152493489583332
-22.251067708333334
-22.28220703125
-22.213619791666666
-21.378795572916665
-21.214326171875
-20.506692708333333
-20.721559244791667
-20.832242838541667
-20.951070963541667
-21.09296875
-21.16798828125
-21.170787760416665
-21.159527994791667
-21.142757161458334
-21.240146484375
-21.29244140625
-21.32708658854167
-21.390797526041666
-21.484544270833332
-21.559794921875
-21.554928385416666
-21.307789713541666
-20.92904296875
-20.663639322916666
-20.635
-20.70375
-20.81771484375
-21.012659505208333
-21.01384765625
-21.004993489583335
-20.979156901041666
-20.994264322916667
-21.037822265625
-21.107145182291667
-21.16962890625
-21.245927734375
-21.327216796875
-21.302001953125
-21.017106119791666
-20.607565104166667
-20.376233723958332
-20.364762369791666
-20.4423828125
-20.568714192708335
-20.6618359375
-20.703873697916666
-20.698896484375
-20.668199869791668
-20.631673177083332
-20.649127604166665
-20.681552734375
-20.734759114583333
-20.796126302083334
-20.862649739583333
-20.804352213541666
-20.48064453125
-20.075625
-19.884856770833334
-19.90490234375
-19.989814453125
-20.607548828125
-20.544222005208333
-21.142783203125
-20.949169921875
-20.905791015625
-20.917565104166666
-20.943125
-20.978658854166667
-21.026692708333332
-21.10736328125
-21.171468098958332
-21.070859375
-20.708297526041665
-20.354391276041667
-20.247958984375
-20.286949869791666
-20.367311197916667
-20.411002604166665
-20.48900390625
-20.5287109375
-20.515458984375
-20.515670572916665
-20.518984375
-20.5506640625
-20.582858072916668
-20.624147135416667
-20.680400390625
-20.731380208333334
-20.781376953125
-20.723639322916668
-20.393024088541665
-20.032389322916668
-19.916328125
-19.9599609375
-20.0171484375
-20.091774088541666
-20.200042317708334
-20.25806640625
-20.267610677083333
-20.259762369791666
-20.284609375
-20.32232747395833
-20.372705078125
-20.440149739583333
-20.494407552083334
-20.52273111979167
-20.556171875
-20.595911458333333
-20.640891927083334
-20.675986328125
-20.715354817708334
-20.78244140625
-20.811608072916666
-20.864833984375
-20.919332682291667
-20.966604817708333
-20.996686197916667
-20.787356770833334
-20.378372395833335
-20.09466471354167
-20.051806640625
-20.134055989583334
-20.205768229166665
-20.270774739583334
-20.317496744791665
-20.324475911458332
-20.312203776041667
-20.317646484375
-20.354401041666666
-20.415166015625
-20.461832682291668
-20.5153125
-20.594134114583333
-20.671494140625
-20.70391927083333
-20.738984375
-20.779371744791668
-20.799554036458332
-20.8383203125
-20.872464192708332
-20.91998046875
-20.990485026041668
-21.045533854166667
-20.924397786458332
-20.58151692708333
-20.280231119791665
-20.204749348958334
-20.265875651041668
-20.331110026041667
-20.401813151041665
-20.46481770833333
-20.468082682291666
-20.48560546875
-20.496500651041668
-20.489332682291668
-20.507115885416667
-20.561591796875
-20.617138671875
-20.6577734375
-20.734254557291667
-20.792047526041667
-20.87811197916667
-20.928401692708334
-20.954361979166666
-21.005302734375
-21.056575520833334
-21.131363932291666
-21.156809895833334
-20.95265625
-20.604104817708333
-20.359016927083335
-20.310524088541666
-20.376722005208332
-20.47318359375
-20.561982421875
-20.615413411458334
-20.619388020833334
-20.629381510416668
-20.647425130208333
-20.655797526041667
-20.688626302083332
-20.84991536458333
-20.927890625
-21.015703125
-21.070869140625
-21.116510416666667
-21.182737630208333
-21.216666666666665
-21.265732421875
-21.304352213541666
-21.388987630208334
-21.178216145833332
-20.83826171875
-20.609016927083335
-20.601927083333333
-20.687659505208334
-20.79626953125
-20.895885416666665
-20.965608723958333
-20.9909375
-20.979801432291666
-20.963033854166667
-20.968798828125
-21.0024609375
-21.066481119791668
-21.166363932291667
-21.240794270833334
-21.293815104166665
-21.352154947916667
-21.394117838541668
-21.420774739583333
-21.465452473958333
-21.51994140625
-21.58489908854167
-21.564928385416668
-21.324195963541666
-21.014694010416665
-20.779339192708335
-20.764339192708334
-20.832265625
-20.939456380208334
-21.044134114583333
-21.081930338541667
-21.076103515625
-21.089772135416666
-21.033343098958333
-21.079443359375
-21.140045572916666
-21.232998046875
-21.317317708333334
-21.431357421875
-21.47220703125
-21.49734375
-21.566354166666667
-21.661207682291668
-21.68458984375
-21.495052083333334
-21.236282552083335
-21.012916666666666
-20.943583984375
-21.027470703125
-21.1224609375
-21.269908854166665
-21.379651692708332
-21.397073567708333
-21.415188802083332
-21.425465494791666
-21.426175130208332
-21.471813151041665
-21.53732747395833
-21.600364583333334
-21.662180989583334
-21.7170703125
-21.786015625
-21.825436197916666
-21.883740234375
-21.924886067708332
-21.7944921875
-21.51720703125
-21.254459635416666
-21.104417317708332
-21.1678125
-21.269619140625
-21.364108072916668
-21.445263671875
-21.508649088541667
-21.520465494791665
-21.485387369791667
-21.492584635416666
-21.561832682291666
-21.62103190104167
-21.6500390625
-21.672945963541668
-21.752080078125
-21.841865234375
-21.890260416666667
-21.776083984375
-21.465110677083334
-21.151451822916666
-21.013723958333333
-21.082666015625
-21.210149739583333
-21.346204427083332
-21.473610026041666
-21.500289713541665
-21.474905598958333
-21.457643229166667
-21.468450520833333
-21.50109375
-21.535432942708333
-21.587109375
-21.63869140625
-21.661917317708333
-21.551376953125
-21.214514973958334
-20.855364583333333
-20.689208984375
-20.730556640625
-20.852708333333332
-20.971813151041665
-21.032454427083334
-21.044567057291665
-21.012652994791665
-20.969147135416666
-20.974283854166668
-20.982939453125
-21.022493489583333
-21.12349609375
-21.172457682291668
-21.179563802083333
-20.97833984375
-20.56197265625
-20.251360677083333
-20.202864583333334
-20.255966796875
-20.30807942708333
-20.384254557291666
-20.438606770833335
-20.430533854166665
-20.410983072916668
-20.417047526041667
-20.424951171875
-20.495227864583335
-20.5599609375
-20.617897135416666
-20.667991536458334
-20.497353515625
-20.074283854166666
-19.777197265625
-19.736985677083332
-19.770598958333334
-20.401624348958332
-20.299309895833332
-20.929267578125
-20.786253255208333
-20.829752604166668
-20.818274739583334
-20.829586588541666
-20.885257161458334
-20.978678385416668
-21.024944661458335
-21.077666015625
-21.123216145833332
-21.200680338541666
-21.247799479166666
-21.267532552083335
-21.3113671875
-21.11008138020833
-20.701279296875
-20.434495442708332
-20.409830729166668
-20.459729817708332
-20.487467447916668
-20.634541015625
-20.679973958333335
-20.70703125
-20.71814453125
-20.763818359375
-20.8091796875
-20.858421223958334
-20.934759114583333
-20.998479817708333
-21.042337239583333
-21.078473307291667
-21.118492838541666
-21.151451822916666
-21.206988932291665
-21.26422200520833
-21.313570963541668
-21.3629296875
-21.400625
-21.441969401041668
-21.462991536458333
-21.535673828125
-21.548603515625
-21.198258463541666
-20.777174479166668
-20.615764973958335
-20.66576171875
-20.747255859375
-20.814469401041666
-20.875576171875
-20.88384765625
-20.884264322916668
-20.940813802083333
-20.967574869791665
-20.984482421875
-21.038388671875
-21.114661458333334
-21.164150390625
-21.202350260416665
-21.210455729166668
-21.246754557291666
-21.308359375
-21.34466796875
-21.377057291666667
-21.384293619791666
-21.43505859375
-21.457985026041666
-21.241097005208335
-20.881432291666666
-20.636966145833334
-20.613102213541666
-20.726044921875
-20.802252604166668
-20.866455078125
-20.9253125
-20.961067708333335
-20.96502604166667
-20.954814453125
-20.97507161458333
-21.021819661458334
-21.064264322916667
-21.121956380208335
-21.194095052083334
-21.251731770833334
-21.30787109375
-21.332932942708332
-21.374638671875
-21.409977213541666
-21.443818359375
-21.481432291666668
-21.54193359375
-21.577154947916668
-21.442760416666665
-21.122037760416667
-20.826673177083332
-20.779176432291667
-20.861578776041668
-20.955934244791667
-21.032027994791665
-21.088063151041666
-21.091048177083334
-21.075367838541666
-21.106181640625
-21.11248046875
-21.153509114583333
-21.207965494791665
-21.256770833333334
-21.311656901041665
-21.376087239583335
-21.42669921875
-21.474534505208332
-21.489694010416667
-21.498147786458333
-21.554117838541668
-21.630227864583333
-21.660257161458333
-21.516009114583333
-21.180677083333332
-20.937141927083335
-20.848408203125
-20.89943359375
-21.004306640625
-21.107701822916667
-21.167874348958332
-21.205322265625
-21.289505208333335
-21.28015625
-21.253902994791666
-21.299361979166665
-21.349075520833335
-21.421432291666665
-21.51328125
-21.587522786458333
-21.684303385416666
-21.772620442708334
-21.809095052083332
-21.8569921875
-21.938336588541667
-22.025924479166665
-22.01646484375
-21.798134765625
-21.506845703125
-21.2975390625
-21.273531901041668
-21.378385416666667
-21.48761067708333
-21.640543619791668
-21.7579296875
-21.824576822916665
-21.845091145833333
-21.86138997395833
-21.884733072916667
-21.937415364583334
-22.00638671875
-22.106057942708333
-22.156455078125
-22.190989583333334
-22.260787760416665
-22.337835286458333
-22.40109700520833
-22.458063151041667
-22.284189453125
-21.362998046875
-21.248984375
-20.6353515625
-20.876399739583334
-21.008883463541668
-21.18423828125
-21.29890625
-21.311884765625
-21.307496744791667
-21.312008463541666
-21.30521484375
-21.328802083333333
-21.396731770833334
-21.444342447916668
-21.476702473958333
-21.532115885416665
-21.602744140625
-21.61880859375
-21.450218098958334
-21.096770833333334
-20.789739583333333
-20.71712890625
-20.812454427083335
-20.913307291666666
-21.020240885416666
-21.078196614583334
-21.100563151041666
-21.095071614583333
-21.089697265625
-21.110524088541666
-21.130930989583334
-21.205530598958333
-21.262220052083332
-21.344339192708333
-21.426139322916665
-21.40798828125
-21.14376953125
-20.756572265625
-20.5021484375
-20.489361979166667
-20.57431640625
-20.657666015625
-20.759837239583334
-20.829694010416667
-20.822705078125
-20.822945963541667
-20.812975260416668
-20.831907552083333
-20.858600260416665
-20.887044270833332
-20.962067057291666
-21.01318359375
-21.074361979166667
-20.962734375
-20.5946484375
-20.2609765625
-20.147262369791665
-20.175533854166666
-20.228850911458334
-20.29193033854167
-20.347591145833334
-20.369671223958335
-20.341354166666665
-20.336373697916667
-20.3851171875
-20.425836588541667
-20.46905598958333
-20.609508463541665
-20.681962890625
-20.719580078125
-20.542473958333332
-20.1832421875
-19.979479166666668
-19.942532552083332
-20.02791015625
-20.105029296875
-20.164638671875
-20.239436848958334
-20.264847005208335
-20.285354817708335
-20.288997395833334
-20.279580078125
-20.319095052083334
-20.40732421875
-20.463111979166666
-20.486881510416666
-20.540305989583334
-20.60806640625
-20.635061848958333
-20.6920703125
-20.745944010416668
-20.791858723958335
-20.831930338541667
-20.878583984375
-20.948958333333334
-21.027288411458333
-21.064912109375
-20.808857421875
-20.426985677083334
-20.126676432291667
-20.212294921875
-20.25970703125
-20.272395833333334
-20.334345703125
-20.3969921875
-20.420325520833334
-20.44068359375
-20.472633463541666
-20.530094401041666
-20.569840494791666
-20.6478515625
-20.708209635416665
-20.73171549479167
-20.745677083333334
-20.796539713541666
-20.825836588541666
-20.835579427083335
-20.859469401041668
-20.914596354166665
-20.996259765625
-20.977639973958333
-20.70533203125
-20.192399088541666
-20.16763671875
-20.24328125
-20.33662109375
-20.418102213541665
-20.450305989583335
-20.443805338541665
-20.4634765625
-20.454479166666665
-20.453362630208332
-20.493056640625
-20.555745442708332
-20.583232421875
-20.643206380208333
-20.724967447916665
-20.789117838541667
-20.814498697916665
-20.870530598958332
-20.946901041666667
-21.021334635416668
-21.138304036458333
-21.209332682291667
-21.1851171875
-20.925530598958332
-20.657610677083333
-20.48931640625
-20.452705078125
-20.52975911458333
-20.611217447916665
-20.692005208333335
-20.729147135416667
-20.727991536458333
-20.723346354166665
-20.708186848958334
-20.684944661458335
-20.703157552083333
-20.779098307291665
-20.847568359375
-20.892431640625
-20.9236328125
-20.948580729166668
-20.989762369791666
-21.031461588541667
-21.062220052083333
-21.086702473958333
-21.11310546875
-21.141484375
-20.894085286458335
-20.546165364583334
-20.33673177083333
-20.28474609375
-20.359576822916665
-20.441246744791666
-20.513271484375
-20.596536458333333
-20.625419921875
-20.619814453125
-20.590745442708332
-20.57548828125
-20.614736328125
-20.695364583333333
-20.76046875
-20.820595703125
-20.8834375
-20.958430989583334
-21.00168294270833
-21.05814453125
-21.08466796875
-21.121884765625
-21.051529947916666
-20.760087890625
-20.482405598958334
-20.307373046875
-20.299560546875
-20.396119791666667
-20.461588541666668
-20.523837890625
-20.598284505208333
-20.64654296875
-20.657236328125
-20.66787109375
-20.69504231770833
-20.75412434895833
-20.805159505208334
-20.810891927083333
-20.840709635416665
-20.9270703125
-20.97433919270833
-20.989879557291665
-21.025973307291668
-21.02193359375
-20.802864583333335
-20.515094401041665
-20.309928385416665
-20.23019856770833
-20.275520833333335
-20.370400390625
-20.484153645833334
-20.57644205729167
-20.595716145833332
-20.57595703125
-20.544078776041665
-20.559856770833335
-20.624156901041665
-20.657373046875
-20.670530598958333
-20.793287760416668
-20.883444010416667
-20.97650065104167
-21.023050130208333
-20.938756510416667
-20.633479817708334
-20.332779947916666
-20.164319661458332
-20.147099609375
-20.229124348958333
-20.346279296875
-20.51462890625
-20.581617838541668
-20.59685546875
-20.611383463541667
-20.613740234375
-20.599733072916667
-20.603167317708333
-20.633053385416666
-20.6754296875
-20.701549479166665
-20.72170572916667
-20.772213541666666
-20.779384765625
-20.499013671875
-19.92502278645833
-19.839866536458334
-19.924580078125
-20.00712890625
-20.64892578125
-20.518014322916667
-20.524993489583334
-20.498199869791666
-20.458424479166666
-20.477991536458333
-20.487701822916666
-20.5003515625
-20.559899088541666
-20.615309244791668
-20.669130859375
-20.726321614583334
-20.667281901041665
-20.366103515625
-20.035478515625
-19.832194010416668
-19.811953125
-19.887893880208335
-20.477506510416667
-20.37591796875
-20.953583984375
-20.739322916666666
-20.741080729166665
-20.766223958333335
-20.804296875
-20.847415364583334
-20.8802734375
-20.920087890625
-20.92746419270833
-20.980787760416668
-21.042213541666666
-21.055364583333333
-21.006878255208335
-20.695367838541667
-20.3287109375
-20.095751953125
-20.1058984375
-20.196080729166667
-20.266673177083334
-20.321904296875
-20.355657552083333
-20.386220703125
-20.408014322916667
-20.374228515625
-20.401399739583333
-20.462783203125
-20.511682942708333
-20.546962890625
-20.591061197916666
-20.650061848958334
-20.7086328125
-20.756015625
-20.763385416666665
-20.786787109375
-20.844205729166667
-20.898873697916667
-20.963125
-20.516171875
-20.20826171875
-20.085146484375
-20.13909830729167
-20.237919921875
-20.316028645833335
-20.382610677083335
-20.395823567708334
-20.411988932291667
-20.428330078125
-20.431904296875
-20.428603515625
-20.440638020833333
-20.489176432291668
-20.539182942708333
-20.605817057291667
-20.685872395833332
-20.728343098958334
-20.737389322916666
-20.725719401041665
-20.807770182291666
-20.873990885416667
-20.896695963541667
-20.851295572916666
-20.577962239583332
-20.266595052083332
-20.074934895833334
-20.082711588541667
-20.185576171875
-20.268961588541668
-20.333561197916666
-20.355618489583332
-20.401383463541666
-20.435921223958335
-20.445074869791668
-20.429547526041667
-20.455426432291667
-20.536627604166668
-20.624029947916668
-20.662548828125
-20.718020833333334
-20.735699869791667
-20.769361979166668
-20.831048177083332
-20.899228515625
-20.887972005208333
-20.6081640625
-20.320748697916667
-20.142093098958334
-20.093216145833335
-20.141643880208335
-20.248649088541665
-20.394938151041668
-20.408948567708332
-20.413098958333332
-20.460791015625
-20.4939453125
-20.531214192708333
-20.598040364583333
-20.678212890625
-20.720914713541667
-20.83423828125
-20.959274088541665
-20.984267578125
-20.937600911458333
-21.033209635416668
-21.15140625
-21.248987630208333
-21.141422526041666
-20.562887369791667
-20.4426171875
-20.47669921875
-20.585973307291667
-20.734140625
-20.862893880208333
-20.894046223958334
-20.938828125
-20.930022786458334
-20.914664713541665
-20.925279947916668
-20.970693359375
-21.00646484375
-21.017008463541668
-21.082610677083334
-21.162421875
-21.195999348958335
-21.25583984375
-21.393020833333335
-21.470615234375
-21.342874348958333
-21.030638020833333
-20.771774088541665
-20.67584309895833
-20.753893229166668
-20.87087565104167
-20.9841796875
-21.054599609375
-21.156028645833334
-21.198505859375
-21.153580729166666
-21.153665364583333
-21.20480794270833
-21.251513671875
-21.268089192708334
-21.303512369791665
-21.371240234375
-21.450211588541666
-21.500732421875
-21.496435546875
-21.35476236979167
-21.0230078125
-20.778658854166668
-20.677903645833332
-20.700615234375
-20.821214192708332
-20.9845703125
-21.09306640625
-21.188922526041665
-21.232412109375
-21.284010416666668
-21.328453776041666
-21.31673828125
-21.31392578125
-21.39017578125
-21.452613932291666
-21.48609375
-21.556022135416665
-21.59134765625
-21.4121484375
-21.11810221354167
-20.826432291666666
-20.716201171875
-20.79912109375
-20.893756510416665
-21.00888671875
-21.136263020833333
-21.123818359375
-21.094147135416666
-21.098017578125
-21.17556640625
-21.2394921875
-21.25949544270833
-21.285777994791665
-21.377353515625
-21.470862630208334
-21.407333984375
-21.090257161458332
-20.821468098958334
-20.663841145833334
-20.653470052083332
-20.720869140625
-20.805537109375
-20.91
-20.95754557291667
-20.952711588541668
-20.95489583333333
-20.94732421875
-20.953997395833333
-21.021194661458335
-21.067838541666667
-21.121484375
-21.168219401041668
-21.243564453125
-21.330651041666666
-21.365380859375
-21.272587890625
-21.002626953125
-20.742236328125
-20.653059895833334
-20.705188802083335
-20.805263671875
-20.863059895833334
-20.939498697916665
-20.980354817708335
-20.989586588541666
-21.01638671875
-21.021435546875
-21.03045572916667
-21.105263671875
-21.18072265625
-21.253463541666665
-21.286569010416667
-21.329576822916668
-21.338961588541668
-21.345364583333332
-21.37957682291667
-21.40876953125
-21.420022786458333
-21.474661458333333
-21.56142578125
-21.641884765625
-21.580358072916667
-21.249420572916666
-20.992021484375
-20.872972005208332
-20.86423828125
-20.922932942708332
-21.041298828125
-21.124586588541668
-21.154791666666668
-21.160169270833332
-21.208310546875
-21.169951171875
-21.216331380208334
-21.22326171875
-21.227360026041666
-21.285104166666667
-21.383447265625
-21.410032552083333
-21.404456380208334
-21.41286783854167
-21.456201171875
-21.5135546875
-21.581764322916666
-21.571923828125
-21.384635416666665
-21.146083984375
-21.000595703125
-20.993268229166667
-21.085774739583332
-21.152447916666667
-21.214856770833332
-21.2684765625
-21.284225260416665
-21.279944661458334
-21.265611979166668
-21.262809244791665
-21.288043619791665
-21.30705078125
-21.355891927083334
-21.452623697916668
-21.505260416666665
-21.521337890625
-21.532838541666667
-21.640634765625
-21.662529296875
-21.737037760416666
-21.690764973958334
-21.375390625
-21.09763671875
-21.020696614583333
-21.068938802083334
-21.132210286458335
-21.156585286458334
-21.143063151041666
-21.131363932291666
-21.191822916666666
-21.208831380208334
-21.219134114583333
-21.286744791666667
-21.388681640625
-21.431175130208334
-21.46607421875
-21.538248697916668
-21.604143880208333
-21.6175390625
-21.618570963541668
-21.717024739583334
-21.793040364583334
-21.842604166666668
-21.781253255208334
-21.506145833333335
-21.274817708333334
-21.162734375
-21.198766276041667
-21.296780598958332
-21.401998697916667
-21.562936197916667
-21.58819661458333
-21.6094921875
-21.582418619791667
-21.56091796875
-21.593821614583334
-21.701569010416666
-21.765673828125
-21.837727864583332
-21.922652994791665
-21.985634765625
-22.019778645833334
-22.087255859375
-22.188785807291666
-22.183326822916666
-21.957229817708335
-21.75347981770833
-21.706865234375
-21.769475911458333
-21.807711588541668
-21.8946484375
-21.9943359375
-22.039150390625
-22.048938802083335
-22.080823567708332
-22.08654296875
-22.071038411458332
-22.110983072916667
-22.15826497395833
-22.162828776041668
-22.16857421875
-22.18513671875
-22.22314453125
-22.223271484375
-22.286966145833333
-22.297936197916666
-22.114801432291667
-21.299723307291668
-21.236272786458333
-21.215582682291668
-21.25189127604167
-21.31796875
-21.407314453125
-21.442151692708332
-21.4731640625
-21.516240234375
-21.523229166666667
-21.54341796875
-21.624436848958332
-21.715032552083333
-21.766617838541666
-21.792239583333334
-21.831552734375
-21.897682291666666
-21.924563802083334
-21.796930338541667
-21.528118489583335
-21.267936197916665
-21.165436197916666
-21.211276041666668
-21.301604817708334
-21.427194010416667
-21.448375651041665
-21.398984375
-21.39260416666667
-21.439306640625
-21.447513020833334
-21.503294270833333
-21.596097005208332
-21.654010416666665
-21.583138020833335
-21.292571614583334
-20.972978515625
-20.857096354166668
-20.902626953125
-20.985113932291668
-21.059296875
-21.166110026041668
-21.202431640625
-21.180074869791667
-21.152506510416668
-21.13299479166667
-21.16671875
-21.233932291666665
-21.27232421875
-21.295068359375
-21.339075520833333
-21.390631510416668
-21.191507161458333
-20.57598958333333
-20.518466796875
-20.573815104166666
-20.641263020833332
-20.732513020833334
-20.859612630208332
-20.870442708333332
-20.873515625
-20.94517578125
-21.013776041666667
-21.022513020833333
-21.045813802083334
-21.158854166666668
-21.223264973958333
-21.10228515625
-20.771884765625
-20.488567708333335
-20.375091145833334
-20.395475260416667
-20.487708333333334
-20.556669921875
-20.658170572916667
-20.73078125
-20.738990885416666
-20.74572265625
-20.741259765625
-20.760042317708333
-20.847041015625
-20.901484375
-20.915888671875
-20.948509114583334
-20.99427734375
-21.037386067708333
-21.072255859375
-21.133001302083333
-21.240335286458333
-21.302041015625
-21.319368489583333
-21.333587239583334
-21.361048177083333
-21.296735026041667
-20.957757161458332
-20.480465494791666
-20.512994791666667
-20.627516276041668
-20.698541666666667
-20.728323567708333
-20.75146484375
-20.786116536458334
-20.807962239583333
-20.84
-20.896712239583334
-20.939117838541666
-20.977102864583333
-21.060833333333335
-21.138111979166666
-21.168411458333335
-21.18681640625
-21.19859375
-21.244000651041667
-21.284573567708332
-21.337102864583333
-21.384296875
-21.213138020833334
-20.878098958333332
-20.699856770833332
-20.679635416666667
-20.719690755208333
-20.749453125
-20.797021484375
-20.862112630208333
-20.893131510416666
-20.8983984375
-20.899111328125
-20.9177734375
-20.929488932291665
-20.966123046875
-21.004765625
-21.056754557291665
-21.095872395833332
-21.130325520833335
-21.172473958333335
-21.192262369791667
-21.222477213541666
-21.277093098958332
-21.338434244791667
-21.379446614583333
-21.241266276041667
-20.962835286458333
-20.7974609375
-20.775813802083334
-20.795712890625
-20.864850260416667
-20.955927734375
-21.016158854166665
-21.04322265625
-21.073121744791667
-21.088408203125
-21.107548828125
-21.135511067708332
-21.133430989583335
-21.175289713541666
-21.224150390625
-21.269684244791666
-21.31955078125
-21.384036458333334
-21.409222005208335
-21.413876953125
-21.461591796875
-21.524280598958335
-21.565602213541666
-21.423763020833334
-21.149088541666668
-20.967630208333333
-20.932076822916667
-20.990826822916667
-21.128977864583334
-21.21521484375
-21.274036458333335
-21.274996744791668
-21.267317708333334
-21.244967447916668
-21.265533854166666
-21.32576171875
-21.378225911458333
-21.456331380208333
-21.541292317708333
-21.64810546875
-21.707294921875
-21.749684244791666
-21.839251302083333
-21.943310546875
-22.023909505208334
-22.017294921875
-21.80593424479167
-21.558483072916665
-21.422184244791666
-21.418170572916665
-21.476402994791666
-21.573193359375
-21.681220703125
-21.725065104166667
-21.725227864583335
-21.785911458333334
-21.802740885416668
-21.795983072916666
-21.837119140625
-21.883912760416667
-21.931061197916666
-22.004860026041666
-22.00744140625
-22.054065755208335
-22.106041666666666
-22.168313802083333
-22.23312825520833
-22.147425130208333
-21.934189453125
-21.699026692708333
-21.551946614583333
-21.5711328125
-21.65916015625
-21.746712239583335
-21.78427734375
-21.839495442708333
-21.874114583333334
-21.870774739583332
-21.88646484375
-21.884440104166668
-21.896083984375
-21.893499348958333
-21.916956380208333
-21.984274088541667
-22.055823567708334
-22.104619140625
-22.089163411458333
-21.897421875
-21.47330078125
-21.438863932291667
-21.505504557291665
-21.60723958333333
-21.70294921875
-21.761207682291666
-21.814658203125
-21.827890625
-21.842581380208333
-21.873883463541667
-21.93850260416667
-22.031204427083335
-22.104694010416665
-22.14677734375
-22.266920572916668
-22.088333333333335
-21.811826171875
-21.556438802083335
-21.519176432291665
-21.570885416666666
-21.606315104166665
-21.683111979166668
-21.744055989583334
-21.710817057291667
-21.680452473958333
-21.7037109375
-21.721796875
-21.748470052083334
-21.775244140625
-21.803880208333332
-21.892766927083333
-21.840546875
-21.545784505208335
-21.241982421875
-21.0666015625
-21.064680989583334
-21.14025390625
-21.188046875
-21.241136067708332
-21.300166015625
-21.352740885416665
-21.381214192708335
-21.423440755208333
-21.47918619791667
-21.521389973958332
-21.546552734375
-21.561490885416667
-21.603131510416667
-21.632877604166666
-21.530771484375
-21.21509765625
-20.95306640625
-20.867317708333335
-20.916979166666668
-20.999020182291666
-21.054557291666665
-21.113040364583334
-21.168564453125
-21.206572265625
-21.19997721354167
-21.177838541666667
-21.247529296875
-21.34041015625
-21.361038411458335
-21.381419270833334
-21.3994921875
-21.404879557291668
-21.456995442708333
-21.43515625
-21.188522135416665
-20.890784505208334
-20.793421223958333
-20.790738932291667
-20.842431640625
-20.912366536458332
-20.99677734375
-21.03805989583333
-21.014251302083334
-20.951682942708334
-20.94556640625
-20.986800130208334
-20.961793619791667
-20.964244791666665
-20.957711588541667
-20.962415364583332
-21.029970703125
