-29.238994140625
-29.264986979166668
-15.505169270833333
-33.71353190104167
-28.551666666666666
-28.727652994791665
-23.720045572916668
-23.838385416666668
-22.505013020833335
-20.981223958333334
-20.572268880208334
-20.740094401041667
-20.7703515625
-20.811311848958333
-20.83240234375
-20.83685546875
-20.663046875
-20.52419921875
-20.49783203125
-20.5823046875
-20.680266927083334
-20.751572265625
-20.883209635416666
-21.051497395833334
-21.108310546875
-21.104814453125
-21.122109375
-21.135143229166665
-21.129609375
-21.103580729166666
-21.08345703125
-21.162652994791667
-21.268395182291666
-21.31666015625
-21.306800130208334
-21.284147135416667
-21.20330729166667
-20.965348307291666
-20.856988932291667
-20.863678385416666
-20.930511067708334
-20.982093098958334
-21.055794270833335
-21.125729166666666
-21.0580859375
-20.999459635416667
-21.002200520833334
-21.00567708333333
-21.021761067708333
-21.145686848958334
-21.149947916666665
-21.173763020833334
-21.201018880208334
-21.201201171875
-21.042477213541666
-20.828170572916665
-20.698388671875
-20.700244140625
-20.718362630208333
-20.753291015625
-20.791901041666666
-20.80923828125
-20.82517578125
-20.839264322916666
-20.83779296875
-20.863655598958335
-20.91568359375
-20.939342447916665
-20.989098307291666
-21.031936848958335
-21.059000651041668
-21.086650390625
-21.126848958333333
-21.160986328125
-21.098834635416665
-20.88880859375
-20.706510416666667
-20.90871744791667
-20.877200520833334
-20.959215494791668
-21.028365885416665
-21.052887369791666
-21.093359375
-20.903518880208335
-20.975032552083334
-20.939397786458333
-20.947360026041668
-20.96978515625
-21.001227213541668
-21.049283854166667
-21.06728515625
-21.084609375
-21.125826822916668
-21.162044270833334
-21.187600911458333
-21.065087890625
-20.853502604166668
-20.736917317708333
-20.761643880208332
-20.795904947916668
-20.873382161458334
-20.95720703125
-20.98048828125
-20.970999348958333
-20.94517578125
-20.924567057291668
-20.921416015625
-20.912652994791667
-20.92978515625
-20.948873697916667
-20.949033203125
-20.969596354166665
-20.995139973958334
-20.841194661458335
-20.64494140625
-20.51125651041667
-20.511041666666667
-20.552584635416668
-20.595192057291666
-20.692360026041666
-20.756669921875
-20.732314453125
-20.646650390625
-20.602942708333334
-20.613968098958335
-20.6440234375
-20.692161458333334
-20.743597005208333
-20.824833984375
-20.955703125
-20.991357421875
-20.8415234375
-20.698131510416665
-20.586162109375
-20.60201171875
-20.715198567708335
-20.88552734375
-21.037054036458333
-21.041067708333333
-21.019270833333334
-21.01096028645833
-20.994130859375
-20.973854166666666
-20.987259114583335
-20.993603515625
-21.027438151041668
-20.777412109375
-20.457802734375
-20.217633463541667
-20.074612630208332
-20.010550130208333
-20.04984375
-19.933727213541665
-19.888675130208334
-19.901995442708333
-19.888623046875
-19.880179036458333
-19.892421875
-19.92044921875
-19.979436848958333
-19.877213541666666
-19.663460286458335
-19.598323567708334
-19.65163736979167
-20.271539713541667
-20.147057291666666
-20.568863932291666
-20.621028645833334
-20.631181640625
-20.647701822916666
-20.674716796875
-20.709596354166667
-20.776100260416666
-20.723294270833332
-20.442744140625
-20.23916015625
-20.19115234375
-20.21438151041667
-20.246715494791665
-20.292223307291668
-20.3634765625
-20.375205078125
-20.379925130208335
-20.387330729166667
-20.414521484375
-20.445953776041666
-20.474954427083333
-20.522965494791666
-20.586865234375
-20.634430338541666
-20.642333984375
-20.45196614583333
-20.241529947916668
-20.167705078125
-20.229026692708334
-20.303515625
-20.428997395833335
-20.453352864583334
-20.48712890625
-20.511800130208332
-20.541764322916666
-20.59390625
-20.66189453125
-20.726295572916666
-20.780442708333332
-20.827981770833333
-20.84494140625
-20.926927083333332
-20.788515625
-20.527737630208332
-20.399654947916666
-20.425455729166668
-20.469557291666668
-20.515315755208334
-20.582724609375
-20.585634765625
-20.61208984375
-20.630986328125
-20.7021875
-20.74376953125
-20.785491536458334
-20.816741536458334
-20.845358072916667
-20.868850911458335
-20.888173828125
-20.911546223958332
-20.939697265625
-20.981253255208333
-20.899664713541668
-20.646735026041668
-20.442360026041666
-20.383655598958335
-20.408512369791666
-20.436839192708334
-20.496103515625
-20.56052083333333
-20.56654296875
-20.562138671875
-20.578505859375
-20.603336588541666
-20.632340494791666
-20.637333984375
-20.681575520833334
-20.734130859375
-20.779700520833334
-20.844759114583333
-20.922600911458332
-20.957552083333333
-20.977978515625
-21.00193359375
-21.031627604166665
-21.001998697916665
-20.785257161458333
-20.511881510416668
-20.400546875
-20.457320963541665
-20.533678385416668
-20.651995442708333
-20.694977213541666
-20.679039713541666
-20.648004557291667
-20.652063802083333
-20.685823567708333
-20.683798828125
-20.703636067708334
-20.746936848958335
-20.817561848958334
-20.904697265625
-20.9701171875
-20.93899088541667
-20.886507161458333
-20.849140625
-20.898938802083332
-20.956875
-20.972412109375
-20.869108072916667
-20.630947265625
-20.520087890625
-20.538470052083333
-20.548850911458334
-20.511194661458333
-20.5160546875
-20.52603515625
-20.54070963541667
-20.53724609375
-20.529339192708335
-20.544505208333334
-20.600107421875
-20.681354166666665
-20.720615234375
-20.704420572916668
-20.652591145833334
-20.635419921875
-20.658118489583334
-20.657473958333334
-20.665211588541666
-20.696569010416667
-20.79278645833333
-20.35583984375
-20.262320963541665
-20.308186848958332
-20.395250651041668
-20.603030598958334
-20.62486328125
-20.686634114583335
-20.776878255208334
-20.8885546875
-20.958590494791668
-20.929322916666667
-20.92238932291667
-21.008502604166665
-21.090380859375
-21.168899739583335
-21.217890625
-21.284456380208333
-21.36181640625
-21.267708333333335
-20.963043619791666
-20.705901692708334
-20.627399088541665
-20.703548177083334
-20.8048046875
-20.864677734375
-20.917434895833335
-20.975400390625
-20.992034505208334
-21.003707682291665
-20.989189453125
-21.016988932291667
-21.075289713541668
-21.149391276041666
-21.242190755208334
-21.34458984375
-21.35296875
-21.166575520833334
-20.899065755208333
-20.739612630208335
-20.717985026041667
-20.75841796875
-20.8148046875
-20.892822265625
-20.96234049479167
-21.027890625
-21.045224609375
-21.018951822916666
-21.045537109375
-21.059365234375
-21.063424479166667
-21.07779296875
-21.13078125
-21.201555989583333
-21.194609375
-20.992835286458334
-20.697900390625
-20.591565755208332
-20.635296223958335
-20.68509765625
-20.752386067708333
-20.849173177083333
-20.918694661458332
-20.945768229166667
-20.918460286458334
-20.917731119791668
-20.941552734375
-20.988779296875
-21.03322265625
-21.096360677083332
-21.17416015625
-21.188251953125
-20.967981770833333
-20.672216796875
-20.540563151041667
-20.528938802083335
-20.5769921875
-20.649215494791665
-20.715452473958333
-20.722057291666665
-20.675869140625
-20.666087239583334
-20.64776692708333
-20.622444661458335
-20.62853515625
-20.658024088541666
-20.67408203125
-20.698408203125
-20.625703125
-20.327392578125
-20.071337890625
-19.984244791666665
-20.008053385416666
-20.048287760416667
-20.095244140625
-20.1532421875
-20.145016276041666
-20.114716796875
-20.111123046875
-20.137360026041666
-20.152259114583334
-20.190022786458332
-20.203580729166667
-20.245169270833333
-20.158727213541667
-19.883977864583333
-19.700540364583333
-19.66833984375
-19.683541666666667
-19.705657552083334
-20.263623046875
-20.137529296875
-20.67744140625
-20.486402994791668
-20.49919921875
-20.504339192708333
-20.513723958333333
-20.550205078125
-20.599498697916665
-20.63310546875
-20.651826171875
-20.686969401041665
-20.713173828125
-20.741666666666667
-20.6184375
-20.317900390625
-20.1751171875
-20.166061197916665
-20.209772135416667
-20.249371744791667
-20.298245442708332
-20.352864583333332
-20.364130859375
-20.346611328125
-20.3531640625
-20.35234375
-20.373287760416666
-20.410843098958335
-20.472884114583334
-20.517233072916667
-20.559306640625
-20.568160807291665
-20.613095703125
-20.663307291666666
-20.709013671875
-20.71908203125
-20.752278645833332
-20.817509765625
-20.853779296875
-20.950712890625
-20.86173828125
-20.624215494791667
-20.494915364583335
-20.475224609375
-20.502731119791665
-20.540540364583332
-20.572672526041668
-20.598717447916666
-20.590016276041666
-20.588131510416666
-20.62277669270833
-20.694059244791667
-20.758857421875
-20.800533854166666
-20.854931640625
-20.9071875
-20.950016276041666
-21.014837239583333
-21.030439453125
-21.038466796875
-21.05263671875
-21.051871744791665
-21.070634765625
-21.106676432291668
-21.166223958333333
-21.153024088541667
-20.9804296875
-20.801595052083332
-20.76107421875
-20.777288411458333
-20.808876953125
-20.850709635416667
-20.892242838541666
-20.886643880208332
-20.862584635416667
-20.872041015625
-20.87322265625
-20.878440755208334
-20.901555989583333
-20.917265625
-20.933837890625
-20.964983723958333
-20.976617838541667
-20.9775390625
-20.981240234375
-21.010475260416666
-21.039065755208334
-21.085696614583334
-21.0577734375
-20.895305989583335
-20.627874348958333
-20.616233723958334
-20.625911458333334
-20.66001953125
-20.68169921875
-20.690400390625
-20.68908203125
-20.706214192708334
-20.705625
-20.681181640625
-20.658779296875
-20.705862630208333
-20.734567057291667
-20.73541015625
-20.750247395833334
-20.767054036458333
-20.778723958333334
-20.783138020833334
-20.806448567708333
-20.84427734375
-20.83939453125
-20.693990885416667
-20.469791666666666
-20.389931640625
-20.445185546875
-20.494951171875
-20.566077473958334
-20.586946614583333
-20.608688151041665
-20.588069661458334
-20.581962890625
-20.59646484375
-20.61379557291667
-20.621429036458334
-20.62472981770833
-20.660071614583334
-20.677991536458332
-20.701891276041668
-20.747138671875
-20.789361979166667
-20.82361328125
-20.743349609375
-20.568304036458333
-20.455335286458332
-20.50708984375
-20.607955729166665
-20.645462239583335
-20.705263671875
-20.81146484375
-20.863977864583333
-20.899459635416665
-20.915647786458333
-20.946025390625
-20.985218098958335
-21.042805989583332
-21.110042317708334
-21.161669921875
-21.204791666666665
-21.267825520833334
-21.316253255208334
-21.355276692708333
-21.391998697916666
-21.269996744791666
-21.011940104166666
-20.85235677083333
-20.827633463541666
-20.852164713541665
-20.86135416666667
-20.919296875
-20.975309244791667
-21.01892578125
-21.042073567708332
-21.048141276041665
-21.053115234375
-21.08856119791667
-21.163196614583335
-21.201754557291668
-21.287477213541667
-21.379303385416666
-21.441901041666668
-21.480390625
-21.369990234375
-21.155706380208333
-21.055755208333334
-21.074264322916665
-21.157194010416667
-21.257294921875
-21.359710286458334
-21.4209765625
-21.46716796875
-21.495891927083335
-21.524938151041667
-21.569713541666665
-21.64578125
-21.722877604166666
-21.78751953125
-21.864983723958332
-21.908180338541666
-21.806201171875
-21.53371744791667
-20.780719401041665
-20.834085286458333
-20.852734375
-20.88330078125
-20.924274088541665
-20.941318359375
-20.939059244791668
-20.92822265625
-20.9192578125
-20.922835286458334
-20.925
-20.960735677083335
-21.009957682291667
-21.049593098958333
-20.90283203125
-20.48269205729167
-20.455735677083332
-20.524270833333333
-20.579205729166667
-20.586552734375
-20.595462239583334
-20.584733072916666
-20.564231770833334
-20.573079427083332
-20.565152994791667
-20.597223307291667
-20.634212239583334
-20.66126953125
-20.644560546875
-20.46213216145833
-20.251484375
-20.179886067708335
-20.195465494791666
-20.22707682291667
-20.268642578125
-20.308092447916668
-20.321940104166668
-20.30197265625
-20.293362630208332
-20.285296223958333
-20.290556640625
-20.311266276041668
-20.330149739583334
-20.371070963541666
-20.428873697916668
-20.468167317708332
-20.450602213541668
-20.262610677083334
-20.040504557291666
-19.981315104166665
-20.01095703125
-20.077220052083334
-20.165511067708334
-20.200416666666666
-20.256569010416666
-20.29705078125
-20.31673828125
-20.331070963541666
-20.423518880208334
-20.460296223958334
-20.491555989583333
-20.537991536458332
-20.562486979166668
-20.592151692708335
-20.586494140625
-20.385651041666666
-20.160716145833334
-20.093157552083333
-20.11900390625
-20.176123046875
-20.244736328125
-20.291559244791667
-20.287132161458334
-20.27453125
-20.279010416666665
-20.2784375
-20.263072916666665
-20.293343098958335
-20.422552083333333
-20.5054296875
-20.52638671875
-20.556184895833333
-20.682568359375
-20.75945963541667
-20.769775390625
-20.787880859375
-20.584049479166666
-20.323294270833333
-20.247180989583335
-20.298499348958334
-20.343277994791666
-20.383792317708334
-20.436529947916668
-20.459664713541667
-20.431920572916667
-20.43478515625
-20.418356119791667
-20.426998697916666
-20.49249348958333
-20.539319661458332
-20.597060546875
-20.64283203125
-20.66955078125
-20.711656901041668
-20.696712239583334
-20.729879557291667
-20.75933919270833
-20.677470703125
-20.277347005208334
-20.286389973958332
-20.331689453125
-20.420914713541666
-20.476614583333333
-20.47947265625
-20.484684244791666
-20.485615234375
-20.454944661458335
-20.437542317708335
-20.435556640625
-20.498912760416665
-20.533024088541666
-20.547841796875
-20.55999674479167
-20.557037760416666
-20.585589192708333
-20.577962239583332
-20.541842447916668
-20.562955729166667
-20.450703125
-20.207158203125
-20.034427083333334
-20.0516015625
-20.112561848958332
-20.110703125
-20.159703776041667
-20.233232421875
-20.249010416666668
-20.301145833333333
-20.382073567708332
-20.456412760416665
-20.525325520833334
-20.5999609375
-20.679876302083333
-20.765048828125
-20.763040364583333
-20.780250651041666
-20.832623697916667
-20.903828125
-20.88962239583333
-20.661015625
-20.39324869791667
-20.249475911458333
-20.317041015625
-20.413831380208332
-20.467740885416667
-20.548665364583332
-20.629521484375
-20.74533203125
-20.84869466145833
-20.883131510416668
-20.885335286458332
-20.901005859375
-20.929244791666665
-20.983792317708332
-21.03880859375
-21.079654947916666
-21.114020182291668
-21.14724283854167
-21.204453125
-21.161376953125
-20.933450520833333
-20.651884765625
-20.563421223958333
-20.6841015625
-20.747161458333334
-20.861334635416668
-20.929794921875
-20.965182291666668
-20.955680338541665
-20.949147135416666
-20.960970052083333
-21.011380208333332
-21.047607421875
-21.110582682291668
-21.15069661458333
-21.155263671875
-21.163694661458333
-21.139931640625
-20.971022135416668
-20.68792643229167
-20.520380859375
-20.51373372395833
-20.607356770833334
-20.692106119791667
-20.786233723958333
-20.859869791666668
-20.896832682291667
-20.88742513020833
-20.875208333333333
-20.89853515625
-20.934860026041665
-20.97896484375
-21.047623697916666
-21.078697916666666
-21.130638020833334
-21.161767578125
-21.005377604166668
-20.705940755208335
-20.566630859375
-20.552779947916665
-20.633743489583335
-20.716064453125
-20.774371744791665
-20.8021875
-20.812978515625
-20.815843098958332
-20.8171484375
-20.828089192708333
-20.838971354166667
-20.84287109375
-20.868619791666667
-20.865882161458334
-20.709007161458334
-20.429791666666667
-20.241396484375
-20.203909505208333
-20.250654296875
-20.312415364583334
-20.378561197916667
-20.421708984375
-20.383268229166667
-20.3899609375
-20.399007161458332
-20.392099609375
-20.41086263020833
-20.439016927083333
-20.487333984375
-20.554036458333332
-20.582955729166667
-20.373779296875
-20.07798828125
-19.955914713541667
-19.971458333333334
-20.00368815104167
-20.061875
-20.119189453125
-20.099986979166665
-20.0975
-20.080530598958333
-20.098984375
-20.133333333333333
-20.16625
-20.227109375
-20.268984375
-20.302822265625
-20.217122395833332
-19.935472005208332
-19.7621875
-19.748170572916667
-19.81182942708333
-19.848548177083334
-19.898583984375
-19.9373828125
-19.93947916666667
-19.944108072916666
-19.933111979166668
-19.931461588541666
-19.999270833333334
-20.078828125
-20.162890625
-20.2048828125
-20.264557291666666
-20.365908203125
-20.433736979166667
-20.459697265625
-20.300296223958334
-20.023401692708333
-19.888173828125
-19.867692057291666
-19.87990234375
-19.920953776041667
-19.985406901041667
-20.010309244791667
-20.01880859375
-20.038483072916666
-20.044879557291665
-20.05423828125
-20.075022786458334
-20.1037109375
-20.16140299479167
-20.207555338541667
-20.245237630208333
-20.267705078125
-20.308193359375
-20.341341145833333
-20.380289713541668
-20.423268229166666
-20.455699869791665
-20.503551432291665
-20.5637890625
-20.650133463541668
-20.72125
-20.654918619791665
-20.353857421875
-20.138701171875
-20.107545572916667
-20.132659505208334
-20.165247395833333
-20.2125390625
-20.24119140625
-20.2259375
-20.205712890625
-20.168092447916667
-20.193264973958332
-20.220657552083335
-20.24465494791667
-20.273050130208333
-20.304072265625
-20.320758463541665
-20.336100260416668
-20.357132161458335
-20.367740885416666
-20.397659505208335
-20.45388346354167
-20.48140625
-20.510270182291666
-20.57677734375
-20.626090494791665
-20.47529296875
-20.203544921875
-20.08140625
-20.087561848958334
-20.121341145833334
-20.162490234375
-20.212685546875
-20.24353515625
-20.22392578125
-20.214410807291667
-20.223870442708332
-20.206692708333332
-20.209069010416666
-20.247425130208335
-20.280638020833333
-20.306507161458335
-20.305081380208332
-20.320777994791666
-20.34274739583333
-20.342692057291668
-20.361774088541665
-20.412887369791665
-20.457819010416667
-20.481653645833333
-20.348291015625
-20.088199869791666
-19.920354817708333
-19.91961588541667
-19.95452799479167
-19.988723958333335
-20.068372395833332
-20.136682942708333
-20.12435546875
-20.11626953125
-20.124625651041665
-20.1485546875
-20.177438151041667
-20.257906901041668
-20.317099609375
-20.377688802083334
-20.403248697916666
-20.429742838541667
-20.450198567708334
-20.497220052083332
-20.541868489583333
-20.574251302083333
-20.43801432291667
-20.166507161458334
-20.028359375
-20.049280598958333
-20.131875
-20.25393229166667
-20.372522786458333
-20.471783854166667
-20.511070963541666
-20.536328125
-20.550224609375
-20.536223958333334
-20.56205078125
-20.63836588541667
-20.709876302083334
-20.776946614583334
-20.81345703125
-20.870227864583335
-20.9286328125
-20.964150390625
-20.997236328125
-20.953372395833334
-20.743997395833333
-20.483863932291666
-20.37916015625
-20.40572265625
-20.477294921875
-20.565319010416665
-20.702916666666667
-20.76619140625
-20.76728515625
-20.765458984375
-20.75220703125
-20.751155598958334
-20.764947916666667
-20.798671875
-20.839440104166666
-20.855498046875
-20.991832682291665
-21.005706380208334
-20.883932291666667
-20.633014322916665
-20.455110677083333
-20.430442708333334
-20.495159505208335
-20.566790364583333
-20.65271484375
-20.723323567708334
-20.754488932291668
-20.715491536458334
-20.669866536458333
-20.7290234375
-20.766409505208333
-20.816988932291668
-20.870885416666667
-20.923434244791668
-20.81875
-20.523942057291666
-20.250081380208332
-20.168955078125
-20.214833984375
-20.290377604166668
-20.394534505208334
-20.467900390625
-20.470904947916665
-20.45185546875
-20.415885416666665
-20.370208333333334
-20.350022786458332
-20.356025390625
-20.370719401041665
-20.390735677083335
-20.416884765625
-20.342620442708334
-20.043336588541667
-19.74615234375
-19.645638020833335
-19.666295572916667
-19.71541015625
-20.288896484375
-20.158668619791666
-20.616500651041665
-20.734326171875
-20.714840494791666
-20.72357421875
-20.775615234375
-20.782685546875
-20.839459635416667
-20.78916015625
-20.47857747395833
-20.148837890625
-19.996767578125
-19.987887369791668
-20.021673177083333
-20.0634375
-20.550524088541668
-20.534427083333334
-20.515081380208333
-20.48480143229167
-20.472213541666665
-20.507213541666665
-20.572320963541667
-20.623606770833334
-20.661334635416665
-20.730133463541666
-20.745930989583332
-20.47658203125
-20.105065104166666
-19.953720703125
-19.9603125
-19.999235026041667
-20.07147135416667
-20.692750651041667
-20.586500651041668
-20.623564453125
-20.6764453125
-20.696884765625
-20.749215494791667
-20.801663411458332
-20.838017578125
-20.891158854166665
-20.94256510416667
-20.971793619791665
-20.976204427083335
-20.994388020833334
-20.955013020833334
-20.687509765625
-20.469928385416665
-20.446110026041666
-20.513522135416668
-20.577408854166666
-20.628870442708333
-20.69818033854167
-20.724554036458333
-20.688274739583335
-20.671598307291667
-20.6797265625
-20.698655598958332
-20.744205729166666
-20.768958333333334
-20.791263020833334
-20.820729166666666
-20.885328776041668
-20.918229166666666
-21.009622395833333
-21.077737630208333
-21.135745442708334
-21.199375
-21.244697265625
-21.2853515625
-21.3299609375
-21.394964192708333
-21.2534375
-20.905494791666666
-20.6441796875
-20.598714192708332
-20.655641276041667
-20.703997395833333
-20.78802408854167
-20.868610026041665
-20.873356119791666
-20.863759765625
-20.868356119791667
-20.872099609375
-20.930696614583333
-20.971419270833334
-21.041647135416667
-21.143649088541668
-21.178841145833335
-21.208818359375
-21.243623046875
-21.293766276041666
-21.336448567708334
-21.367607421875
-21.396555989583334
-21.447877604166667
-21.506708984375
-21.435934244791667
-21.12951171875
-20.891832682291668
-20.847145182291666
-20.900006510416667
-21.093238932291666
-21.195576171875
-21.206897786458335
-21.213460286458332
-21.244498697916665
-21.242522786458334
-21.271145833333332
-21.309111328125
-21.382867838541667
-21.43365234375
-21.476204427083335
-21.5366796875
-21.558160807291667
-21.58209309895833
-21.62774739583333
-21.64591796875
-21.681962890625
-21.74158203125
-21.761080729166668
-21.604342447916668
-21.322376302083335
-21.148235677083335
-21.159000651041666
-21.2185546875
-21.33658203125
-21.453802083333333
-21.559007161458332
-21.602229817708334
-21.594111328125
-21.594599609375
-21.591442057291665
-21.61533203125
-21.681207682291667
-21.730110677083335
-21.76593098958333
-21.821943359375
-21.851966145833334
-21.850052083333335
-21.844117838541667
-21.881673177083332
-21.909453125
-21.936246744791667
-21.808502604166666
-21.49263671875
-21.236650390625
-21.164889322916668
-21.198616536458335
-21.275263671875
-21.372438151041667
-21.4490625
-21.493317057291666
-21.503186848958332
-21.49412109375
-21.454749348958334
-21.446243489583335
-21.504309895833334
-21.573251953125
-21.639117838541665
-21.714873046875
-21.772467447916668
-21.80060546875
-21.829482421875
-21.887727864583333
-21.948505859375
-21.930797526041665
-21.716315104166668
-21.449147135416666
-21.270315755208333
-21.255016276041665
-21.320836588541667
-21.430123697916667
-21.555413411458332
-21.622197265625
-21.640647786458334
-21.662897135416667
-21.662581380208334
-21.66510091145833
-21.705003255208332
-21.779615885416668
-21.859134114583334
-21.915455729166666
-21.961640625
-22.024156901041668
-22.10736002604167
-22.167633463541666
-22.093056640625
-21.838522135416667
-21.536064453125
-21.396435546875
-21.417828776041667
-21.507623697916667
-21.629130859375
-21.733258463541667
-21.775465494791668
-21.801422526041666
-21.792666015625
-21.770126953125
-21.782447916666666
-21.814033203125
-21.842965494791667
-21.907594401041667
-21.97048502604167
-22.029762369791666
-22.080227864583332
-21.998567708333333
-21.699430338541667
-21.442259114583333
-21.3652734375
-21.414752604166665
-21.511324869791668
-21.6282421875
-21.70755859375
-21.717731119791665
-21.674840494791667
-21.648697916666666
-21.632682291666665
-21.617047526041667
-21.64552734375
-21.741787109375
-21.812180989583332
-21.804527994791666
-21.566998697916667
-21.218515625
-21.028284505208333
-21.025888671875
-21.06255859375
-21.114723307291666
-21.18955078125
-21.22165364583333
-21.191953125
-21.146393229166666
-21.114957682291667
-21.117786458333335
-21.104488932291666
-21.13470703125
-21.1756640625
-21.232952473958335
-21.224723307291665
-21.003017578125
-20.670654296875
-20.486565755208332
-20.484352213541666
-20.561930338541668
-20.687623697916667
-20.736904296875
-20.710602213541666
-20.694326171875
-20.690836588541668
-20.67048828125
-20.669736328125
-20.68112630208333
-20.70025390625
-20.737623697916668
-20.79431640625
-20.75900390625
-20.47060546875
-20.184934895833333
-20.081044921875
-20.10541015625
-20.148037109375
-20.190231119791665
-20.233870442708334
-20.258411458333335
-20.250791015625
-20.233362630208333
-20.213994140625
-20.25241536458333
-20.29630859375
-20.34173502604167
-20.393811848958332
-20.422975260416667
-20.471162109375
-20.499583333333334
-20.520826822916668
-20.56256184895833
-20.615966796875
-20.536009114583333
-20.05270833333333
-20.02998046875
-20.088128255208332
-20.14328125
-20.199462890625
-20.225439453125
-20.25490234375
-20.276891276041667
-20.275472005208332
-20.291692708333333
-20.306380208333334
-20.3338671875
-20.388841145833332
-20.447307942708335
-20.475299479166665
-20.506923828125
-20.54859375
-20.571686197916666
-20.596139322916667
-20.608854166666667
-20.644908854166665
-20.680540364583333
-20.69865234375
-20.721292317708333
-20.613844401041668
-20.317288411458332
-20.113020833333334
-20.059313151041668
-20.079521484375
-20.11396484375
-20.152506510416668
-20.197565104166667
-20.184137369791667
-20.161764322916667
-20.18392578125
-20.166360677083333
-20.139645182291666
-20.185966796875
-20.208606770833335
-20.221393229166665
-20.236272786458333
-20.252962239583333
-20.292841796875
-20.307373046875
-20.327620442708334
-20.342643229166665
-20.329010416666666
-20.345107421875
-20.412916666666668
-20.428733723958334
-20.272080078125
-20.065934244791666
-19.970442708333334
-20.011324869791668
-20.059440104166665
-20.116510416666667
-20.204501953125
-20.232298177083333
-20.2073046875
-20.206669921875
-20.202893880208332
-20.216009114583333
-20.234059244791666
-20.274423828125
-20.313580729166667
-20.383069661458332
-20.449150390625
-20.473372395833334
-20.468069661458333
-20.486171875
-20.566233723958334
-20.673548177083333
-20.764010416666668
-20.540071614583333
-20.265491536458335
-20.15998046875
-20.198746744791666
-20.273238932291665
-20.346634114583335
-20.426585286458334
-20.490891927083332
-20.525517578125
-20.53095703125
-20.511930338541667
-20.52537109375
-20.599482421875
-20.6698828125
-20.756598307291668
-20.824195963541666
-20.889654947916668
-20.926529947916666
-20.981142578125
-21.034251302083334
-21.086494140625
-21.1418359375
-21.053473307291668
-20.7645703125
-20.54095703125
-20.588922526041667
-20.656715494791666
-20.74662109375
-20.8475390625
-20.887770182291668
-20.859287109375
-20.827288411458333
-20.868326822916668
-20.925950520833332
-20.985611979166666
-21.035631510416668
-21.065052083333335
-21.095390625
-21.149811197916666
-21.235852864583332
-21.337701822916667
-21.351927083333333
-21.171139322916666
-20.906953125
-20.787320963541667
-20.839339192708334
-20.9655859375
-21.069407552083334
-21.190703125
-21.264833984375
-21.257115885416667
-21.259108072916668
-21.237021484375
-21.28435546875
-21.32366861979167
-21.337210286458333
-21.373167317708333
-21.482014973958332
-21.460016276041667
-21.29138671875
-20.979345703125
-20.809186197916667
-20.821848958333334
-20.98150390625
-21.111735026041668
-21.13640625
-21.099951171875
-20.97970703125
-20.961865234375
-20.982646484375
-20.98771484375
-20.971220703125
-21.02264322916667
-21.062294921875
-21.09537109375
-20.96555013020833
-20.6161328125
-20.341214192708332
-20.286774088541666
-20.359052734375
-20.404436848958333
-20.473645833333332
-20.556806640625
-20.545638020833334
-20.521435546875
-20.517330729166666
-20.537906901041666
-20.555299479166667
-20.589723307291667
-20.635003255208332
-20.67626953125
-20.528089192708332
-19.93435221354167
-19.89271484375
-19.949876302083332
-20.023834635416666
-20.663069661458334
-20.609306640625
-20.5987890625
-20.549147135416668
-20.515087890625
-20.489033203125
-20.470501302083335
-20.509248046875
-20.53455078125
-20.521399739583334
-20.540927734375
-20.598743489583335
-20.649127604166665
-20.511761067708335
-20.14486328125
-19.90658203125
-19.88128580729167
-19.938619791666667
-19.974423828125
-20.495358072916666
-20.259010416666666
-20.71552734375
-20.562347005208334
-20.541282552083334
-20.514052734375
-20.499918619791668
-20.540328776041665
-20.589368489583332
-20.604388020833333
-20.609765625
-20.6358984375
-20.638736979166666
-20.650927734375
-20.711090494791666
-20.734124348958332
-20.755950520833334
-20.794231770833335
-20.822646484375
-20.748206380208334
-20.438388671875
-20.08794921875
-19.97173828125
-20.0235546875
-20.063157552083332
-20.186376953125
-20.235179036458334
-20.22865234375
-20.20916666666667
-20.185439453125
-20.177008463541668
-20.236360677083333
-20.279462890625
-20.298336588541666
-20.354684244791667
-20.424212239583333
-20.529928385416667
-20.555123697916667
-20.532685546875
-20.537649739583333
-20.581923828125
-20.588307291666666
-20.618196614583333
-20.469280598958335
-20.118531901041667
-19.924274088541665
-19.997633463541668
-20.049788411458334
-20.149700520833335
-20.177434895833333
-20.147301432291666
-20.157379557291666
-20.177919921875
-20.165384114583333
-20.210615234375
-20.266858723958332
-20.319951171875
-20.385696614583335
-20.439326171875
-20.449876302083332
-20.493424479166666
-20.558011067708332
-20.596474609375
-20.690221354166667
-20.627236328125
-20.363444010416668
-20.153147786458334
-20.135403645833332
-20.220221354166668
-20.316015625
-20.424352213541667
-20.568470052083335
-20.648932291666668
-20.689420572916667
-20.712389322916668
-20.745709635416667
-20.779794921875
-20.861455078125
-20.940081380208333
-21.015003255208335
-21.109518229166667
-21.164762369791667
-21.230947265625
-21.327311197916668
-21.442412109375
-21.52395182291667
-21.532135416666666
-21.341324869791666
-21.045224609375
-20.934449869791667
-21.01322265625
-21.139612630208333
-21.275849609375
-21.417903645833334
-21.491389973958334
-21.50237955729167
-21.487838541666665
-21.476650390625
-21.488043619791668
-21.53371744791667
-21.57455078125
-21.599716796875
-21.630231119791667
-21.669016927083334
-21.760992838541668
-21.821861979166666
-21.819000651041666
-21.557848307291668
-21.208831380208334
-21.064150390625
-21.118681640625
-21.232340494791668
-21.335856119791668
-21.442724609375
-21.492001953125
-21.469479166666666
-21.442307942708332
-21.422421875
-21.42824869791667
-21.443756510416666
-21.435110677083333
-21.45318684895833
-21.481650390625
-21.514095052083334
-21.522594401041665
-21.445026041666665
-21.129397786458334
-20.780358072916666
-20.65501953125
-20.711871744791665
-20.794049479166667
-20.877828776041667
-20.96517578125
-20.981119791666668
-20.972669270833332
-20.947542317708333
-20.909583333333334
-20.895143229166667
-20.9126953125
-20.941103515625
-20.963287760416666
-20.98580078125
-21.037041015625
-21.009348958333334
-20.723059895833334
-20.349567057291665
-20.158450520833334
-20.160472005208334
-20.211692708333334
-20.272646484375
-20.347099609375
-20.412340494791668
-20.428216145833332
-20.352054036458334
-20.292444661458333
-20.273541666666667
-20.256012369791666
-20.204892578125
-20.196015625
-20.230084635416667
-20.3047265625
-20.279938151041666
-20.008108723958333
-19.679847005208334
-19.545029296875
-19.572594401041666
-19.688453776041666
-20.26958984375
-20.298512369791666
-21.050989583333333
-20.8413671875
-20.846552734375
-20.889886067708332
-20.957828776041666
-20.975462239583333
-21.0045703125
-21.0652734375
-21.109147135416666
-21.096435546875
-21.085618489583332
-21.122102864583333
-21.182041015625
-21.123955078125
-20.76400390625
-20.426194661458332
-20.361943359375
-20.38904296875
-20.431735026041668
-20.535052083333333
-20.657994791666667
-20.663720703125
-20.652451171875
-20.649690755208333
-20.635703125
-20.6587890625
-20.698307291666666
-20.743385416666666
-20.845817057291665
-20.884384765625
-20.917067057291668
-20.959124348958333
-20.9610546875
-20.98923828125
-21.024583333333332
-21.021064453125
-20.776969401041665
-20.404365234375
-20.248040364583332
-20.29064453125
-20.38275065104167
-20.429420572916666
-20.513707682291667
-20.515836588541667
-20.503203125
-20.490022786458333
-20.46970052083333
-20.513297526041665
-20.5572265625
-20.611881510416666
-20.676559244791665
-20.751588541666667
-20.784586588541668
-20.769778645833334
-20.774130859375
-20.84486328125
-20.896832682291667
-20.911800130208334
-20.68899088541667
-20.36053385416667
-20.223548177083334
-20.28854817708333
-20.352682291666667
-20.407281901041667
-20.503186848958332
-20.546520182291665
-20.53453125
-20.535774739583335
-20.524267578125
-20.475052083333335
-20.496292317708335
-20.57861328125
-20.689866536458332
-20.770338541666668
-20.839140625
-20.912063802083335
-20.945240885416666
-20.996891276041666
-21.129990234375
-21.210830078125
-21.11078125
-20.832347005208334
-20.624853515625
-20.600081380208334
-20.659840494791666
-20.735283203125
-20.839684244791666
-20.959231770833334
-21.059326171875
-21.116324869791665
-21.101546223958334
-21.057858072916666
-21.086539713541665
-21.181647135416668
-21.258642578125
-21.279658203125
-21.403811848958334
-21.457809244791665
-21.553837890625
-21.583483072916668
-21.362887369791668
-21.087259114583333
-20.995582682291666
-21.064651692708335
-21.142532552083335
-21.269723307291667
-21.420377604166667
-21.515875651041668
-21.564537760416666
-21.630540364583332
-21.638561197916665
-21.682115885416668
-21.72931640625
-21.820550130208332
-21.948346354166667
-22.05877604166667
-22.170794270833333
-22.24744140625
-22.26498046875
-22.0529296875
-21.219814453125
-21.224993489583333
-21.281448567708335
-21.464208984375
-21.67502278645833
-21.76613932291667
-21.75888671875
-21.665602213541668
-21.57451171875
-21.479749348958332
-21.365361328125
-21.237259114583335
-21.1546484375
-21.139293619791665
-21.147063802083334
-21.00271158854167
-20.63984375
-20.451412760416666
-20.425224609375
-20.46833984375
-20.364742838541666
-20.440074869791665
-20.620029296875
-20.764762369791665
-20.738984375
-20.734166666666667
-20.726637369791668
-20.700595703125
-20.650279947916665
-20.53453125
-20.405009765625
-20.360696614583333
-20.131282552083334
-19.64564453125
-19.312672526041666
-19.22976236979167
-19.856546223958333
-19.814609375
-20.95978515625
-20.780602213541666
-21.43169921875
-21.211123046875
-21.192093098958335
-21.2351171875
-21.351647135416666
-21.45224609375
-21.559827473958332
-21.650712890625
-21.68728515625
-21.56708984375
-21.2923828125
-21.124280598958332
-21.114967447916666
-21.130869140625
-21.174602864583335
-21.252998046875
-21.37044921875
-21.384915364583332
-21.359951171875
-21.364635416666665
-21.353870442708335
-21.376689453125
-21.413098958333332
-21.495003255208335
-21.51271484375
-21.562242838541668
-21.559202473958333
-21.363714192708333
-21.101038411458333
-20.976396484375
-20.990110677083333
-21.102060546875
-21.2903515625
-21.584827473958335
-21.824739583333333
-21.848863932291668
-21.894694010416668
-21.857138671875
-21.697093098958334
-21.52259765625
-21.49367838541667
-21.76174479166667
-22.329156901041667
-22.499625651041665
-22.534632161458333
-22.586735026041666
-22.07484375
-22.2409765625
-21.376256510416667
-21.275947265625
-21.15814453125
-21.119153645833332
-21.078860677083334
-21.174990234375
-21.360061848958335
-21.493326822916668
-21.494775390625
-21.506962890625
-21.591396484375
-21.645862630208335
-21.735791015625
-21.854586588541668
-21.992587890625
-22.081585286458335
-22.169791666666665
-22.243004557291666
-22.277838541666668
-22.338675130208333
-21.79205078125
-21.812877604166665
-21.018053385416668
-21.032057291666668
-21.063662109375
-21.07253580729167
-21.0756640625
-21.141666666666666
-21.2860546875
-21.432890625
-21.452203776041667
-21.483795572916666
-21.590296223958333
-21.676741536458334
-21.70709309895833
-21.752418619791666
-21.801175130208332
-21.820201822916665
-21.8132421875
-21.788701171875
-21.699654947916667
-21.487067057291668
-21.30816731770833
-21.277913411458332
-21.347233072916666
-21.440882161458333
-21.53341796875
-21.593424479166668
-21.640126953125
-21.662360026041668
-21.649459635416665
-21.650592447916665
-21.650673828125
-21.697545572916667
-21.77337890625
-21.884658203125
-22.003225911458333
-22.11037760416667
-22.192438151041667
-22.157093098958335
-21.922360026041666
-21.719322916666666
-21.647311197916668
-21.65749674479167
-21.694485677083332
-21.772360026041667
-21.818681640625
-21.812727864583334
-21.798678385416668
-21.831070963541666
-21.858831380208333
-21.893167317708333
-21.92576171875
-21.970524088541666
-22.038642578125
-22.093336588541668
-22.164039713541666
-22.147760416666667
-21.922880859375
-21.678971354166666
-21.595003255208333
-21.61955078125
-21.665732421875
-21.730032552083333
-21.788427734375
-21.790198567708334
-21.77806640625
-21.78013671875
-21.78263671875
-21.811598307291668
-21.831334635416667
-21.866080729166665
-21.90582356770833
-21.910699869791667
-21.950810546875
-21.951207682291667
-21.723232421875
-21.369290364583332
-21.17490234375
-21.16109375
-21.248697916666668
-21.328727213541665
-21.406813151041668
-21.472184244791666
-21.479440104166667
-21.465498046875
-21.477724609375
-21.490061848958334
-21.511803385416666
-21.54564453125
-21.62478515625
-21.669632161458335
-21.705667317708333
-21.731708984375
-21.789397786458334
-21.710481770833333
-21.399674479166666
-21.152418619791668
-21.09388671875
-21.140716145833334
-21.195208333333333
-21.247897135416668
-21.32626953125
-21.336126302083333
-21.295221354166667
-21.281819661458332
-21.324654947916667
-21.338763020833333
-21.35888671875
-21.389202473958335
-21.467757161458334
-21.527399088541667
-21.581614583333334
-21.592692057291668
-21.625413411458332
-21.679352213541666
-21.743971354166668
-21.71945638020833
-21.458795572916667
-21.162067057291665
-21.050738932291665
-21.08359375
-21.16485677083333
-21.234130859375
-21.307884114583334
-21.362825520833333
-21.373294270833334
-21.377685546875
-21.38376302083333
-21.406819661458332
-21.462317708333334
-21.50248046875
-21.544469401041667
-21.601891276041666
-21.650240885416668
-21.713909505208335
-21.74408203125
-21.759300130208334
-21.783470052083334
-21.842288411458334
-21.778479817708334
-21.469560546875
-21.235452473958333
-21.212067057291666
-21.274345703125
-21.360638020833335
-21.465543619791667
-21.588512369791665
-21.630638020833334
-21.6534765625
-21.626904296875
-21.604811197916668
-21.635979817708332
-21.675504557291667
-21.76072265625
-21.855227864583334
-21.914957682291668
-21.963079427083333
-22.017353515625
-22.058483072916665
-22.087701822916667
-22.108902994791666
-22.177392578125
-22.194270833333334
-21.984114583333334
-21.664544270833332
-21.494593098958333
-21.460735677083335
-21.500774739583335
-21.572194010416666
-21.655520833333334
-21.67822265625
-21.673603515625
-21.689736328125
-21.653391927083334
-21.592766927083332
-21.5707421875
-21.603157552083335
-21.650725911458334
-21.688844401041667
-21.722125651041665
-21.79427734375
-21.826565755208332
-21.804912109375
-21.79939453125
-21.813665364583333
-21.772161458333333
-21.548587239583334
-21.278678385416665
-21.117076822916665
-21.114860026041665
-21.185227864583332
-21.270367838541667
-21.344244791666668
-21.399609375
-21.443460286458333
-21.48056640625
-21.463020833333335
-21.474518229166666
-21.532451171875
-21.601481119791668
-21.68310546875
-21.78673828125
-21.856334635416665
-21.867757161458332
-21.898772786458334
-21.932587890625
-21.953232421875
-21.8317578125
-21.542955729166668
-21.19486328125
-21.22678059895833
-21.3389453125
-21.430146484375
-21.542887369791668
-21.650455729166666
-21.784908854166666
-21.779755859375
-21.789117838541667
-21.84885091145833
-21.906962890625
-21.938557942708332
-21.9107421875
-21.90915364583333
-21.954837239583334
-21.96490234375
-21.749514973958334
-21.423587239583334
-21.243763020833335
-21.26744140625
-21.35400390625
-21.490322265625
-21.635843098958333
-21.714944661458333
-21.747760416666665
-21.756038411458334
-21.735257161458332
-21.715872395833333
-21.738017578125
-21.762916666666666
-21.77759765625
-21.767620442708335
-21.814541015625
-21.862587890625
-21.425237630208333
-21.231783854166668
-21.268583984375
-21.393421223958335
-21.544016927083334
-21.700123697916666
-21.799479166666668
-21.842063802083334
-21.828792317708334
-21.78935546875
-21.770166015625
-21.761793619791668
-21.747662760416667
-21.771490885416668
-21.823111979166665
-21.816546223958333
-21.621087239583332
-21.211223958333335
-20.874222005208335
-20.772740885416667
-20.80715494791667
-20.897347005208335
-20.982229817708333
-21.027985026041666
-21.045830078125
-21.065631510416665
-21.053623046875
-21.054244791666665
-21.070904947916667
-21.141158854166665
-21.216142578125
-21.283310546875
-21.347513020833333
-21.250667317708334
-20.909664713541666
-20.605569661458333
-20.569934895833335
-20.604973958333332
-20.671653645833334
-20.74396484375
-20.851666666666667
-20.921588541666665
-20.88287434895833
-20.821910807291665
-20.769440104166666
-20.79962890625
-20.852526041666668
-20.871595052083332
-20.904820963541667
-20.937063802083333
-20.975520833333334
-20.961458333333333
-20.74552734375
-20.3971484375
-20.1991015625
-20.171494140625
-20.233561197916668
-20.287161458333333
-20.32736328125
-20.419755859375
-20.49383463541667
-20.460550130208333
-20.448860677083335
-20.523831380208332
-20.588486328125
-20.657666015625
-20.791337890625
-20.833238932291668
-20.872913411458335
-20.931809895833332
-20.937115885416667
-20.952532552083333
-20.996744791666668
-21.03833984375
-21.075358072916668
-21.123349609375
-21.122923177083333
-21.140960286458334
-21.173453776041665
-20.8733203125
-20.480247395833334
-20.312115885416667
-20.330475260416666
-20.41473307291667
-20.540198567708334
-20.617789713541665
-20.673785807291665
-20.669899088541666
-20.638111979166666
-20.63738932291667
-20.693463541666667
-20.7458203125
-20.802877604166667
-20.875042317708335
-20.924205729166665
-20.938675130208335
-20.958098958333334
-21.00164713541667
-21.038746744791666
-21.068876953125
-21.110859375
-21.127096354166667
-21.141217447916667
-21.210185546875
-21.226643880208332
-20.995341796875
-20.645764973958332
-20.397639973958334
-20.409635416666667
-20.485283203125
-20.572900390625
-20.650826822916667
-20.755149739583334
-20.781884765625
-20.823636067708332
-20.847763671875
-20.837532552083335
-20.856676432291668
-20.931220703125
-21.01021484375
-21.048193359375
-21.10064453125
-21.131276041666666
-21.150875651041666
-21.164736328125
-21.179593098958332
-21.237711588541668
-21.28610677083333
-21.339889322916665
-21.266015625
-20.975533854166667
-20.677041015625
-20.678642578125
-20.772705078125
-20.864420572916668
-20.93806640625
-20.894436848958332
-20.897757161458333
-20.953815104166665
-20.990533854166667
-20.997327473958332
-20.96640625
-20.990071614583332
-21.04070963541667
-21.085
-21.174606119791665
-21.205651041666666
-21.185833333333335
-21.184593098958334
-21.247587890625
-21.279964192708334
-21.310719401041666
-21.32802734375
-21.079446614583333
-20.771686197916665
-20.608958333333334
-20.625826822916668
-20.682610677083332
-20.814856770833334
-20.924244791666666
-21.036666666666665
-21.0806640625
-21.099755859375
-21.093277994791666
-21.058873697916667
-21.0957421875
-21.172421875
-21.228580729166666
-21.238460286458334
-21.271051432291667
-21.345094401041667
-21.359811197916667
-21.330205078125
-21.316735026041666
-21.37666015625
-21.461803385416665
-21.485625
-21.315960286458335
-21.029560546875
-20.827897135416666
-20.948193359375
-21.108583984375
-21.267067057291666
-21.400963541666666
-21.495035807291668
-21.507858072916665
-21.426793619791667
-21.407311197916666
-21.490439453125
-21.584039713541667
-21.6494921875
-21.700205078125
-21.799482421875
-21.824365234375
-21.821155598958335
-21.812389322916665
-21.848108723958333
-21.904830729166665
-21.906458333333333
-21.41482421875
-21.190335286458332
-21.142099609375
-21.18259114583333
-21.30052734375
-21.392555338541666
-21.42511067708333
-21.439358723958332
-21.460322265625
-21.452607421875
-21.421588541666665
-21.468922526041666
-21.51397786458333
-21.559541015625
-21.592568359375
-21.631979166666667
-21.658212890625
-21.679778645833334
-21.725836588541668
-21.70568359375
-21.558912760416668
-21.208248697916666
-20.963860677083332
-20.955130208333333
-21.046809895833334
-21.184423828125
-21.346018880208334
-21.486341145833332
-21.603440755208332
-21.64232421875
-21.614046223958333
-21.570813802083332
-21.567649739583334
-21.57501953125
-21.515924479166667
-21.475911458333332
-21.444329427083332
-21.436048177083332
-21.434124348958335
-21.3592578125
-21.014990234375
-20.660699869791667
-20.476276041666665
-20.49953776041667
-20.563372395833333
-20.650166015625
-20.75921875
-20.780774739583332
-20.728147786458333
-20.688844401041667
-20.641422526041666
-20.630738932291667
-20.705413411458334
-20.694788411458333
-20.740615234375
-20.826953125
-20.878997395833334
-20.896126302083335
-20.609807942708333
-20.205768229166665
-19.966728515625
-19.955240885416668
-19.992102864583334
-20.029365234375
-20.085657552083333
-20.078251953125
-20.030817057291667
-19.984319661458333
-19.947014973958332
-19.943173828125
-19.978193359375
-20.554814453125
-20.40123046875
-20.95745768229167
-20.80638671875
-20.787054036458333
-20.799368489583333
-20.84820638020833
-20.657005208333334
-20.237535807291668
-19.985462239583335
-19.98478515625
-20.013460286458333
-20.038606770833333
-20.097555338541667
-20.16001953125
-20.108046875
-20.062177734375
-20.07696614583333
-20.11923828125
-20.131162109375
-20.156842447916667
-20.211171875
-20.274775390625
-20.304319661458333
-20.323844401041665
-20.356048177083334
-20.3520703125
-20.351803385416666
-20.354560546875
-20.38693684895833
-20.429306640625
-20.394254557291667
-20.10236328125
-19.847884114583334
-19.783694661458334
-19.805862630208335
-19.882955729166667
-20.54107421875
-20.4436328125
-21.07017578125
-20.871819661458332
-20.780146484375
-20.729264322916666
-20.792151692708334
-20.8340234375
-20.900276692708335
-21.026982421875
-21.078118489583332
-21.05954427083333
-21.065882161458333
-21.086126302083333
-21.099850260416666
-21.110872395833333
-21.112360026041667
-21.147591145833335
-21.260654296875
-21.148072916666667
-20.833743489583334
-20.665621744791668
-20.693190104166668
-20.799680989583333
-21.053727213541666
-21.161419270833335
-21.155930989583332
-21.259505208333334
-21.273082682291665
-21.269108072916666
-21.315729166666667
-21.393323567708332
-21.447200520833334
-21.504661458333334
-21.57783203125
-21.658746744791667
-21.681474609375
-21.673349609375
-21.773203125
-21.876702473958332
-21.936891276041667
-21.931432291666667
-21.7000390625
-21.434680989583335
-21.329296875
-21.339052734375
-21.36008138020833
-21.474410807291665
-21.59484375
-21.64796875
-21.686637369791665
-21.655485026041667
-21.598912760416667
-21.595823567708333
-21.632412109375
-21.664130859375
-21.749622395833335
-21.780804036458335
-21.93939453125
-22.039505208333335
-22.050406901041665
-22.116204427083332
-22.209830729166665
-22.190234375
-21.98434895833333
-21.622408854166668
-21.412998046875
-21.456888020833333
-21.521136067708333
-21.608987630208333
-21.790491536458333
-21.911142578125
-21.930966796875
-21.882438151041665
-21.771735026041668
-21.759254557291666
-21.8312109375
-21.876067708333334
-21.924016927083333
-21.961083984375
-21.993128255208333
-21.990032552083335
-22.009192708333334
-21.950094401041667
-21.719557291666668
-21.387314453125
-21.162919921875
-21.150631510416666
-21.21877604166667
-21.394567057291667
-21.523313802083333
-21.60198893229167
-21.58718424479167
-21.564537760416666
-21.634853515625
-21.649274088541667
-21.641526692708332
-21.690745442708334
-21.8083203125
-21.883427734375
-21.865999348958333
-21.8858203125
-21.904583333333335
-21.922649739583335
-21.9484375
-21.728076171875
-21.349274088541666
-21.11456380208333
-21.090576171875
-21.159690755208334
-21.248098958333333
-21.310198567708333
-21.33419921875
-21.343147786458335
-21.355152994791666
-21.300462239583332
-21.274599609375
-21.296614583333334
-21.352311197916666
-21.362151692708334
-21.367965494791665
-21.421650390625
-21.5004296875
-21.5571484375
-21.58489908854167
-21.640654296875
-21.678102213541667
-21.569544270833333
-21.217578125
-20.863929036458334
-20.777470703125
-20.89552734375
-20.985042317708334
-21.077360026041667
-21.0659765625
-21.012838541666667
-21.043196614583334
-21.0491015625
-21.01980143229167
-21.043564453125
-21.145517578125
-21.190843098958332
-21.2364453125
-21.296028645833335
-21.298209635416665
-21.274563802083332
-21.287060546875
-21.343115234375
-21.403092447916666
-21.308538411458333
-20.994075520833334
-20.704462890625
-20.60248046875
-20.628987630208332
-20.656393229166667
-20.757249348958332
-20.842412109375
-20.828030598958332
-20.84259114583333
-20.826614583333335
-20.827024739583333
-20.860794270833335
-20.89927734375
-20.90041015625
-20.924296875
-20.95234375
-20.980319010416668
-21.035403645833334
-21.047555338541667
-21.056500651041667
-21.10891276041667
-21.219117838541667
-21.270856119791667
-21.075143229166667
-20.738125
-20.547262369791667
-20.575198567708334
-20.65216145833333
-20.742884114583333
-20.843720703125
-20.898902994791666
-20.874156901041665
-20.87525390625
-20.876497395833333
-20.834720052083334
-20.852464192708332
-20.957884114583333
-21.061276041666666
-21.140439453125
-21.195472005208334
-21.224508463541667
-21.232835286458332
-21.274938151041667
-21.350377604166667
-21.398870442708333
-21.406539713541665
-21.263154296875
-20.932229817708333
-20.722757161458333
-20.752770182291666
-20.839231770833333
-20.948115234375
-21.063138020833332
-21.165927734375
-21.215231119791667
-21.239000651041668
-21.232923177083332
-21.237845052083333
-21.276936848958332
-21.32123046875
-21.40748046875
-21.492919921875
-21.589007161458333
-21.635055338541665
-21.636624348958332
-21.688128255208333
-21.738313802083333
-21.807177734375
-21.730257161458333
-21.450074869791667
-21.18792643229167
-21.116087239583333
-21.123766276041668
-21.303326822916667
-21.438030598958335
-21.4472265625
-21.4473046875
-21.443059895833333
-21.461868489583335
-21.49857421875
-21.548990885416668
-21.569749348958332
-21.576331380208334
-21.639817708333332
-21.719033203125
-21.799020182291667
-21.844986979166666
-21.757278645833335
-21.470055338541666
-21.160084635416666
-21.090608723958333
-21.201158854166668
-21.314313151041667
-21.491416015625
-21.642587890625
-21.641188151041668
-21.628538411458333
-21.631891276041667
-21.580511067708333
-21.591529947916666
-21.641770833333332
-21.707099609375
-21.739990234375
-21.777685546875
-21.847737630208332
-21.915751953125
-21.922620442708332
-21.735651041666667
-21.334527994791667
-21.112467447916668
-21.148733723958333
-21.245439453125
-21.366536458333332
-21.459518229166665
-21.453776041666668
-21.411100260416667
-21.399599609375
-21.41656575520833
-21.376295572916668
-21.354537760416665
-21.358671875
-21.348665364583333
-21.347125651041665
-21.385940755208335
-21.463033854166667
-21.398450520833332
-21.062845052083333
-20.765364583333334
-20.675100911458333
-20.687548828125
-20.791057942708335
-20.876067708333334
-20.966354166666665
-20.9399609375
-20.937685546875
-20.951985677083332
-20.94573893229167
-20.951360677083333
-20.979671223958334
-21.025559895833332
-21.075804036458333
-21.106334635416665
-21.139658203125
-20.949625651041668
-20.607141927083333
-20.461617838541667
-20.48767578125
-20.498489583333335
-20.529326171875
-20.632783203125
-20.688089192708333
-20.725358072916666
-20.726979166666666
-20.696432291666667
-20.701848958333333
-20.746871744791665
-20.801585286458334
-20.822903645833332
-20.852822265625
-20.841123046875
-20.85193359375
-20.91705078125
-20.974072265625
-20.813372395833333
-20.475940755208335
-20.277548828125
-20.286279296875
-20.347467447916667
-20.46583984375
-20.570572916666666
-20.535572916666666
-20.541979166666668
-20.548037109375
-20.572249348958334
-20.666142578125
-20.710009765625
-20.721982421875
-20.735442708333334
-20.749456380208333
-20.768414713541667
-20.8170703125
-20.86884765625
-20.860130208333334
-20.825491536458333
-20.872578125
-20.936735026041667
-20.960091145833335
-20.746012369791668
-20.440559895833335
-20.322877604166667
-20.36673828125
-20.45285481770833
-20.521669921875
-20.579176432291668
-20.66192708333333
-20.7134375
-20.75935546875
-20.771110026041665
-20.791246744791668
-20.840651041666668
-20.8906640625
-20.948248697916668
-20.99212565104167
-20.988834635416666
-20.994290364583332
-21.048089192708332
-21.068444010416666
-21.089319661458333
-21.102952473958332
-21.151455078125
-21.192249348958335
-21.078177083333333
-20.830081380208334
-20.604287109375
-20.596578776041667
-20.630055338541666
-20.709772135416667
-20.822138671875
-20.87138671875
-20.853186848958334
-20.904384765625
-20.989332682291668
-20.967587890625
-20.9601953125
-21.024622395833333
-21.074801432291668
-21.129114583333333
-21.204287109375
-21.228395182291667
-21.202972005208334
