-312.3194274902344
-380.6240539550781
-512.6098022460938
-629.6822509765625
-644.0611572265625
-716.2886962890625
-693.5798950195313
-625.4017944335938
-561.5167846679688
-521.4348754882813
-490.75299072265625
-528.1985473632813
-517.2310180664063
-499.19085693359375
-488.6432189941406
-477.6496887207031
-474.53076171875
-475.1412048339844
-471.58416748046875
-471.40911865234375
-471.82275390625
-472.8753967285156
-474.0564270019531
-474.19696044921875
-474.37640380859375
-471.9723815917969
-471.41064453125
-470.75518798828125
-470.60479736328125
-470.34130859375
-468.842529296875
-467.1383361816406
-466.1371765136719
-465.8645324707031
-465.9062805175781
-465.9410705566406
-467.9445495605469
-468.88385009765625
-470.9854736328125
-470.9703674316406
-470.9408264160156
-470.8625183105469
-471.11279296875
-471.3207702636719
-471.5834655761719
-471.9267272949219
-472.2129821777344
-472.5533752441406
-472.7693176269531
-472.9583435058594
-473.495361328125
-473.8392028808594
-474.32989501953125
-474.8134765625
-472.5012512207031
-471.61199951171875
-471.1852722167969
-470.9311828613281
-468.4743957519531
-464.175048828125
-463.91192626953125
-465.384033203125
-466.90777587890625
-466.9954833984375
-468.6833801269531
-468.4439392089844
-467.9458312988281
-467.5471496582031
-467.5177917480469
-467.6103210449219
-467.62432861328125
-467.5599670410156
-467.4286804199219
-467.1837463378906
-466.7908935546875
-466.4165344238281
-466.1333923339844
-465.88177490234375
-465.774169921875
-465.7928161621094
-467.74267578125
-468.3645324707031
-469.3114318847656
-470.2775573730469
-469.87298583984375
-468.225341796875
-466.6578063964844
-466.8616943359375
-467.278076171875
-467.967041015625
-467.5600891113281
-467.2719421386719
-467.68719482421875
-467.8707275390625
-468.0415954589844
-468.7565002441406
-469.1296081542969
-469.6417236328125
-470.2688293457031
-470.44427490234375
-470.5482177734375
-470.9256591796875
-468.1638488769531
-466.5908203125
-466.06072998046875
-466.0466003417969
-468.0780029296875
-469.01123046875
-471.3430480957031
-471.2215270996094
-471.3194580078125
-471.8843078613281
-472.3017272949219
-472.49658203125
-472.9028015136719
-473.2453918457031
-473.33172607421875
-473.45355224609375
-473.6963806152344
-473.9336242675781
-474.1282958984375
-472.5160217285156
-472.11480712890625
-470.28717041015625
-469.83331298828125
-469.9938659667969
-469.984130859375
-468.6397399902344
-466.84564208984375
-465.8572998046875
-465.7778015136719
-468.27392578125
-469.0230407714844
-469.8970031738281
-469.9598083496094
-469.77374267578125
-469.737548828125
-469.9591064453125
-470.2605895996094
-470.5789794921875
-470.9190979003906
-471.2141418457031
-471.5135192871094
-471.7289123535156
-471.8412170410156
-471.9632263183594
-472.32147216796875
-472.8397216796875
-473.06658935546875
-473.218017578125
-473.3040771484375
-473.5176696777344
-473.5911560058594
-472.9277648925781
-471.06927490234375
-469.7356872558594
-469.4578552246094
-469.7772216796875
-470.1542663574219
-469.9065856933594
-469.6846008300781
-469.82940673828125
-470.17279052734375
-470.660888671875
-471.1827392578125
-471.3979187011719
-471.7503967285156
-471.9687805175781
-472.2717590332031
-472.4618225097656
-472.95196533203125
-473.0860290527344
-470.4244689941406
-469.0736083984375
-468.90911865234375
-469.0751647949219
-469.4867248535156
-469.45196533203125
-468.77099609375
-468.6875
-469.4362487792969
-469.61224365234375
-469.6775207519531
-470.03411865234375
-470.1065673828125
-470.34942626953125
-470.48150634765625
-470.6778259277344
-471.008544921875
-471.10430908203125
-470.6315612792969
-468.694580078125
-467.2490234375
-467.00433349609375
-467.0803527832031
-467.23260498046875
-467.58770751953125
-468.26239013671875
-467.7560119628906
-467.3385314941406
-467.39105224609375
-467.0556640625
-468.0222473144531
-467.7955322265625
-468.5462341308594
-468.7471618652344
-468.9046630859375
-469.0997314453125
-469.0666198730469
-469.2536315917969
-469.4351501464844
-469.7598876953125
-469.8900451660156
-468.7915954589844
-466.72540283203125
-465.4957580566406
-464.8347473144531
-465.18988037109375
-468.24700927734375
-469.0580139160156
-469.9197692871094
-469.9362487792969
-469.6625671386719
-469.9750061035156
-469.3467712402344
-469.58612060546875
-469.8230285644531
-470.00726318359375
-470.33563232421875
-471.2124938964844
-471.49700927734375
-471.5874938964844
-471.62384033203125
-471.91168212890625
-472.12646484375
-472.3269348144531
-472.3663024902344
-471.21649169921875
-469.1126708984375
-467.8818359375
-467.2344970703125
-467.44110107421875
-467.65069580078125
-467.6306457519531
-467.95159912109375
-467.92974853515625
-467.69110107421875
-467.54638671875
-467.6102600097656
-467.9852600097656
-468.2635192871094
-468.49176025390625
-468.8126220703125
-468.9793701171875
-469.2978515625
-469.5049743652344
-469.5640869140625
-469.7088317871094
-469.97406005859375
-470.4909973144531
-471.3730773925781
-471.0918273925781
-469.33343505859375
-467.6407470703125
-466.401123046875
-466.4480895996094
-466.5898132324219
-466.6196594238281
-466.7487487792969
-466.9598388671875
-466.90496826171875
-466.8644104003906
-466.8573913574219
-467.09344482421875
-467.4751892089844
-467.67779541015625
-467.8975524902344
-468.02581787109375
-468.10797119140625
-468.3641052246094
-468.5943603515625
-468.92974853515625
-469.0177307128906
-469.1270446777344
-469.41619873046875
-469.7201232910156
-469.9256286621094
-469.1230773925781
-467.70343017578125
-465.7860412597656
-465.47967529296875
-465.752197265625
-468.6778259277344
-469.3580017089844
-470.07958984375
-470.270263671875
-470.1704406738281
-470.1314697265625
-470.2519836425781
-470.457763671875
-470.7514953613281
-471.0220947265625
-471.1662292480469
-471.33172607421875
-471.4857177734375
-471.72784423828125
-471.9488525390625
-472.1169128417969
-472.2453918457031
-472.43951416015625
-472.7323303222656
-472.9590759277344
-473.0285949707031
-473.3268737792969
-473.6502380371094
-473.3648986816406
-472.3988952636719
-468.4447326660156
-466.0557556152344
-466.04217529296875
-466.17919921875
-466.1604309082031
-466.0964050292969
-466.286376953125
-466.48455810546875
-466.32537841796875
-466.2798156738281
-466.56341552734375
-466.7211608886719
-467.0517578125
-467.3877258300781
-467.5928039550781
-467.70843505859375
-467.9444580078125
-468.0273742675781
-468.17181396484375
-468.460205078125
-468.6895751953125
-469.03741455078125
-469.3036193847656
-469.59283447265625
-469.85687255859375
-470.0773620605469
-470.37261962890625
-470.6156005859375
-469.7205810546875
-467.6285400390625
-466.1171875
-465.80108642578125
-466.07574462890625
-466.1545715332031
-467.4151611328125
-468.1976318359375
-469.16607666015625
-469.1577453613281
-469.0514831542969
-469.0732727050781
-469.4911804199219
-469.8203125
-470.1539001464844
-470.4923095703125
-470.5867919921875
-470.7652587890625
-470.872802734375
-471.1234436035156
-471.2841491699219
-471.51177978515625
-471.73516845703125
-472.0758361816406
-472.3208923339844
-472.5140075683594
-472.7845764160156
-473.00506591796875
-473.25567626953125
-473.4735412597656
-472.1759338378906
-470.5068359375
-467.3868103027344
-467.4703369140625
-467.65325927734375
-467.728759765625
-467.75537109375
-467.9227294921875
-468.012451171875
-467.8864440917969
-467.8755798339844
-467.91009521484375
-468.3299865722656
-468.5892333984375
-468.8248291015625
-469.0091247558594
-469.1904602050781
-469.4901428222656
-469.6478576660156
-469.8802795410156
-469.9783020019531
-470.2547912597656
-470.4469299316406
-470.7342529296875
-471.02984619140625
-471.19921875
-471.3843994140625
-471.67059326171875
-471.9114074707031
-471.68756103515625
-469.7736511230469
-467.90313720703125
-467.2007751464844
-467.2093200683594
-467.3135681152344
-467.445556640625
-467.59393310546875
-467.7381286621094
-467.7138671875
-467.5743408203125
-467.62469482421875
-467.69677734375
-468.1012878417969
-468.4553527832031
-468.7674560546875
-469.0787658691406
-469.2811279296875
-469.4971008300781
-469.6771240234375
-469.7970275878906
-470.0230712890625
-470.4231262207031
-470.9031066894531
-471.1324157714844
-471.36553955078125
-471.5547790527344
-471.5423583984375
-470.22808837890625
-468.1029052734375
-466.8832092285156
-466.7897033691406
-467.27960205078125
-467.65179443359375
-467.603759765625
-467.741455078125
-467.8938903808594
-467.6975402832031
-467.4775695800781
-467.6165466308594
-467.85626220703125
-468.2845458984375
-468.6496887207031
-468.8808898925781
-469.03228759765625
-469.2222900390625
-469.4732666015625
-469.6091003417969
-469.69696044921875
-470.0262756347656
-470.2692565917969
-470.46484375
-470.7386779785156
-470.82354736328125
-471.03204345703125
-471.3411865234375
-471.3103332519531
-470.0121154785156
-467.901123046875
-466.6308898925781
-466.6512451171875
-467.1484375
-467.45965576171875
-467.6237487792969
-467.78057861328125
-467.6995849609375
-467.3999938964844
-467.07421875
-467.21673583984375
-467.469482421875
-467.69537353515625
-467.77777099609375
-468.1333312988281
-468.3739318847656
-468.4038391113281
-468.75726318359375
-468.9488220214844
-469.01995849609375
-469.52838134765625
-468.7729187011719
-465.57525634765625
-465.63427734375
-467.7421569824219
-469.63336181640625
-470.0423889160156
-469.8489685058594
-469.5838623046875
-469.680419921875
-470.39617919921875
-470.73626708984375
-471.01739501953125
-471.6967468261719
-471.907958984375
-472.1448669433594
-472.3656311035156
-472.7288513183594
-472.9621276855469
-473.0643615722656
-470.04290771484375
-468.6799621582031
-468.4508972167969
-468.9327392578125
-469.48675537109375
-469.9114685058594
-469.8984069824219
-469.63494873046875
-469.5219421386719
-469.5558776855469
-469.90655517578125
-470.25982666015625
-470.48828125
-470.7674560546875
-470.8941955566406
-471.0093688964844
-471.0900573730469
-471.1661682128906
-471.227294921875
-471.4161682128906
-471.8857727050781
-471.80755615234375
-470.51446533203125
-468.6297302246094
-467.922119140625
-467.90997314453125
-468.16412353515625
-468.4742431640625
-468.5362548828125
-468.8082275390625
-468.8511962890625
-468.597412109375
-468.3716735839844
-468.55926513671875
-468.8927307128906
-469.2022399902344
-469.4389953613281
-469.65771484375
-469.8268127441406
-470.1381530761719
-470.2657470703125
-470.4358215332031
-470.6488037109375
-470.98895263671875
-471.35205078125
-469.72491455078125
-467.7455139160156
-467.0614013671875
-467.4233703613281
-467.4216003417969
-467.5903015136719
-467.5666809082031
-467.3646240234375
-467.5218811035156
-468.19305419921875
-468.3330078125
-468.5997314453125
-468.7261962890625
-468.7890319824219
-469.1094665527344
-469.3673400878906
-469.73321533203125
-469.30169677734375
-467.2002868652344
-464.9804992675781
-465.2373046875
-469.0960693359375
-469.7611999511719
-470.0361328125
-470.1960144042969
-470.2333984375
-470.27557373046875
-470.4845886230469
-470.8321533203125
-471.2101745605469
-471.4774475097656
-471.72607421875
-472.03173828125
-472.2268981933594
-472.4303894042969
-472.62384033203125
-472.9563293457031
-473.084228515625
-473.2046813964844
-473.5963134765625
-474.0035400390625
-474.25390625
-472.0372009277344
-469.2140197753906
-465.41021728515625
-464.97857666015625
-465.41455078125
-467.5936279296875
-468.980224609375
-469.7146911621094
-470.0685729980469
-470.20831298828125
-470.1609802246094
-470.0753173828125
-470.3644714355469
-470.69720458984375
-471.0336608886719
-471.4234924316406
-471.7272033691406
-471.9122009277344
-472.0353088378906
-472.3113098144531
-472.51446533203125
-472.6885681152344
-473.1095275878906
-473.4407958984375
-473.76385498046875
-474.00390625
-474.33355712890625
-473.1958923339844
-472.2364807128906
-468.2376708984375
-466.30206298828125
-464.88214111328125
-465.6995544433594
-466.6596374511719
-468.90277099609375
-469.6495361328125
-470.6452941894531
-470.80126953125
-470.78057861328125
-470.7866516113281
-471.1009826660156
-471.63427734375
-472.07183837890625
-472.3519592285156
-472.70123291015625
-473.0892333984375
-473.3565368652344
-473.65863037109375
-474.2779846191406
-473.06005859375
-472.75946044921875
-471.4256591796875
-471.0491638183594
-470.9963684082031
-470.5665283203125
-468.7001647949219
-467.72021484375
-468.4487609863281
-468.93218994140625
-469.275390625
-469.71990966796875
-470.0810852050781
-470.1361083984375
-470.3578186035156
-470.9154968261719
-473.2840270996094
-474.30535888671875
-475.0213928222656
-476.30126953125
-475.7222900390625
-475.16168212890625
-473.56268310546875
-473.8431701660156
-472.6727600097656
-472.9966125488281
-472.9399108886719
-471.3837890625
-469.385986328125
-467.8966979980469
-467.9828186035156
-468.64617919921875
-468.9920349121094
-469.24847412109375
-469.5581970214844
-469.5274963378906
-469.26068115234375
-469.08740234375
-469.3065490722656
-469.6795959472656
-470.0594787597656
-470.4945373535156
-470.85125732421875
-471.07757568359375
-471.3017272949219
-471.5205993652344
-471.55914306640625
-471.7962646484375
-472.169189453125
-472.5163879394531
-472.4411315917969
-470.945068359375
-468.92156982421875
-468.01947021484375
-467.911376953125
-468.1662292480469
-468.8016662597656
-469.2226867675781
-469.0708923339844
-469.0027160644531
-469.2868347167969
-469.73553466796875
-470.5687255859375
-470.963134765625
-471.493896484375
-471.6214599609375
-471.79779052734375
-472.03143310546875
-472.48345947265625
-471.77984619140625
-469.709716796875
-468.0157165527344
-467.8996276855469
-468.063720703125
-468.0296630859375
-468.3091735839844
-468.10565185546875
-467.8883972167969
-467.831787109375
-468.267822265625
-468.51300048828125
-468.88348388671875
-469.38348388671875
-469.56317138671875
-469.83966064453125
-470.0049743652344
-470.279052734375
-470.6090393066406
-470.9962158203125
-471.3023986816406
-471.116455078125
-469.4771423339844
-467.2303161621094
-466.2543029785156
-466.2156677246094
-466.4093933105469
-466.4156494140625
-466.3578186035156
-466.6720275878906
-466.8146667480469
-466.7682189941406
-466.7645568847656
-466.9586181640625
-467.3156433105469
-467.84149169921875
-468.195068359375
-468.3293762207031
-468.53546142578125
-468.76739501953125
-468.88226318359375
-469.14910888671875
-469.35009765625
-469.6134338378906
-469.9697570800781
-470.24249267578125
-470.4876708984375
-470.5434265136719
-469.37933349609375
-467.1145324707031
-465.70391845703125
-465.4488525390625
-465.6443176269531
-466.9971923828125
-468.2001647949219
-468.97650146484375
-469.81298828125
-469.7561950683594
-469.63671875
-469.86114501953125
-470.0918273925781
-470.4218444824219
-470.6958312988281
-471.0462951660156
-471.2858581542969
-471.5058288574219
-471.68560791015625
-471.8910217285156
-472.07489013671875
-472.2945861816406
-472.5475769042969
-472.7544860839844
-473.06121826171875
-473.4199523925781
-473.5252990722656
-472.7677917480469
-470.6269226074219
-468.0655212402344
-466.7192077636719
-465.4561767578125
-465.611083984375
-465.50927734375
-467.5793762207031
-469.89984130859375
-470.5124206542969
-471.0611572265625
-471.04608154296875
-471.2239074707031
-471.6004638671875
-471.992431640625
-472.3319396972656
-472.6058349609375
-472.7843322753906
-472.9367980957031
-473.2034912109375
-473.33917236328125
-473.5906677246094
-473.83990478515625
-473.99224853515625
-474.4460754394531
-473.26409912109375
-471.4731750488281
-470.631103515625
-467.4698486328125
-465.2089538574219
-464.0382080078125
-463.3829040527344
-465.5966796875
-467.6592102050781
-468.9670104980469
-470.5422668457031
-470.1379699707031
-470.6101379394531
-470.5231018066406
-470.7938232421875
-471.2234802246094
-471.6771545410156
-472.05609130859375
-472.31854248046875
-472.5836486816406
-472.8114013671875
-473.0787658691406
-473.1550598144531
-473.5218505859375
-473.5946960449219
-473.82373046875
-474.1102600097656
-474.3805847167969
-474.0262756347656
-473.605712890625
-471.1600646972656
-468.3778076171875
-465.8401184082031
-465.1033630371094
-464.615478515625
-466.2038879394531
-468.32171630859375
-469.3180236816406
-470.4134826660156
-470.2994079589844
-470.6033935546875
-470.6470947265625
-470.8662414550781
-471.27978515625
-471.7620849609375
-472.0403137207031
-472.4483947753906
-472.78204345703125
-472.9193115234375
-473.1379699707031
-473.3119201660156
-473.6012268066406
-473.8606262207031
-474.2877197265625
-474.6727600097656
-473.981689453125
-471.38116455078125
-467.3232727050781
-465.63812255859375
-465.5450439453125
-465.3667907714844
-467.1010437011719
-468.95947265625
-470.89788818359375
-470.7671203613281
-471.23223876953125
-471.1288146972656
-471.3631591796875
-471.83843994140625
-472.3591003417969
-472.8055419921875
-473.0791320800781
-473.25604248046875
-473.5734558105469
-473.7950744628906
-473.8955078125
-474.11871337890625
-473.6660461425781
-473.3381652832031
-471.0052185058594
-468.5611877441406
-465.433349609375
-464.7030029296875
-464.85943603515625
-466.6407470703125
-469.0572814941406
-471.49688720703125
-471.6791076660156
-471.4189453125
-471.2703857421875
-471.3318176269531
-471.524658203125
-471.9545593261719
-472.3763732910156
-472.78167724609375
-472.9749450683594
-473.33782958984375
-473.4704284667969
-473.64886474609375
-473.9142150878906
-474.07525634765625
-474.42022705078125
-473.1786804199219
-471.20697021484375
-468.3564758300781
-464.6673583984375
-464.316162109375
-464.06170654296875
-467.01922607421875
-469.0961608886719
-469.9715881347656
-471.0450439453125
-470.90911865234375
-471.4082336425781
-471.4732971191406
-471.762451171875
-472.1333923339844
-472.4305419921875
-472.7281799316406
-472.99786376953125
-473.1922607421875
-473.2916564941406
-473.3619079589844
-473.5778503417969
-473.80108642578125
-474.08489990234375
-474.4073791503906
-473.8119201660156
-471.0133361816406
-466.7862548828125
-465.61126708984375
-465.5064697265625
-465.1976013183594
-467.27227783203125
-468.1104736328125
-469.0796813964844
-469.9546813964844
-469.7382507324219
-469.6161804199219
-469.8954162597656
-470.2247314453125
-470.61328125
-471.5679626464844
-471.8934631347656
-472.1259460449219
-472.3515930175781
-472.4651794433594
-472.5953674316406
-472.8679504394531
-473.1672058105469
-473.34710693359375
-473.6872863769531
-474.092529296875
-474.28472900390625
-473.4239501953125
-470.5044250488281
-467.40496826171875
-464.85687255859375
-464.9513854980469
-464.3162841796875
-467.7302551269531
-468.63201904296875
-470.9075622558594
-470.94549560546875
-471.38201904296875
-471.4325866699219
-471.7064514160156
-472.1289367675781
-472.47674560546875
-472.6601867675781
-472.96600341796875
-473.1264953613281
-473.35028076171875
-473.5794982910156
-473.8343200683594
-473.9838562011719
-474.2069396972656
-472.50927734375
-472.1502990722656
-471.05194091796875
-471.2040100097656
-469.93292236328125
-467.8320617675781
-465.57110595703125
-464.2342529296875
-463.3443298339844
-466.21490478515625
-466.9290771484375
-469.79278564453125
-470.1302490234375
-470.2355041503906
-470.1624755859375
-470.2763671875
-470.63909912109375
-471.4212341308594
-471.78924560546875
-473.171142578125
-473.14117431640625
-473.2069396972656
-473.37982177734375
-473.5692443847656
-473.90020751953125
-474.1171875
-474.3619689941406
-472.7134704589844
-472.4008483886719
-470.9910888671875
-469.3602600097656
-466.925537109375
-465.79473876953125
-465.3841857910156
-465.7054138183594
-467.1514892578125
-468.0642395019531
-469.0843200683594
-470.5564270019531
-470.55950927734375
-470.5406494140625
-470.721435546875
-471.15069580078125
-471.5398254394531
-471.9435729980469
-472.8807373046875
-473.1235656738281
-473.2430419921875
-473.6322021484375
-473.8990783691406
-474.06134033203125
-474.40057373046875
-472.6408386230469
-472.3162536621094
-471.3014831542969
-471.6907958984375
-471.4040222167969
-469.66741943359375
-467.8746643066406
-467.1584167480469
-466.99169921875
-467.4828186035156
-467.8148498535156
-468.91156005859375
-469.2574462890625
-468.9983825683594
-468.71942138671875
-468.8301696777344
-469.1794738769531
-469.6805725097656
-470.2227783203125
-470.92877197265625
-471.14910888671875
-471.3567199707031
-471.54144287109375
-471.72686767578125
-471.9541931152344
-472.17840576171875
-471.8856201171875
-470.01348876953125
-468.4693908691406
-467.92254638671875
-468.2991943359375
-468.82366943359375
-469.0978088378906
-469.67718505859375
-469.95977783203125
-469.80853271484375
-469.5613098144531
-469.6343688964844
-470.2132873535156
-470.5115966796875
-470.9504699707031
-471.2207336425781
-471.6254577636719
-471.9112854003906
-472.0426025390625
-472.5591125488281
-472.99029541015625
-469.6144714355469
-467.99530029296875
-468.4350280761719
-468.9951171875
-469.3996887207031
-469.35601806640625
-469.1705322265625
-469.81085205078125
-470.3084716796875
-470.90692138671875
-471.2117004394531
-471.4449462890625
-471.6875915527344
-471.8902282714844
-472.6477355957031
-472.8330993652344
-471.5938720703125
-467.8975524902344
-467.7608337402344
-468.04803466796875
-468.0938415527344
-468.554931640625
-468.7347412109375
-468.50701904296875
-468.6160583496094
-468.945556640625
-469.80218505859375
-470.17315673828125
-470.3232421875
-470.7666320800781
-470.8587951660156
-470.97808837890625
-471.2532958984375
-471.5798645019531
-471.841064453125
-472.2125244140625
-472.1864013671875
-470.42181396484375
-467.9927978515625
-466.8901062011719
-466.81597900390625
-466.468505859375
-466.46240234375
-466.50311279296875
-466.7909240722656
-467.06085205078125
-467.06005859375
-466.9290771484375
-467.01214599609375
-467.2874450683594
-467.6768493652344
-468.05206298828125
-468.95013427734375
-469.1485900878906
-469.41339111328125
-469.6123962402344
-469.78399658203125
-470.03155517578125
-470.2989807128906
-470.63519287109375
-470.8494567871094
-471.21612548828125
-471.5506286621094
-471.6864929199219
-470.6696472167969
-468.2791442871094
-466.3185729980469
-465.8013916015625
-465.4323425292969
-467.844482421875
-470.3218078613281
-470.2977600097656
-470.6282958984375
-471.4088439941406
-471.7926025390625
-472.6252136230469
-472.85888671875
-473.0475769042969
-473.3613586425781
-473.6321716308594
-474.2568664550781
-474.5310363769531
-472.30377197265625
-470.9020080566406
-467.1617126464844
-465.9193420410156
-465.2355041503906
-467.25921630859375
-467.89166259765625
-468.6417541503906
-470.08807373046875
-469.95050048828125
-470.05694580078125
-470.4635009765625
-470.99285888671875
-471.38409423828125
-471.87506103515625
-472.86474609375
-472.98651123046875
-473.2990417480469
-473.5419616699219
-473.868896484375
-474.08135986328125
-474.4593811035156
-472.70770263671875
-468.9161682128906
-466.51715087890625
-466.09674072265625
-465.8421325683594
-466.373779296875
-468.1451721191406
-469.3658447265625
-470.15362548828125
-470.2005310058594
-469.74639892578125
-470.1710510253906
-470.525146484375
-471.5821228027344
-472.0230407714844
-472.38262939453125
-472.5986022949219
-472.7554626464844
-472.8951110839844
-473.10693359375
-473.48504638671875
-473.695556640625
-473.5244140625
-472.1324768066406
-470.1510009765625
-469.10931396484375
-468.4586181640625
-468.9698181152344
-469.2867431640625
-469.66900634765625
-469.9640197753906
-469.92181396484375
-469.7183532714844
-469.7169189453125
-469.96246337890625
-470.2552490234375
-470.6584167480469
-471.78948974609375
-471.9884033203125
-472.35003662109375
-472.5394287109375
-472.7257995605469
-472.9336853027344
-473.0693664550781
-473.5225830078125
-473.741455078125
-473.13311767578125
-471.2600402832031
-468.00823974609375
-467.4729309082031
-467.1186828613281
-467.340087890625
-467.4991149902344
-467.71728515625
-468.0816345214844
-467.956298828125
-467.9699401855469
-468.0603942871094
-468.5381164550781
-468.8629455566406
-469.15606689453125
-470.0659484863281
-470.362548828125
-470.74456787109375
-471.0258483886719
-471.12579345703125
-471.2320861816406
-471.4178466796875
-471.7770690917969
-472.0943603515625
-471.9593200683594
-470.3969421386719
-468.3232421875
-467.30548095703125
-466.5551452636719
-466.8603515625
-466.9354553222656
-467.0198974609375
-467.4150695800781
-467.58880615234375
-467.5878601074219
-467.69952392578125
-467.97509765625
-468.2101135253906
-468.5914306640625
-469.02789306640625
-469.299560546875
-470.1268310546875
-470.281005859375
-470.4699401855469
-470.7916259765625
-470.9685974121094
-471.19366455078125
-471.5788879394531
-471.8193054199219
-472.1546936035156
-472.13104248046875
-470.4985046386719
-468.21966552734375
-467.0138244628906
-466.39453125
-466.6669616699219
-466.6644287109375
-466.744384765625
-466.9682312011719
-467.274658203125
-467.1783447265625
-467.14276123046875
-467.22039794921875
-467.6239013671875
-468.1302795410156
-468.31866455078125
-468.6716003417969
-468.9532165527344
-469.18988037109375
-469.9979553222656
-470.24114990234375
-470.4329833984375
-470.6067199707031
-470.8763427734375
-471.1748962402344
-471.6015319824219
-471.8294982910156
-472.02099609375
-471.9068908691406
-470.3226013183594
-467.8781433105469
-466.641845703125
-466.03668212890625
-466.2618408203125
-466.29217529296875
-466.9918518066406
-468.0908508300781
-469.632080078125
-469.55450439453125
-469.5903625488281
-469.8059997558594
-470.1847229003906
-470.65283203125
-471.0133361816406
-471.28662109375
-471.36181640625
-471.7536315917969
-472.6246643066406
-472.7952575683594
-473.0028381347656
-473.34130859375
-473.4920349121094
-473.80609130859375
-474.1103515625
-474.3832702636719
-474.5874328613281
-472.9328918457031
-471.8870544433594
-468.5017395019531
-464.4800720214844
-462.6930847167969
-464.12408447265625
-465.8332214355469
-468.7301330566406
-470.1961669921875
-470.62615966796875
-471.0722961425781
-471.1673889160156
-471.12567138671875
-471.37823486328125
-471.7121276855469
-472.2281188964844
-472.72357177734375
-473.1204528808594
-473.9527587890625
-474.2795715332031
-474.4150085449219
-473.39776611328125
-471.54681396484375
-471.2305603027344
-471.45654296875
-471.7590026855469
-472.11474609375
-472.52142333984375
-472.908447265625
-473.152099609375
-472.2541809082031
-469.7664794921875
-467.6993103027344
-467.2050476074219
-466.8486633300781
-467.2665710449219
-467.34246826171875
-467.4461364746094
-467.78680419921875
-467.76385498046875
-467.6705627441406
-467.6402282714844
-468.1281433105469
-468.53839111328125
-469.0206604003906
-469.30670166015625
-470.3511047363281
-470.61407470703125
-470.84716796875
-470.943115234375
-470.9952087402344
-471.25830078125
-471.279541015625
-471.5035400390625
-471.8477478027344
-472.02593994140625
-472.08001708984375
-470.9131164550781
-468.5030822753906
-467.1787414550781
-466.7048034667969
-467.322265625
-467.8341369628906
-468.3171691894531
-468.7835998535156
-468.7626647949219
-468.4396057128906
-468.3302001953125
-468.5732421875
-469.0577697753906
-469.5281982421875
-470.4978332519531
-470.9393615722656
-471.2413635253906
-471.2980041503906
-471.4115905761719
-471.6324157714844
-471.8250732421875
-472.0792236328125
-472.3222961425781
-472.387939453125
-471.0834655761719
-468.9939270019531
-467.8222961425781
-467.3038635253906
-467.77740478515625
-468.23760986328125
-468.57977294921875
-469.0895690917969
-469.0816650390625
-469.2384948730469
-469.1653747558594
-469.77789306640625
-469.6287536621094
-470.5513000488281
-470.8303527832031
-471.2109680175781
-471.3414611816406
-471.47430419921875
-471.68072509765625
-471.84698486328125
-472.25396728515625
-472.51007080078125
-471.8298645019531
-469.5899353027344
-467.735107421875
-467.0056457519531
-466.8264465332031
-467.06341552734375
-467.3701477050781
-467.5588073730469
-467.90869140625
-467.86175537109375
-467.709716796875
-467.6521301269531
-467.92376708984375
-468.3219909667969
-468.78179931640625
-470.06402587890625
-470.37261962890625
-470.5542907714844
-471.0769348144531
-471.4000549316406
-470.19024658203125
-467.78143310546875
-466.4191589355469
-465.53851318359375
-466.719970703125
-468.758544921875
-469.9398498535156
-470.8748779296875
-470.6506042480469
-470.5450439453125
-470.68548583984375
-471.0702819824219
-471.32965087890625
-471.699462890625
-472.1373596191406
-472.4088134765625
-472.6570129394531
-472.711181640625
-473.4916076660156
-473.7178649902344
-473.9759826660156
-474.181640625
-474.48175048828125
-474.8271179199219
-472.7458190917969
-468.50457763671875
-465.8006591796875
-464.5173034667969
-464.7425537109375
-466.2298278808594
-468.2726135253906
-469.1537170410156
-470.819580078125
-470.841796875
-470.75872802734375
-470.7937316894531
-471.1478576660156
-471.5107727050781
-471.7353210449219
-472.11383056640625
-472.37188720703125
-472.63983154296875
-472.92230224609375
-473.104248046875
-473.37762451171875
-473.6603698730469
-473.84991455078125
-474.09326171875
-474.96429443359375
-474.0586853027344
-472.7541809082031
-469.88824462890625
-466.83721923828125
-464.509521484375
-464.0555419921875
-464.9634094238281
-467.1119689941406
-468.4083557128906
-469.3938293457031
-470.3507080078125
-470.4585266113281
-470.2544250488281
-470.2113037109375
-470.5815124511719
-470.98419189453125
-471.3357238769531
-471.700439453125
-472.04248046875
-472.3247985839844
-472.4910583496094
-472.6928405761719
-473.0245056152344
-473.2607421875
-473.54852294921875
-474.30914306640625
-475.12933349609375
-472.60443115234375
-468.6156311035156
-465.763671875
-464.41619873046875
-464.6160888671875
-466.34979248046875
-468.47882080078125
-470.1445617675781
-470.3681640625
-470.3858337402344
-470.2923889160156
-470.2377624511719
-470.5124816894531
-470.9761047363281
-471.3711242675781
-471.6800842285156
-471.9437561035156
-472.16302490234375
-472.3539733886719
-472.4896240234375
-472.61669921875
-472.899658203125
-473.80029296875
-473.99078369140625
-474.39166259765625
-474.6012878417969
-474.0115966796875
-470.75860595703125
-467.32733154296875
-465.9340515136719
-466.23883056640625
-466.4820556640625
-468.8822937011719
-470.8428039550781
-470.98773193359375
-470.7162170410156
-470.4578552246094
-470.6867980957031
-471.1124572753906
-471.5758056640625
-471.8928527832031
-472.2935791015625
-472.7384033203125
-472.8335266113281
-473.57659912109375
-473.80950927734375
-474.1984558105469
-474.5458679199219
-474.85546875
-472.9209899902344
-468.9856262207031
-466.6682434082031
-465.1885681152344
-466.28143310546875
-467.3368225097656
-469.6534729003906
-470.9200744628906
-471.12701416015625
-470.94384765625
-470.7707824707031
-470.92193603515625
-471.4761047363281
-472.095458984375
-473.0340270996094
-473.3472900390625
-473.68658447265625
-473.98455810546875
-473.98016357421875
-474.2665100097656
-472.4403381347656
-472.0825500488281
-471.6241455078125
-471.0820007324219
-469.0212707519531
-466.922607421875
-465.8450927734375
-465.6329650878906
-467.3687438964844
-469.41290283203125
-470.7712707519531
-470.7862854003906
-470.73162841796875
-471.45263671875
-472.829345703125
-473.20355224609375
-473.7611389160156
-473.9820251464844
-474.48675537109375
-472.66741943359375
-472.4463806152344
-471.1756286621094
-469.4224853515625
-466.65594482421875
-466.24090576171875
-466.4972839355469
-466.7013854980469
-468.5781555175781
-469.368408203125
-469.41265869140625
-469.6473083496094
-470.041015625
-470.5751037597656
-470.9267883300781
-472.0802001953125
-472.2740173339844
-472.55352783203125
-472.6951904296875
-472.980712890625
-473.26513671875
-473.50262451171875
-473.7412414550781
-474.2283020019531
-474.4900817871094
-473.72998046875
-470.3294372558594
-466.5592956542969
-465.5325012207031
-465.89288330078125
-468.02099609375
-468.6519470214844
-470.1650390625
-469.8804931640625
-469.9161376953125
-469.83013916015625
-469.8952331542969
-470.20501708984375
-470.5672912597656
-471.4711608886719
-471.9514465332031
-472.2002258300781
-472.39459228515625
-472.68743896484375
-472.92047119140625
-473.09991455078125
-473.3338928222656
-473.6393127441406
-473.92437744140625
-474.35894775390625
-474.6924133300781
-474.0241394042969
-471.4009704589844
-467.1433410644531
-465.2613830566406
-465.09796142578125
-464.6764831542969
-467.44525146484375
-468.7940979003906
-469.71728515625
-469.9775390625
-469.9764709472656
-470.11138916015625
-470.36480712890625
-470.6973571777344
-471.5992126464844
-471.99609375
-472.4312744140625
-472.7301330566406
-473.0825500488281
-473.2085876464844
-473.4268798828125
-473.8163757324219
-474.03717041015625
-474.34832763671875
-473.9111633300781
-473.51910400390625
-471.7434387207031
-471.02978515625
-468.5982971191406
-465.08331298828125
-464.0732116699219
-463.480712890625
-465.8974304199219
-468.1156921386719
-469.5918273925781
-471.1837158203125
-471.141845703125
-470.1308898925781
-470.3304748535156
-470.6916809082031
-471.1147766113281
-471.4026184082031
-471.860107421875
-471.9640197753906
-472.096435546875
-472.227783203125
-472.4762268066406
-472.9774475097656
-473.3282165527344
-473.51556396484375
-472.5073547363281
-470.5541687011719
-469.3203125
-469.21270751953125
-469.688232421875
-469.52239990234375
-470.52044677734375
-471.04498291015625
-470.9330749511719
-470.6838073730469
-470.48992919921875
-470.7681884765625
-471.1942138671875
-471.5244445800781
-471.90081787109375
-472.29742431640625
-472.4975891113281
-472.616943359375
-472.83062744140625
-472.9806213378906
-473.1860046386719
-473.3096618652344
-472.94085693359375
-471.1363830566406
-469.44085693359375
-468.75933837890625
-469.0110168457031
-468.7386169433594
-468.9859619140625
-469.3458251953125
-470.3354187011719
-470.1777038574219
-470.11029052734375
-470.08233642578125
-470.2528991699219
-470.6326599121094
-471.113525390625
-471.4591369628906
-471.7808837890625
-471.9888000488281
-472.0675964355469
-472.24237060546875
-472.5497131347656
-472.8342590332031
-473.0839538574219
-472.5079040527344
-470.6505126953125
-468.94183349609375
-468.5746154785156
-468.2536926269531
-468.3993835449219
-468.468994140625
-468.8007507324219
-469.09796142578125
-468.9879150390625
-469.53082275390625
-469.7359924316406
-470.0308532714844
-470.283935546875
-470.52471923828125
-470.9432373046875
-471.244873046875
-471.53955078125
-471.59527587890625
-471.8975524902344
-472.112548828125
-472.2903137207031
-472.70806884765625
-472.8564758300781
-471.7144775390625
-469.5013122558594
-468.2506103515625
-468.13568115234375
-467.80328369140625
-467.8565673828125
-467.8928527832031
-468.2102355957031
-468.4525451660156
-468.3403015136719
-468.3380126953125
-468.4240417480469
-469.3013916015625
-470.5921936035156
-470.8966064453125
-471.0298767089844
-471.22747802734375
-471.4154052734375
-471.5962829589844
-471.7740783691406
-472.1435241699219
-472.619140625
-472.9495849609375
-472.49554443359375
-470.3805847167969
-468.4290466308594
-467.75140380859375
-467.2365417480469
-467.4498596191406
-467.37591552734375
-467.521240234375
-467.9067077636719
-468.0386962890625
-468.0011291503906
-467.9264221191406
-468.2373962402344
-468.7027893066406
-469.0149841308594
-469.4427185058594
-470.28155517578125
-470.6120910644531
-470.8628234863281
-471.0535583496094
-471.29901123046875
-471.546142578125
-471.778564453125
-472.0317687988281
-472.38519287109375
-472.86260986328125
-472.9698486328125
-472.0567626953125
-469.6983947753906
-468.036376953125
-467.6607666015625
-467.4592590332031
-467.66790771484375
-467.6553039550781
-467.8960266113281
-468.2460021972656
-468.5147705078125
-468.60260009765625
-468.80096435546875
-469.199462890625
-469.5744323730469
-470.53497314453125
-470.9808044433594
-471.35302734375
-471.634521484375
-471.7722473144531
-472.034423828125
-472.3789367675781
-472.67254638671875
-472.9486999511719
-473.1924133300781
-473.4798889160156
-473.8819885253906
-474.1923522949219
-474.2752990722656
-471.9947509765625
-467.3727111816406
-464.978271484375
-463.30126953125
-462.9570007324219
-465.8741760253906
-468.599365234375
-469.4810791015625
-470.48028564453125
-470.61138916015625
-471.0462646484375
-470.5718688964844
-470.8298645019531
-471.1933898925781
-471.040283203125
-471.3427734375
-471.6680908203125
-471.8994140625
-472.1535339355469
-472.3919677734375
-472.6933898925781
-472.8772888183594
-473.2134094238281
-473.5863037109375
-473.9099426269531
-474.2225341796875
-474.55206298828125
-473.0550842285156
-468.6199035644531
-464.4559631347656
-463.8496398925781
-464.7861633300781
-466.4109802246094
-469.2968444824219
-470.2964782714844
-470.63031005859375
-471.221923828125
-471.069091796875
-471.25164794921875
-471.4995422363281
-471.8022766113281
-472.14117431640625
-472.4036560058594
-472.6833801269531
-472.92205810546875
-473.1612854003906
-473.4895935058594
-473.6528015136719
-473.90509033203125
-474.2300720214844
-474.48138427734375
-474.1291198730469
-473.11041259765625
-471.4341125488281
-471.0487365722656
-468.8822937011719
-466.4425048828125
-464.6864318847656
-464.21630859375
-463.9692687988281
-466.3625793457031
-468.7565612792969
-471.1757507324219
-470.837890625
-471.2745666503906
-471.0419616699219
-471.09124755859375
-471.30609130859375
-471.8244934082031
-472.25274658203125
-472.6170349121094
-473.01318359375
-473.3633117675781
-473.50238037109375
-473.7000732421875
-473.8817443847656
-474.09832763671875
-474.3013610839844
-473.84808349609375
-473.46966552734375
-471.807861328125
-471.3914794921875
-469.2822570800781
-466.4179382324219
-464.7147216796875
-464.323486328125
-464.2552795410156
-467.41192626953125
-468.4961853027344
-471.598388671875
-471.7305603027344
-472.0090637207031
-471.7457580566406
-471.7613220214844
-472.1435852050781
-472.54315185546875
-472.87139892578125
-473.2729187011719
-473.5471496582031
-473.6352844238281
-473.71612548828125
-473.8088073730469
-473.834228515625
-472.7170104980469
-470.9721374511719
-470.98724365234375
-467.6181945800781
-465.60552978515625
-464.5707092285156
-464.6335144042969
-466.59185791015625
-471.67413330078125
-471.46221923828125
-471.9569091796875
-471.38232421875
-471.24371337890625
-472.0400390625
-472.7670593261719
-473.1532897949219
-473.6093444824219
-473.568115234375
-474.0264892578125
-474.1382141113281
-469.697998046875
-466.1763916015625
-465.7615966796875
-468.2188720703125
-470.9691162109375
-471.0106506347656
-470.4568786621094
-470.46697998046875
-471.20159912109375
-471.91259765625
-472.0803527832031
-472.2524108886719
-472.4986572265625
-472.7358703613281
-472.3982849121094
-470.5704650878906
-468.63775634765625
-468.0030212402344
-467.5135192871094
-467.9425354003906
-468.111083984375
-468.4581604003906
-468.4603576660156
-468.195068359375
-468.1610107421875
-468.4405822753906
-468.8193054199219
-469.10791015625
-469.4907531738281
-469.78399658203125
-470.65093994140625
-470.9007873535156
-470.9076843261719
-471.20843505859375
-471.51666259765625
-471.49578857421875
-470.0460510253906
-466.6880187988281
-466.0647888183594
-466.3838195800781
-466.4354553222656
-469.2328796386719
-469.5611572265625
-471.1774597167969
-471.0788879394531
-471.0616760253906
-471.3085021972656
-471.640625
-472.0645446777344
-472.982666015625
-473.30419921875
-473.5594482421875
-473.76727294921875
-473.9636535644531
-474.4110107421875
-473.1784362792969
-471.443359375
-471.077392578125
-470.1795654296875
-468.2689514160156
-466.2809753417969
-465.40301513671875
-466.5831298828125
-469.3643493652344
-470.4737548828125
-470.58770751953125
-470.5080261230469
-471.2702941894531
-471.66900634765625
-473.0745849609375
-473.4692077636719
-473.8189697265625
-474.2229919433594
-474.7348327636719
-472.2945556640625
-471.26300048828125
-471.3146667480469
-471.41656494140625
-467.61090087890625
-466.2530517578125
-465.828857421875
-467.2716369628906
-467.99847412109375
-469.81243896484375
-471.4941711425781
-472.165283203125
-472.3329772949219
-472.691650390625
-473.10223388671875
-473.440185546875
-473.97503662109375
-474.2921447753906
-474.60980224609375
-474.7966003417969
-472.1579284667969
-471.108642578125
-471.4367370605469
-470.9737243652344
-471.24505615234375
-471.9707336425781
-472.2846984863281
-471.6348876953125
-469.4079895019531
-467.516357421875
-466.9584045410156
-466.5588073730469
-466.8299255371094
-466.8959045410156
-467.13262939453125
-467.5004577636719
-467.6627197265625
-467.6969299316406
-467.6837463378906
-468.0352783203125
-468.58331298828125
-469.0730895996094
-470.0745544433594
-470.4169921875
-470.67987060546875
-470.95245361328125
-471.097412109375
-471.411376953125
-471.644775390625
-471.8608703613281
-472.2401123046875
-472.5157165527344
-472.78271484375
-473.1545715332031
-473.3283386230469
-473.0196533203125
-471.1412658691406
-469.0719299316406
-468.4392395019531
-468.79962158203125
-469.18121337890625
-469.4104309082031
-469.6993713378906
-470.17144775390625
-470.0715637207031
-469.897705078125
-469.8912353515625
-470.28131103515625
-470.7681884765625
-471.12615966796875
-471.4195251464844
-471.8176574707031
-472.09295654296875
-472.280517578125
-472.45782470703125
-472.51312255859375
-472.6949768066406
-473.0315246582031
-473.3542785644531
-473.49407958984375
-472.84820556640625
-470.908203125
-469.4223327636719
-469.296630859375
-469.82928466796875
-470.1163330078125
-470.4585876464844
-470.98583984375
-471.1641540527344
-470.7252502441406
-471.04833984375
-471.3962097167969
-471.8407287597656
-472.34613037109375
-472.64013671875
-472.8608703613281
-473.0877685546875
-473.19134521484375
-473.32525634765625
-473.5741882324219
-473.9895935058594
-474.34698486328125
-470.69586181640625
-467.929931640625
-464.9145202636719
-464.97003173828125
-466.7757568359375
-469.0986633300781
-470.6642761230469
-471.7447509765625
-471.7362976074219
-471.53509521484375
-471.3738708496094
-471.6626281738281
-472.080810546875
-472.41259765625
-472.9366760253906
-473.2510070800781
-473.4112548828125
-473.5928649902344
-473.7501220703125
-473.9354553222656
-474.1866149902344
-472.9676208496094
-471.2733154296875
-471.5814208984375
-469.08050537109375
-467.08209228515625
-465.0325927734375
-464.32928466796875
-463.95672607421875
-466.93402099609375
-468.9877624511719
-469.87872314453125
-471.02801513671875
-471.02191162109375
-471.45458984375
-471.524658203125
-471.70770263671875
-472.11883544921875
-472.5567932128906
-472.8812255859375
-473.1533203125
-473.32574462890625
-473.6002197265625
-473.81866455078125
-473.951171875
-474.0723876953125
-473.67828369140625
-472.66131591796875
-471.587646484375
-471.2626953125
-470.0707092285156
-467.6316833496094
-465.61895751953125
-464.9462890625
-464.62200927734375
-466.3080139160156
-468.3323669433594
-469.111572265625
-470.1220397949219
-470.22515869140625
-470.08673095703125
-470.67706298828125
-470.3212585449219
-471.33587646484375
-471.76971435546875
-472.0648498535156
-472.3403625488281
-472.6769104003906
-472.9429626464844
-473.06695556640625
-473.2879638671875
-473.4543762207031
-473.67352294921875
-473.8492736816406
-474.05682373046875
-474.447265625
-474.03076171875
-472.4444274902344
-468.43359375
-466.0780334472656
-464.32525634765625
-464.38055419921875
-466.4973449707031
-467.876708984375
-468.613525390625
-468.9425048828125
-469.17999267578125
-469.0204772949219
-469.06573486328125
-469.2104187011719
-469.6261901855469
-470.0528869628906
-470.3448791503906
-470.81488037109375
-471.71453857421875
-472.036376953125
-472.1772766113281
-472.328857421875
-472.5517578125
-472.8067626953125
-473.09136962890625
-473.277099609375
-473.53131103515625
-473.9913024902344
-474.3407897949219
-473.74700927734375
-470.6993713378906
-467.21807861328125
-465.0167236328125
-464.5089111328125
-464.76519775390625
-467.5242614746094
-468.3497009277344
-470.8580322265625
-471.65899658203125
-471.47967529296875
-472.2100830078125
-472.33349609375
-472.7901611328125
-473.2479553222656
-473.6216735839844
-473.91168212890625
-474.0926208496094
-474.53131103515625
-472.9120178222656
-472.5005187988281
-471.95782470703125
-471.6587829589844
-471.18182373046875
-470.1371765136719
-469.7220764160156
-470.1121520996094
-470.33343505859375
-469.4554443359375
-467.1192321777344
-465.3086242675781
-464.93035888671875
-464.6444091796875
-468.3146057128906
-469.1597900390625
-471.5296325683594
-471.73089599609375
-470.7749328613281
-470.7311706542969
-470.79974365234375
-471.05633544921875
-471.4106140136719
-471.7767333984375
-472.1197814941406
-472.5124206542969
-472.73455810546875
-472.9090881347656
-473.0157775878906
-473.03448486328125
-473.3326110839844
-473.53826904296875
-473.8829345703125
-474.15069580078125
-474.09576416015625
-471.0367431640625
-469.0828552246094
-466.9212951660156
-467.05291748046875
-467.0321960449219
-467.4118957519531
-468.119140625
-468.5697937011719
-468.2661437988281
-468.2167053222656
-468.6434020996094
-469.10980224609375
-469.6055908203125
-469.94049072265625
-470.27081298828125
-470.3802185058594
-470.5909118652344
-470.7145690917969
-470.9428405761719
-471.26007080078125
-471.6623840332031
-471.4244384765625
-469.8739929199219
-467.9744873046875
-467.3711242675781
-466.97393798828125
-467.29034423828125
-467.5521545410156
-467.9418029785156
-468.297607421875
-468.7324523925781
-468.6386413574219
-468.78082275390625
-469.0304870605469
-469.5393981933594
-469.935302734375
-470.2205505371094
-470.6587829589844
-470.93524169921875
-471.0682373046875
-471.16259765625
-471.4050598144531
-471.6805725097656
-471.99151611328125
-471.8800048828125
-470.193359375
-468.0775146484375
-467.1922912597656
-467.189697265625
-466.9444885253906
-467.0789794921875
-467.3419494628906
-467.68438720703125
-467.8376159667969
-468.3280944824219
-468.30853271484375
-468.63922119140625
-469.10882568359375
-469.45849609375
-469.8028564453125
-470.0794677734375
-470.3272705078125
-470.6708984375
-470.7291564941406
-470.84625244140625
-471.1153259277344
-471.4144592285156
-471.7020263671875
-471.6081237792969
-469.9008483886719
-467.69036865234375
-466.59442138671875
-466.04595947265625
-466.40570068359375
-466.5315856933594
-467.97216796875
-469.1098327636719
-469.2431335449219
-469.16058349609375
-469.2037353515625
-469.47735595703125
-469.7328186035156
-470.1455383300781
-470.4156494140625
-470.74273681640625
-471.5737609863281
-471.7437744140625
-471.9180603027344
-472.1235046386719
-472.3743591308594
-472.60369873046875
-472.8328857421875
-473.1370544433594
-473.526123046875
-473.79644775390625
-473.0029602050781
-470.7568359375
-468.3470458984375
-467.875732421875
-467.31671142578125
-466.8241271972656
-466.6339416503906
-466.7928161621094
-467.1239929199219
-467.0980529785156
-466.9945983886719
-467.08154296875
-467.4272155761719
-467.8132019042969
-468.1114196777344
-468.53717041015625
-469.4462585449219
-469.75408935546875
-469.9591064453125
-470.12884521484375
-470.3071594238281
-470.631591796875
-470.8074951171875
-471.06561279296875
-471.2976379394531
-471.7151794433594
-471.9579772949219
-470.1944274902344
-467.7548522949219
-465.7743225097656
-466.0285339355469
-466.1066589355469
-467.45111083984375
-468.4804382324219
-470.1064758300781
-471.4919738769531
-471.417236328125
-472.1018981933594
-472.3775329589844
-472.791015625
-473.2405090332031
-473.59747314453125
-473.8060607910156
-473.96942138671875
-474.18048095703125
-474.4882507324219
-473.26226806640625
-471.4542236328125
-471.08636474609375
-470.7580261230469
-470.96759033203125
-471.1651611328125
-471.57940673828125
-471.5557556152344
-469.8463134765625
-467.3547058105469
-466.3706359863281
-465.76513671875
-466.01654052734375
-467.6414794921875
-468.291015625
-470.1779479980469
-471.047607421875
-470.8887634277344
-470.9812927246094
-471.2919006347656
-471.5094299316406
-471.99945068359375
-473.0047607421875
-473.31817626953125
-473.53741455078125
-473.8112487792969
-473.9555358886719
-474.11474609375
-474.3150939941406
-472.5746765136719
-472.1632995605469
-471.4642639160156
-469.59576416015625
-465.9668273925781
-464.49951171875
-468.64630126953125
-471.1996765136719
-472.0657043457031
-471.6660461425781
-471.9765930175781
-472.6682434082031
-473.07928466796875
-473.7559814453125
-473.9539794921875
-474.2049865722656
-472.4841003417969
-472.09136962890625
-470.7061462402344
-467.77227783203125
-464.3448791503906
-464.0782470703125
-468.03216552734375
-469.0231628417969
-471.8076171875
-470.9643249511719
-470.7562561035156
-470.6595458984375
-471.0530700683594
-471.3849792480469
-471.9710693359375
-472.45318603515625
-472.7982177734375
-473.0989074707031
-473.25848388671875
-473.4161376953125
-473.6038818359375
-473.8697509765625
-474.2213134765625
-474.1653747558594
-472.59918212890625
-468.9869079589844
-467.1457214355469
-466.4664611816406
-466.2753601074219
-466.41802978515625
-467.9672546386719
-469.012939453125
-469.8785705566406
-469.6695861816406
-469.6608581542969
-469.9196472167969
-470.3350524902344
-470.6058349609375
-471.561767578125
-471.959716796875
-472.34722900390625
-472.6114196777344
-472.90863037109375
-472.9217224121094
-473.123046875
-473.4234619140625
-473.7817687988281
-473.6662902832031
-471.9141540527344
-469.7703552246094
-468.7355041503906
-468.186767578125
-468.5355529785156
-468.63873291015625
-468.6653747558594
-468.99151611328125
-469.2663269042969
-469.1900939941406
-469.0714111328125
-469.1780090332031
-469.5944519042969
-470.40008544921875
-470.7505798339844
-471.6424865722656
-471.73992919921875
-472.00048828125
-472.1204833984375
-472.3687744140625
-472.6832580566406
-472.9709777832031
-473.3721618652344
-473.0289001464844
-471.0489807128906
-468.84210205078125
-467.9602355957031
-467.5068054199219
-467.72607421875
-467.6089172363281
-467.7432861328125
-468.2494812011719
-468.40142822265625
-468.25555419921875
-468.22259521484375
-468.4718017578125
-468.85626220703125
-469.17633056640625
-469.63165283203125
-469.95025634765625
-470.1401062011719
-470.3442687988281
-470.5230407714844
-471.2886962890625
-471.4839172363281
-471.74505615234375
-471.9664306640625
-472.4002685546875
-472.7611083984375
-472.27764892578125
-470.12725830078125
-467.8406982421875
-466.4740295410156
-466.5744934082031
-466.7940368652344
-466.72564697265625
-466.77642822265625
-467.2642822265625
-467.4478454589844
-467.19305419921875
-467.2093811035156
-467.6201171875
-467.9862976074219
-468.4687194824219
-468.7485656738281
-469.1177978515625
-469.38031005859375
-469.4903259277344
-469.5752868652344
-469.8085021972656
-470.0826721191406
-470.30865478515625
-470.5683288574219
-471.378173828125
-471.7962341308594
-472.27392578125
-472.17462158203125
-470.29364013671875
-467.84246826171875
-466.14678955078125
-465.9600830078125
-466.236572265625
-469.09613037109375
-469.0139465332031
-470.6642150878906
-470.8048095703125
-470.7994079589844
-470.76519775390625
-470.9032287597656
-471.1672668457031
-471.5924072265625
-471.9902648925781
-472.4483642578125
-472.809326171875
-473.01678466796875
-473.2726135253906
-473.5079345703125
-473.6868896484375
-474.03253173828125
-474.2056884765625
-475.2003173828125
-474.2633056640625
-473.2208557128906
-471.33575439453125
-469.4927673339844
-466.3958740234375
-464.90032958984375
-463.9687194824219
-464.3135986328125
-466.014892578125
-468.1711730957031
-469.8802795410156
-470.92431640625
-470.8143005371094
-470.6628112792969
-470.13714599609375
-470.4949951171875
-470.84173583984375
-471.1847229003906
-471.58392333984375
-471.9258728027344
-472.1746826171875
-472.2107238769531
-472.50555419921875
-472.54412841796875
-472.9674987792969
-473.935791015625
-474.27056884765625
-474.5243225097656
-472.53717041015625
-468.48651123046875
-466.18414306640625
-465.2511901855469
-465.7981262207031
-466.9581604003906
-469.4554443359375
-470.7591247558594
-471.59747314453125
-471.2160339355469
-470.9453430175781
-471.23211669921875
-471.5980529785156
-472.0437927246094
-472.4044189453125
-472.8035583496094
-473.0952453613281
-473.83673095703125
-474.0114440917969
-474.2073059082031
-474.39068603515625
-473.4149475097656
-471.288818359375
-469.18194580078125
-467.3025207519531
-466.3606262207031
-465.8757019042969
-466.3974609375
-467.3440856933594
-469.8899841308594
-470.39398193359375
-470.4007873535156
-470.1974182128906
-470.18743896484375
-470.4368896484375
-470.9163513183594
-471.32049560546875
-471.8315734863281
-472.1557922363281
-473.03424072265625
-473.1585693359375
-473.28485107421875
-473.55419921875
-473.83331298828125
-474.1321716308594
-473.4718017578125
-471.41961669921875
-467.5691223144531
-466.0184631347656
-466.4189453125
-466.7395935058594
-469.6087341308594
-469.9833679199219
-470.9671630859375
-470.8419494628906
-470.7267150878906
-470.91357421875
-471.3409423828125
-471.759033203125
-472.20623779296875
-473.06402587890625
-473.4312744140625
-473.6813049316406
-473.86468505859375
-474.1525573730469
-474.27410888671875
-474.587158203125
-472.7649230957031
-470.9796142578125
-468.16552734375
-465.650390625
-465.0268859863281
-464.5429382324219
-466.1529235839844
-467.6766052246094
-469.9615478515625
-471.052001953125
-471.0689697265625
-470.9936828613281
-471.0688171386719
-471.3231201171875
-471.7669372558594
-472.1483459472656
-472.4902038574219
-472.9327087402344
-473.1747741699219
-473.9720458984375
-474.07415771484375
-474.2525939941406
-473.78948974609375
-473.3556823730469
-471.49322509765625
-471.0600280761719
-470.1973876953125
-467.2108154296875
-465.4634704589844
-464.4312744140625
-464.664794921875
-466.26361083984375
-468.312744140625
-470.046142578125
-471.0478210449219
-471.08642578125
-470.9269104003906
-470.35113525390625
-470.6304016113281
-471.0609130859375
-471.478271484375
-471.8510437011719
-472.0804443359375
-472.3683776855469
-472.60528564453125
-472.80242919921875
-473.4585876464844
-473.8612060546875
-474.0518493652344
-474.2542724609375
-474.53350830078125
-473.5121765136719
-471.41241455078125
-468.92919921875
-466.3968505859375
-464.51336669921875
-464.52984619140625
-464.7095031738281
-466.2224426269531
-468.30712890625
-469.40777587890625
-471.07086181640625
-470.96844482421875
-470.8817138671875
-471.05816650390625
-471.4302978515625
-471.849853515625
-472.3456115722656
-472.6236267089844
-472.8630676269531
-473.2596740722656
-473.58868408203125
-473.8011779785156
-473.9871520996094
-474.8397216796875
-473.71307373046875
-472.5495910644531
-470.7356872558594
-470.4318542480469
-470.5468444824219
-468.6219177246094
-466.2442932128906
-464.4103088378906
-464.5355224609375
-466.2131042480469
-468.5192565917969
-469.3027648925781
-471.0326843261719
-471.198974609375
-471.1084289550781
-471.1778869628906
-471.4758605957031
-471.9093322753906
-472.4016418457031
-472.8164367675781
-473.1615295410156
-473.4946594238281
-473.7620544433594
-474.03125
-474.24859619140625
-474.9429626464844
-473.8603210449219
-472.7463073730469
-470.94952392578125
-470.5098876953125
-470.9849853515625
-470.9624938964844
-469.4621276855469
-467.1041259765625
-465.9333190917969
-465.4237365722656
-465.8807373046875
-466.84100341796875
-470.4367370605469
-470.8047790527344
-470.6747131347656
-470.95947265625
-471.56475830078125
-472.09906005859375
-472.8428955078125
-473.67462158203125
-473.7095947265625
-474.087890625
-474.510498046875
-474.9190979003906
-473.69921875
-467.79071044921875
-465.8572692871094
-465.7183532714844
-468.057861328125
-470.6069641113281
-471.88079833984375
-471.8721923828125
-472.133056640625
-472.26812744140625
-472.64019775390625
-473.16949462890625
-473.5103759765625
-474.3519287109375
-474.51007080078125
-474.66473388671875
-470.9466857910156
-471.2961730957031
-470.6415100097656
-469.3241882324219
-467.1206359863281
-465.9096984863281
-465.34625244140625
-465.7975769042969
-467.41162109375
-468.28485107421875
-470.1986083984375
-471.77886962890625
-471.5402526855469
-471.9645690917969
-472.1811218261719
-472.6727600097656
-473.1003112792969
-473.4641418457031
-473.9508361816406
-474.2979736328125
-474.5294494628906
-474.625244140625
-471.9866943359375
-470.9066162109375
-471.2845153808594
-470.8948669433594
-470.5328063964844
-468.4187316894531
-466.25567626953125
-465.33013916015625
-464.88916015625
-466.65557861328125
-468.779052734375
-470.410400390625
-470.6691589355469
-470.84130859375
-470.72509765625
-470.6961364746094
-470.9499816894531
-471.4949951171875
-471.9374084472656
-472.2560119628906
-472.5535888671875
-472.7552795410156
-473.0744323730469
-473.82086181640625
-473.98681640625
-474.18292236328125
-474.3185119628906
-474.6672058105469
-473.7147216796875
-471.31768798828125
-468.37689208984375
-465.5830383300781
-464.6961669921875
-464.17877197265625
-465.6592102050781
-467.6900634765625
-469.2754211425781
-469.5714111328125
-469.69189453125
-469.58355712890625
-469.5792236328125
-469.77618408203125
-470.1539611816406
-470.60906982421875
-471.0429382324219
-471.42657470703125
-471.748779296875
-471.8685607910156
-472.15631103515625
-472.39630126953125
-472.5801086425781
-472.82244873046875
-473.6728515625
-473.9997253417969
-474.3174743652344
-473.922119140625
-470.87164306640625
-466.5937194824219
-464.7046813964844
-464.7572326660156
-464.88592529296875
-467.6347351074219
-468.4252014160156
-470.1297302246094
-470.2794494628906
-470.1325378417969
-470.21685791015625
-470.39825439453125
-470.75634765625
-471.2103271484375
-471.5533752441406
-471.8857727050781
-472.1371765136719
-472.50335693359375
-472.7669372558594
-472.8953552246094
-473.1121826171875
-473.4010314941406
-473.7380065917969
-474.05706787109375
-474.4169616699219
-475.1896667480469
-473.1828308105469
-469.41314697265625
-465.88568115234375
-463.9258728027344
-464.0928955078125
-467.0224304199219
-467.7093200683594
-469.3015441894531
-470.4246826171875
-470.4823913574219
-470.29241943359375
-470.2763366699219
-470.49969482421875
-471.0592041015625
-471.4364318847656
-471.98638916015625
-472.3212890625
-472.9142761230469
-473.10595703125
-473.4566345214844
-473.7593994140625
-474.17095947265625
-475.53106689453125
-474.17718505859375
-466.7255554199219
-463.61737060546875
-464.7318115234375
-468.6737060546875
-471.4237365722656
-470.7479248046875
-470.2797546386719
-470.474365234375
-471.3302917480469
-471.9114990234375
-472.6001892089844
-472.7706604003906
-473.1131591796875
-473.2530212402344
-473.7333068847656
-474.2303466796875
-473.76043701171875
-470.3269958496094
-467.2343444824219
-467.8461608886719
-469.6175842285156
-470.08917236328125
-470.59393310546875
-470.511962890625
-470.22979736328125
-470.0915222167969
-470.113525390625
-470.96527099609375
-471.3039245605469
-471.5983581542969
-471.9530944824219
-472.1746826171875
-472.2696228027344
-472.414794921875
-472.7766418457031
-473.10223388671875
-472.814453125
-470.7058410644531
-468.7550354003906
-468.6048889160156
-469.01611328125
-469.3179931640625
-469.6854248046875
-470.0973205566406
-470.1614074707031
-470.0152587890625
-469.8132629394531
-470.0226745605469
-470.46343994140625
-470.9294128417969
-471.3721923828125
-471.7396240234375
-471.9053649902344
-472.1618347167969
-472.33905029296875
-472.54345703125
-472.7601013183594
-473.1067810058594
-473.70684814453125
-472.05535888671875
-470.005615234375
-468.416015625
-468.5809326171875
-468.96246337890625
-469.08477783203125
-469.2195739746094
-469.7261657714844
-469.8591613769531
-469.6968994140625
-469.624267578125
-469.7375183105469
-470.2077331542969
-470.6421813964844
-470.9497985839844
-471.3656921386719
-471.75958251953125
-471.9930725097656
-472.1903991699219
-472.3091125488281
-472.5509948730469
-472.9507751464844
-473.259033203125
-473.60333251953125
-471.77081298828125
-469.8471374511719
-468.52838134765625
-468.6097412109375
-468.8111877441406
-468.7733459472656
-469.0124206542969
-469.3243713378906
-469.37945556640625
-469.3857421875
-469.42156982421875
-469.6578369140625
-470.0383605957031
-470.3574523925781
-470.70697021484375
-471.11090087890625
-471.2808837890625
-471.5355529785156
-471.76397705078125
-472.04412841796875
-472.288818359375
-472.6031188964844
-472.8570861816406
-473.8065490722656
-474.1249084472656
-473.485107421875
-471.2586669921875
-468.6376953125
-466.78729248046875
-467.09283447265625
-467.2749328613281
-467.3029479980469
-467.5091247558594
-467.79815673828125
-467.8329772949219
-467.6640319824219
-467.66461181640625
-468.0002746582031
-468.5576171875
-468.9168701171875
-469.32049560546875
-469.6163330078125
-470.00140380859375
-470.2998352050781
-470.5599060058594
-471.14111328125
-471.3245849609375
-472.26422119140625
-472.6459655761719
-473.0384521484375
-472.53350830078125
-470.24505615234375
-468.3561096191406
-467.02557373046875
-467.0508117675781
-467.3022155761719
-467.330322265625
-467.54345703125
-467.8621520996094
-468.0453186035156
-467.95611572265625
-467.95184326171875
-468.2281494140625
-468.6753845214844
-469.1435546875
-469.4675598144531
-469.7939453125
-470.145751953125
-470.3497314453125
-470.57037353515625
-470.7723083496094
-471.0691833496094
-471.34100341796875
-472.2284240722656
-472.65850830078125
-473.16326904296875
-473.5379333496094
-473.0542907714844
-470.9543151855469
-468.8327331542969
-468.1034240722656
-467.7583923339844
-468.1824035644531
-468.2689514160156
-468.42962646484375
-468.9668273925781
-469.1475830078125
-469.1254577636719
-469.1650695800781
-469.5751037597656
-470.0733337402344
-470.53265380859375
-470.99285888671875
-471.2881774902344
-471.6446533203125
-472.5760803222656
-472.8497009277344
-473.1053771972656
-473.2989807128906
-473.63751220703125
-473.83355712890625
-474.16107177734375
-474.5084533691406
-474.92626953125
-472.3438415527344
-470.3616027832031
-467.2747802734375
-464.462890625
-465.092041015625
-466.22784423828125
-467.2112121582031
-468.7465515136719
-470.4905700683594
-471.4677429199219
-471.24603271484375
-471.6916809082031
-471.2629699707031
-471.6331787109375
-472.1841735839844
-473.1786804199219
-473.4754943847656
-473.7775573730469
-474.1878967285156
-474.3804016113281
-474.5167236328125
-472.0466613769531
-471.52703857421875
-471.17877197265625
-470.7527160644531
-471.05706787109375
-471.4791564941406
-471.8501892089844
-471.5487060546875
-469.53106689453125
-467.38623046875
-466.40869140625
-465.98199462890625
-466.4350280761719
-468.0928649902344
-469.2115173339844
-470.2535095214844
-470.24102783203125
-470.5286560058594
-470.52886962890625
-470.7582702636719
-470.54364013671875
-471.64361572265625
-472.136474609375
-472.4443054199219
-472.72003173828125
-472.916015625
-473.1617126464844
-473.4031982421875
-473.4787902832031
-473.6296081542969
-474.0314025878906
-474.3873291015625
-474.65936279296875
-473.6966857910156
-473.1826171875
-469.92547607421875
-466.848876953125
-465.23504638671875
-464.9698181152344
-465.41241455078125
-467.9262390136719
-469.6541442871094
-470.7043762207031
-470.7503356933594
-470.8968811035156
-470.7038269042969
-470.7665100097656
-471.1325988769531
-471.58782958984375
-471.9909973144531
-472.3456726074219
-472.5826416015625
-472.7523193359375
-472.83740234375
-473.081298828125
-473.0991516113281
-473.4414978027344
-473.70794677734375
-473.9991149902344
-473.8373107910156
-471.9726257324219
-468.63946533203125
-467.9228515625
-467.5419616699219
-467.58148193359375
-468.1009216308594
-468.6865539550781
-468.9197082519531
-469.1116943359375
-468.6628723144531
-468.81646728515625
-468.9876403808594
-469.3720703125
-469.7380065917969
-470.21990966796875
-470.45452880859375
-470.7308654785156
-470.83770751953125
-470.838134765625
-471.0279541015625
-471.231201171875
-471.2303771972656
-469.5967102050781
-467.5423278808594
-466.6128234863281
-466.1060791015625
-466.542236328125
-466.95379638671875
-468.6864013671875
-469.05120849609375
-469.5807800292969
-469.10888671875
-468.87811279296875
-469.1647033691406
-469.58648681640625
-470.0319519042969
-470.3486328125
-470.6458435058594
-471.5
-471.66998291015625
-471.7907409667969
-471.98602294921875
-472.060546875
-470.8863220214844
-468.5818176269531
-467.17987060546875
-466.4256591796875
-466.69061279296875
-466.9833068847656
-469.94866943359375
-470.3497619628906
-470.6365661621094
-470.30523681640625
-470.1260070800781
-470.2756042480469
-470.60113525390625
-471.1683044433594
-471.5628356933594
-471.9403991699219
-472.05987548828125
-472.1382141113281
-472.3645324707031
-472.6640930175781
-472.7156677246094
-473.2882385253906
-472.08782958984375
-469.87701416015625
-468.0729064941406
-467.8410949707031
-468.1173095703125
-468.2451171875
-468.1165771484375
-468.4347839355469
