-31.795
-31.47796875
-51.30899739583333
-46.0189453125
-50.003671875
-45.55428385416667
-45.7749609375
-45.664765625
-43.788515625
-42.7678515625
-42.81859375
-42.8794140625
-42.924427083333335
-43.0058984375
-43.025091145833336
-43.05505208333334
-42.9448046875
-42.81953125
-42.81014322916667
-42.7958984375
-43.27858072916667
-42.64921875
-42.6226171875
-43.15188802083333
-43.17881510416667
-43.196796875
-43.21377604166667
-43.25048177083333
-43.26149739583333
-43.28942708333334
-43.30709635416667
-43.318697916666665
-43.362552083333334
-43.37647135416667
-43.36766927083333
-43.24494791666667
-43.11305989583333
-43.10108072916667
-43.07954427083333
-43.06231770833333
-43.01057291666667
-43.010234375
-43.020078125
-43.032565104166665
-43.070338541666665
-43.0548046875
-43.002265625
-43.0690234375
-43.167291666666664
-43.19776041666667
-43.1898046875
-43.205989583333334
-43.29796875
-43.343372395833335
-43.29985677083334
-43.3290625
-43.2680078125
-43.26350260416667
-43.14268229166667
-43.056888020833334
-43.08546875
-43.09765625
-43.08794270833334
-43.1480859375
-43.2039453125
-43.182369791666666
-43.21768229166667
-43.23751302083333
-43.24795572916667
-43.26623697916666
-43.308671875
-43.31330729166667
-43.318684895833336
-43.37717447916667
-43.3967578125
-43.40221354166667
-43.44380208333333
-43.43755208333334
-43.482395833333335
-43.436236979166665
-43.3274609375
-43.5075390625
-43.47399739583334
-43.4420703125
-43.482747395833336
-43.487330729166665
-43.502109375
-43.606471354166665
-43.611796875
-43.67561197916667
-43.6708984375
-43.70578125
-43.745390625
-43.730130208333335
-43.69151041666667
-43.67274739583333
-43.6878515625
-43.71669270833333
-43.737278645833335
-43.8383203125
-43.737942708333335
-43.63747395833333
-43.10946614583333
-43.21897135416667
-43.23611979166667
-43.191158854166666
-43.160885416666666
-43.1733984375
-43.28233072916667
-43.29407552083333
-43.32755208333333
-43.37518229166667
-43.39296875
-43.40286458333333
-43.426028645833334
-43.404921875
-43.28951822916667
-43.2023828125
-43.21235677083333
-43.217447916666664
-43.24298177083333
-43.270234375
-43.28368489583333
-43.24946614583333
-43.2435546875
-43.255169270833335
-43.282252604166665
-43.29083333333333
-43.28630208333333
-43.323541666666664
-43.236041666666665
-43.135768229166665
-43.0733984375
-43.030247395833335
-43.47859375
-43.56458333333333
-43.59411458333334
-43.5706640625
-43.536640625
-43.546901041666665
-43.5996484375
-43.63419270833333
-43.641002604166665
-43.6619140625
-43.71088541666666
-43.71790364583333
-43.7392578125
-43.70747395833333
-43.535442708333335
-43.4534375
-43.4453125
-43.420911458333336
-43.42885416666667
-43.43467447916667
-43.45109375
-43.531809895833334
-43.528658854166665
-43.5246875
-43.44677083333333
-43.439388020833334
-43.48140625
-43.606953125
-43.650052083333335
-43.673046875
-43.5911328125
-43.542682291666665
-43.41610677083333
-43.28920572916667
-43.301471354166665
-43.29278645833333
-43.436901041666665
-43.461927083333336
-43.452877604166666
-43.449296875
-43.483776041666665
-43.5025
-43.522760416666664
-43.560169270833335
-43.5693359375
-43.57638020833333
-43.600559895833335
-43.61270833333333
-43.61604166666667
-43.5874609375
-43.33868489583333
-43.21563802083333
-43.20200520833333
-43.2206640625
-43.197916666666664
-43.221002604166664
-43.36385416666667
-43.36434895833333
-43.41947916666667
-43.43216145833333
-43.425364583333334
-43.467174479166665
-43.501315104166665
-43.57860677083333
-43.63848958333333
-43.62127604166667
-43.64307291666667
-43.67768229166666
-43.70157552083333
-43.5717578125
-43.41912760416667
-43.35048177083333
-43.3458984375
-43.339908854166666
-43.341809895833336
-43.36015625
-43.38848958333333
-43.396783854166664
-43.38036458333333
-43.385755208333336
-43.39578125
-43.41467447916666
-43.41876302083333
-43.441419270833336
-43.441731770833336
-43.49522135416667
-43.510494791666666
-43.53438802083333
-43.5421484375
-43.54381510416667
-43.4696875
-43.374583333333334
-43.351002604166666
-43.3530859375
-43.33018229166667
-43.351171875
-43.377421875
-43.367122395833334
-43.3404296875
-43.330716145833335
-43.3659375
-43.3827734375
-43.3753125
-43.398424479166664
-43.41611979166667
-43.429309895833335
-43.441419270833336
-43.4702734375
-43.41920572916667
-43.25919270833333
-43.14985677083333
-43.10209635416667
-43.1294140625
-43.17485677083334
-43.169505208333334
-43.161770833333335
-43.15118489583333
-43.13263020833333
-43.11657552083334
-43.23619791666667
-43.8167578125
-43.71989583333333
-43.797565104166665
-43.84791666666667
-43.95463541666667
-43.995494791666665
-43.98259114583333
-43.966067708333334
-43.910442708333335
-43.128216145833335
-43.16940104166667
-43.171184895833335
-43.608333333333334
-43.500390625
-43.516354166666666
-43.67845052083333
-43.742109375
-43.72140625
-43.7146484375
-43.761484375
-43.787799479166665
-43.794908854166664
-43.827421875
-43.87623697916667
-43.8988671875
-43.960690104166666
-43.994388020833334
-44.01125
-44.00477864583333
-43.855625
-43.709674479166665
-43.621028645833334
-43.59268229166667
-43.59752604166667
-43.61666666666667
-43.6409375
-43.62700520833334
-43.64505208333333
-43.65084635416667
-43.68354166666666
-43.705416666666665
-43.79626302083334
-43.823828125
-43.87578125
-43.899427083333336
-43.91390625
-43.95
-43.9936328125
-44.0122265625
-44.046197916666664
-44.0790625
-43.991510416666664
-43.279947916666664
-43.21475260416667
-43.160846354166665
-43.72897135416667
-43.554375
-43.550182291666665
-43.58544270833333
-43.751315104166665
-43.79837239583333
-43.777669270833336
-43.80848958333333
-43.864270833333336
-43.887317708333335
-43.89213541666667
-43.91291666666667
-43.920221354166664
-43.96759114583333
-43.9846875
-44.00083333333333
-44.0278515625
-44.03928385416667
-43.96764322916667
-43.768984375
-43.09845052083333
-43.1473828125
-43.152942708333335
-43.747395833333336
-44.282200520833335
-44.389947916666664
-44.433567708333335
-44.4079296875
-44.4097265625
-44.417669270833336
-44.44921875
-44.4774609375
-44.515325520833336
-44.5526171875
-44.5587890625
-44.601145833333334
-44.628841145833334
-44.651666666666664
-44.64373697916667
-44.537083333333335
-44.39799479166667
-44.34020833333334
-44.312526041666665
-44.31921875
-44.3394921875
-44.37625
-44.37283854166667
-44.350338541666666
-44.360911458333334
-44.3478125
-44.36545572916667
-44.399440104166665
-44.42725260416667
-44.45880208333333
-44.52326822916667
-44.53102864583333
-44.54579427083333
-44.5832421875
-44.583958333333335
-44.54701822916667
-44.407421875
-44.26
-44.2180859375
-44.20729166666667
-44.22173177083334
-44.17490885416667
-44.18803385416667
-44.199635416666666
-44.16561197916667
-44.15286458333333
-44.167317708333336
-44.182643229166665
-44.2050390625
-44.2040625
-44.23592447916667
-44.292942708333335
-44.363567708333335
-44.400091145833336
-44.4269921875
-44.48516927083333
-44.527369791666665
-44.5980078125
-44.56553385416667
-44.415768229166666
-44.30658854166666
-44.298515625
-44.313359375
-44.320377604166666
-44.27946614583333
-44.283984375
-44.235026041666664
-44.245625
-44.3172265625
-44.326471354166664
-44.37252604166667
-44.41092447916667
-44.4752734375
-44.4936328125
-44.505234375
-44.5577734375
-44.54842447916667
-44.580859375
-44.5846875
-44.46643229166666
-44.3484765625
-44.34229166666667
-44.367786458333335
-44.3541796875
-44.382083333333334
-44.41721354166667
-44.41548177083333
-44.3709375
-44.40477864583333
-44.420247395833336
-44.488958333333336
-44.517734375
-44.54877604166666
-44.57123697916666
-44.6283203125
-44.597278645833335
-44.50333333333333
-44.37838541666667
-44.32541666666667
-44.325611979166666
-44.33708333333333
-44.3459375
-44.347057291666665
-44.35330729166667
-44.328125
-44.3054296875
-44.323658854166666
-44.36630208333333
-44.38649739583333
-44.407513020833335
-44.4455859375
-44.49716145833333
-44.540729166666665
-44.54834635416667
-44.573177083333334
-44.607734375
-44.643619791666666
-44.6490625
-44.50390625
-44.365859375
-44.311197916666664
-44.32337239583333
-44.3000390625
-44.3071484375
-44.3264453125
-44.31368489583333
-44.29604166666667
-44.2769140625
-44.32591145833333
-44.34520833333333
-44.37048177083334
-44.410182291666665
-44.44936197916667
-44.457356770833336
-44.501888020833334
-44.522760416666664
-44.53186197916666
-44.55391927083333
-44.59205729166667
-44.604557291666666
-44.477955729166666
-44.34654947916667
-44.2871484375
-44.23951822916667
-44.24559895833333
-44.25283854166667
-44.2433984375
-44.253880208333335
-44.240481770833334
-44.238125
-44.243815104166664
-44.262994791666664
-44.30678385416667
-44.343515625
-44.35364583333333
-44.39009114583333
-44.4453125
-44.4594140625
-44.47828125
-44.541171875
-44.5626171875
-44.59940104166667
-44.63375
-44.598645833333336
-44.47319010416667
-44.356419270833335
-44.32279947916667
-44.32602864583333
-44.32263020833334
-44.32802083333333
-44.355885416666666
-44.346041666666665
-44.305078125
-44.29647135416667
-44.335299479166665
-44.38830729166666
-44.41553385416667
-44.44479166666667
-44.46537760416667
-44.48791666666666
-44.525325520833334
-44.5445703125
-44.565677083333334
-44.604466145833335
-44.620091145833335
-44.535572916666666
-44.42454427083333
-44.361393229166666
-44.3650390625
-44.3703515625
-44.38748697916667
-44.3268359375
-44.3325390625
-44.3268359375
-44.361028645833336
-44.36954427083333
-44.419453125
-44.443684895833336
-44.47501302083333
-44.522434895833335
-44.521171875
-44.54026041666667
-44.56299479166667
-44.52102864583333
-44.354244791666666
-44.22608072916667
-44.21080729166667
-44.197643229166665
-44.183294270833336
-44.2005078125
-44.215572916666666
-44.198489583333334
-44.181966145833336
-44.16694010416666
-44.16161458333333
-44.1877734375
-44.226549479166664
-44.2403515625
-44.257473958333335
-44.291744791666666
-44.31671875
-44.315494791666666
-44.336927083333336
-44.365963541666666
-44.304010416666664
-44.134609375
-43.99888020833333
-43.94641927083333
-43.939075520833335
-43.905651041666665
-43.808971354166665
-43.795611979166665
-44.4134375
-44.3128515625
-44.428736979166665
-44.13342447916666
-44.449635416666666
-44.54825520833333
-44.572903645833335
-44.58243489583333
-44.612942708333335
-44.6923828125
-44.72970052083333
-44.73041666666666
-44.13841145833333
-43.740169270833334
-43.643515625
-43.49830729166667
-43.348880208333334
-43.16756510416667
-43.13911458333333
-43.665638020833335
-43.532955729166666
-43.562799479166664
-43.69873697916667
-43.724283854166664
-43.76233072916666
-43.79705729166667
-43.828450520833336
-43.8483984375
-43.87998697916667
-43.9443359375
-43.97776041666667
-43.981471354166665
-44.02734375
-44.0375390625
-44.122486979166666
-44.041171875
-43.880234375
-43.838984375
-43.857708333333335
-43.79455729166666
-43.77848958333333
-43.81100260416667
-43.845364583333335
-43.80212239583334
-43.771106770833335
-43.79546875
-43.85502604166667
-43.856028645833334
-43.89165364583334
-43.902317708333335
-43.94359375
-44.028294270833335
-44.05971354166667
-44.0816796875
-44.11244791666667
-43.447252604166664
-43.411458333333336
-43.369817708333336
-43.33151041666667
-43.807421875
-43.61209635416667
-43.646875
-43.808971354166665
-43.83578125
-43.836184895833334
-43.842526041666666
-43.89119791666667
-43.93018229166667
-43.944036458333336
-43.96986979166667
-43.996341145833334
-44.0171875
-44.0446875
-44.146171875
-44.1562109375
-44.14434895833333
-44.00842447916666
-43.26739583333333
-43.29647135416667
-43.32217447916667
-43.7403125
-43.59657552083333
-43.6273046875
-43.78697916666667
-43.820299479166664
-43.845638020833334
-43.863216145833334
-43.879947916666666
-43.903346354166665
-43.96196614583334
-43.98684895833333
-44.030625
-44.0635546875
-44.062473958333335
-44.15643229166667
-44.21140625
-44.2512890625
-43.682994791666665
-43.697682291666666
-43.53259114583334
-43.4378125
-43.24467447916667
-43.183880208333335
-43.75453125
-43.66904947916667
-43.70723958333333
-43.7313671875
-43.88454427083333
-43.929296875
-43.92860677083333
-43.95876302083333
-44.0326171875
-44.05962239583334
-44.0554296875
-44.0991015625
-44.213450520833334
-44.213190104166664
-43.63169270833333
-43.72328125
-43.62114583333334
-43.63471354166666
-43.629505208333335
-43.30819010416667
-43.25399739583333
-43.261171875
-43.26255208333333
-43.287096354166664
-43.30548177083333
-43.33700520833333
-43.3225
-43.29576822916667
-43.367890625
-43.386119791666665
-43.41578125
-43.358984375
-43.389361979166665
-43.4993359375
-43.506328125
-43.50375
-43.524114583333336
-43.5553125
-43.5792578125
-43.50639322916667
-43.384791666666665
-43.2963671875
-43.2315234375
-43.192682291666664
-43.674075520833334
-43.67787760416667
-43.664088541666665
-43.9425
-43.9502734375
-44.0065625
-44.02130208333333
-44.09486979166667
-44.196614583333336
-44.180598958333334
-44.20427083333333
-43.61408854166667
-43.66779947916667
-43.4299609375
-43.26743489583333
-43.18212239583333
-43.150234375
-43.74959635416667
-43.526380208333336
-43.528671875
-43.5681640625
-43.5640234375
-43.70037760416667
-43.742122395833334
-43.76645833333333
-43.80088541666667
-43.826497395833336
-43.862278645833335
-43.8653125
-43.930651041666664
-43.93272135416667
-43.96296875
-43.98971354166667
-44.039440104166665
-44.04505208333333
-44.017330729166666
-43.868580729166666
-43.8069921875
-43.76938802083333
-43.775729166666665
-43.672786458333334
-43.678359375
-43.667903645833334
-43.650703125
-43.620455729166665
-43.5920703125
-43.56498697916667
-43.62375
-43.703450520833336
-43.71040364583333
-43.74458333333333
-43.817005208333335
-43.8923046875
-43.89740885416666
-43.919192708333334
-43.96151041666667
-44.03942708333334
-44.09002604166667
-44.072890625
-43.92697916666667
-43.87321614583333
-43.83154947916667
-43.82111979166667
-43.776875
-43.77036458333333
-43.78430989583333
-43.78920572916667
-43.78401041666667
-43.77850260416667
-43.80227864583333
-43.89364583333333
-43.9456640625
-43.95364583333333
-43.966328125
-44.0378515625
-44.068111979166666
-44.056888020833334
-44.0432421875
-43.996158854166666
-43.82200520833333
-43.79322916666667
-43.827434895833335
-43.7580859375
-43.72971354166667
-43.773059895833335
-43.77938802083333
-43.76326822916667
-43.739817708333334
-43.751263020833335
-43.77868489583334
-43.82611979166666
-43.864322916666666
-43.874713541666665
-43.92497395833333
-43.96234375
-43.98833333333334
-44.00407552083333
-44.02264322916667
-43.930390625
-43.762890625
-43.751666666666665
-43.723697916666666
-43.646171875
-43.645572916666666
-43.663723958333335
-43.68591145833334
-43.6980078125
-43.681080729166666
-43.68337239583333
-43.7039453125
-43.7353515625
-43.74897135416666
-43.799921875
-43.84169270833333
-43.852473958333334
-43.866484375
-43.8909765625
-43.9040234375
-43.94712239583333
-43.969127604166665
-43.932682291666666
-43.82190104166666
-43.69513020833333
-43.65182291666667
-43.65022135416667
-43.612421875
-43.638958333333335
-43.649661458333334
-43.6419140625
-43.63645833333333
-43.6548828125
-43.68143229166667
-43.700234375
-43.72029947916667
-43.734752604166665
-43.756822916666664
-43.794231770833335
-43.8259375
-43.86440104166667
-43.871106770833336
-43.9184765625
-43.9252734375
-43.983020833333335
-44.022265625
-44.015338541666665
-43.84916666666667
-43.787421875
-43.74819010416667
-43.729765625
-43.575755208333334
-43.57411458333333
-43.58450520833333
-43.6365625
-43.647838541666665
-43.67604166666667
-43.70513020833334
-43.7618359375
-43.808984375
-43.865859375
-43.9373828125
-43.98263020833333
-44.04772135416667
-44.10013020833333
-44.15
-44.25569010416667
-43.66360677083333
-43.77653645833333
-43.65251302083333
-43.6818359375
-43.588541666666664
-43.3440234375
-43.219309895833334
-43.2370703125
-43.235859375
-43.8228515625
-43.683828125
-43.910846354166665
-43.985729166666665
-43.97399739583334
-43.95497395833333
-43.98197916666667
-44.043828125
-44.076848958333336
-44.086614583333336
-44.115546875
-44.231458333333336
-44.23190104166667
-43.65572916666667
-43.734375
-43.762682291666664
-43.797161458333335
-43.63169270833333
-43.5955859375
-43.594088541666665
-43.505234375
-43.355494791666665
-43.2701171875
-43.2187890625
-43.248294270833334
-43.7859375
-43.721119791666666
-43.89182291666667
-43.9569921875
-44.060533854166664
-43.9890234375
-44.02059895833333
-44.04872395833333
-44.075859375
-44.0971484375
-44.186015625
-44.183658854166666
-44.20970052083333
-44.243359375
-43.48622395833333
-43.54515625
-43.4289453125
-43.226497395833334
-43.112890625
-43.1238671875
-43.73190104166667
-43.5762890625
-43.56533854166667
-43.7914453125
-43.8535546875
-43.81388020833333
-43.8194140625
-43.84098958333333
-43.83768229166667
-43.8815234375
-43.887356770833335
-43.945611979166664
-43.97891927083333
-43.99532552083333
-44.01516927083333
-43.99696614583333
-43.93328125
-43.7616796875
-43.67419270833334
-43.65490885416666
-43.567708333333336
-43.57953125
-43.58953125
-43.6051171875
-43.57705729166667
-43.53080729166667
-43.52852864583333
-43.55828125
-43.575572916666665
-43.578450520833336
-43.606953125
-43.64213541666667
-43.6437890625
-43.6625390625
-43.685963541666666
-43.66805989583333
-43.5095703125
-43.28470052083333
-43.206640625
-43.207734375
-43.7821484375
-43.70522135416667
-43.722981770833336
-43.736953125
-43.730846354166665
-43.7510546875
-43.787447916666665
-43.78662760416667
-43.82235677083333
-43.85596354166667
-43.9013671875
-43.917682291666665
-43.970716145833336
-43.990703125
-44.0035546875
-44.0096875
-44.037421875
-43.878255208333336
-43.559583333333336
-43.5433984375
-43.55251302083333
-43.5459765625
-43.54412760416667
-43.542682291666665
-43.54513020833333
-43.5372265625
-43.52756510416667
-43.560169270833335
-43.60014322916667
-43.61895833333333
-43.652721354166665
-43.686822916666664
-43.71201822916667
-43.770078125
-43.785625
-43.81203125
-43.854869791666665
-43.87322916666667
-43.9212890625
-43.953515625
-43.844765625
-43.498776041666666
-43.45421875
-43.46170572916667
-43.49072916666667
-43.521419270833334
-43.53302083333333
-43.523059895833335
-43.50895833333333
-43.5444921875
-43.591119791666664
-43.618984375
-43.64608072916667
-43.69505208333333
-43.76677083333333
-43.8022265625
-43.820598958333335
-43.854739583333334
-43.88822916666667
-43.91356770833333
-43.95201822916667
-43.988697916666666
-44.0271875
-43.96272135416667
-43.7822265625
-43.6458984375
-43.6091015625
-43.6398046875
-43.65087239583333
-43.67880208333333
-43.71243489583333
-43.71475260416667
-43.7028515625
-43.69123697916667
-43.70877604166667
-43.732096354166664
-43.823841145833335
-43.85755208333333
-43.88680989583333
-43.903020833333336
-43.88395833333333
-43.9134765625
-43.95811197916667
-44.002682291666666
-43.993723958333334
-43.8755859375
-43.7112109375
-43.63178385416666
-43.63174479166667
-43.669596354166664
-43.67303385416667
-43.707369791666665
-43.7128515625
-43.6862109375
-43.6612890625
-43.66453125
-43.6984765625
-43.73225260416667
-43.75377604166667
-43.78536458333333
-43.855143229166664
-43.8630078125
-43.865208333333335
-43.91432291666667
-43.9487109375
-43.89625
-43.535846354166665
-43.460546875
-43.44940104166667
-43.4480859375
-43.4707421875
-43.490572916666665
-43.476809895833334
-43.44809895833333
-43.4523046875
-43.4814453125
-43.5262890625
-43.5551953125
-43.589140625
-43.63756510416667
-43.66649739583333
-43.66934895833333
-43.70178385416666
-43.72970052083333
-43.75444010416667
-43.77421875
-43.64755208333333
-43.396822916666665
-43.26376302083333
-43.237942708333335
-43.24427083333333
-43.8162890625
-43.738580729166664
-43.77131510416667
-43.7603515625
-43.74045572916667
-43.723125
-43.7153125
-43.843111979166665
-43.952734375
-43.97606770833333
-43.99192708333333
-44.044244791666664
-43.501979166666665
-43.593059895833335
-43.641263020833335
-43.669231770833335
-43.584544270833334
-43.36571614583333
-43.18114583333333
-43.124583333333334
-43.14864583333333
-43.794674479166666
-43.723294270833335
-43.741184895833335
-43.76540364583333
-43.7440234375
-43.73126302083333
-43.76734375
-43.7994921875
-43.83796875
-43.90020833333333
-43.94454427083333
-43.972591145833334
-44.00205729166667
-44.015208333333334
-43.4719140625
-43.592473958333336
-43.639348958333336
-43.675234375
-43.71365885416667
-43.70912760416667
-43.556953125
-43.339505208333335
-43.262994791666664
-43.27934895833334
-43.90735677083333
-43.890338541666665
-43.903046875
-43.858645833333334
-43.8408203125
-43.841158854166665
-43.851145833333334
-43.91223958333333
-43.94811197916667
-43.993229166666666
-44.02747395833333
-44.06588541666667
-43.51321614583333
-43.6120703125
-43.63240885416667
-43.669231770833335
-43.686770833333334
-43.567734375
-43.37643229166667
-43.26069010416666
-43.25763020833333
-43.868815104166664
-43.8167578125
-43.83794270833334
-43.81852864583333
-43.801080729166664
-43.78734375
-43.819765625
-43.89864583333333
-43.944049479166665
-43.98684895833333
-44.02188802083333
-44.05376302083334
-43.50868489583333
-43.609075520833336
-43.624322916666664
-43.57247395833333
-43.35170572916667
-43.164973958333334
-43.079127604166665
-43.067135416666666
-43.66640625
-43.5922265625
-43.60233072916667
-43.62381510416667
-43.5780859375
-43.556575520833334
-43.595234375
-43.63723958333333
-43.6891796875
-43.73125
-43.778658854166665
-43.8323828125
-43.8580859375
-43.866848958333335
-43.90052083333333
-43.935169270833335
-43.94752604166667
-43.994453125
-43.970377604166664
-43.70938802083333
-42.893528645833335
-42.8414453125
-43.437161458333335
-43.34352864583333
-43.36626302083334
-43.404283854166664
-43.40049479166667
-43.395859375
-43.42399739583333
-43.45916666666667
-43.567408854166665
-43.56649739583333
-43.605
-43.6780859375
-43.74924479166667
-43.7783984375
-43.8004296875
-43.85134114583333
-43.88684895833333
-43.949557291666665
-43.98365885416667
-43.81852864583333
-43.578411458333335
-42.90638020833333
-42.97154947916667
-42.990299479166666
-43.616549479166665
-43.57725260416667
-43.5955078125
-43.554127604166666
-43.57565104166667
-43.68611979166667
-43.71430989583333
-43.77109375
-43.8046484375
-43.824544270833336
-43.839166666666664
-43.849609375
-43.894817708333335
-43.925716145833334
-43.7997265625
-43.60639322916666
-43.487330729166665
-43.480143229166664
-43.53791666666667
-43.55264322916667
-43.600286458333336
-43.64561197916667
-43.628619791666665
-43.60954427083333
-43.62154947916667
-43.6573046875
-43.70098958333333
-43.7563671875
-43.7805859375
-43.83059895833333
-43.871770833333336
-43.88950520833333
-43.91190104166667
-43.941744791666665
-43.96569010416667
-43.878489583333334
-43.65171875
-43.494153645833336
-43.4473046875
-43.48130208333333
-43.47059895833333
-43.478841145833336
-43.484791666666666
-43.4817578125
-43.4915625
-43.5408984375
-43.568984375
-43.62127604166667
-43.6797265625
-43.73006510416667
-43.75786458333334
-43.78240885416667
-43.8123828125
-43.84171875
-43.84515625
-43.8825
-43.936809895833335
-43.960208333333334
-43.795234375
-43.5719921875
-43.441393229166664
-43.38661458333333
-43.393541666666664
-43.44079427083334
-43.462265625
-43.47450520833333
-43.467356770833334
-43.4865625
-43.55388020833333
-43.581875
-43.649114583333336
-43.73059895833333
-43.763359375
-43.7841015625
-43.835924479166664
-43.8761328125
-43.88424479166667
-43.925442708333335
-43.99692708333333
-43.9840625
-43.837916666666665
-43.061875
-42.999986979166664
-43.01154947916667
-43.6260546875
-43.57807291666666
-43.608203125
-43.636705729166664
-43.62055989583333
-43.59161458333333
-43.614596354166665
-43.629908854166665
-43.67733072916667
-43.733098958333336
-43.78524739583333
-43.832708333333336
-43.867604166666666
-43.89102864583333
-43.893841145833335
-43.90865885416667
-43.9484375
-43.97440104166667
-43.880390625
-43.005169270833335
-43.03602864583333
-43.0776953125
-43.68248697916667
-43.65018229166667
-43.674127604166664
-43.644544270833336
-43.613294270833336
-43.63109375
-43.6690234375
-43.70404947916666
-43.746796875
-43.803411458333336
-43.8528515625
-43.871783854166665
-43.886653645833334
-43.934908854166665
-43.946002604166665
-43.95295572916667
-43.7777734375
-43.572903645833335
-43.48264322916667
-43.481692708333334
-43.49110677083333
-43.545625
-43.571575520833335
-43.56471354166667
-43.556796875
-43.5793359375
-43.603580729166666
-43.703802083333336
-43.75438802083333
-43.79704427083333
-43.814869791666666
-43.854778645833335
-43.885625
-43.882578125
-43.916302083333335
-43.96725260416667
-43.87294270833333
-43.65061197916667
-43.496158854166666
-43.4375390625
-43.44490885416667
-43.47473958333333
-43.50421875
-43.51809895833333
-43.514609375
-43.525677083333335
-43.513333333333335
-43.5435546875
-43.54893229166667
-43.595286458333334
-43.670546875
-43.752955729166665
-43.798359375
-43.82653645833334
-43.85649739583334
-43.9063671875
-43.950390625
-43.972643229166664
-44.010455729166665
-43.84420572916667
-43.084661458333336
-43.063450520833335
-43.05420572916667
-43.67467447916667
-43.59432291666667
-43.62930989583333
-43.64022135416667
-43.65147135416667
-43.63970052083334
-43.652591145833334
-43.688450520833335
-43.72615885416667
-43.795598958333336
-43.844140625
-43.88631510416667
-43.91125
-43.913372395833335
-43.935221354166664
-43.969296875
-44.015078125
-44.034479166666664
-43.9212890625
-43.18180989583333
-43.17041666666667
-43.160625
-43.76993489583333
-43.719440104166665
-43.77436197916666
-43.7898046875
-43.76505208333333
-43.7230078125
-43.71602864583333
-43.7476171875
-43.77134114583333
-43.81028645833333
-43.86580729166667
-43.90229166666666
-43.9305859375
-43.9568359375
-43.98236979166666
-43.9869140625
-43.866145833333334
-43.673854166666665
-43.547213541666665
-43.48484375
-43.538098958333336
-43.557903645833335
-43.57287760416666
-43.566653645833334
-43.56897135416666
-43.524348958333334
-43.55287760416667
-43.569140625
-43.668125
-43.753203125
-43.765950520833336
-43.80515625
-43.840546875
-43.89203125
-43.72466145833334
-43.36505208333333
-43.310794270833334
-43.352955729166666
-43.367252604166666
-43.345013020833335
-43.369440104166664
-43.3786328125
-43.3664453125
-43.39078125
-43.417057291666666
-43.443776041666666
-43.4834375
-43.53140625
-43.596692708333336
-43.639713541666666
-43.670299479166665
-43.726484375
-43.75045572916667
-43.76444010416667
-43.78434895833333
-43.8912890625
-43.726953125
-43.388255208333334
-43.31645833333334
-43.33322916666667
-43.37296875
-43.38171875
-43.3737890625
-43.37903645833333
-43.434817708333334
-43.52131510416667
-43.582669270833335
-43.64165364583334
-43.6546484375
-43.715520833333336
-43.73072916666667
-43.748736979166665
-43.871744791666664
-43.90048177083333
-43.907864583333335
-43.953541666666666
-44.02234375
-43.81471354166667
-43.09721354166667
-43.165065104166665
-43.1459765625
-43.71692708333333
-43.6494140625
-43.677760416666665
-43.66747395833333
-43.66486979166667
-43.72997395833333
-43.77841145833333
-43.78009114583333
-43.847578125
-43.88368489583333
-43.901484375
-43.9463671875
-43.9716796875
-43.96665364583333
-44.00596354166667
-44.048580729166666
-44.11243489583333
-43.583033854166665
-43.7095703125
-43.6716015625
-43.5553125
-43.34087239583334
-43.353932291666666
-43.391875
-43.44354166666667
-43.46139322916667
-43.403333333333336
-43.4144140625
-43.45600260416666
-43.516796875
-43.56328125
-43.59682291666667
-43.61541666666667
-43.6573046875
-43.700755208333334
-43.7312109375
-43.7443359375
-43.729296875
-43.528619791666664
-43.29404947916667
-43.336875
-43.3601953125
-43.87217447916667
-43.8542578125
-43.880260416666665
-43.876536458333334
-43.86403645833333
-43.92881510416667
-43.93739583333333
-43.94161458333333
-44.000065104166666
-44.0200390625
-44.042552083333334
-43.52078125
-43.586015625
-43.598697916666666
-43.62890625
-43.64791666666667
-43.5108984375
-43.311223958333336
-43.18567708333333
-43.152408854166666
-43.18673177083333
-43.769205729166664
-43.69119791666667
-43.69796875
-43.6949609375
-43.66481770833333
-43.64071614583333
-43.65470052083333
-43.65481770833333
-43.70561197916667
-43.7845703125
-43.848255208333335
-43.88045572916667
-43.89766927083333
-43.903333333333336
-43.90420572916667
-43.935846354166664
-43.99977864583333
-44.050625
-44.0016796875
-43.253346354166666
-43.065989583333334
-42.93764322916667
-42.9427734375
-43.5435546875
-43.48809895833333
-43.53951822916667
-43.5907421875
-43.49360677083333
-43.485052083333336
-43.50505208333333
-43.525677083333335
-43.586315104166665
-43.6679296875
-43.71376302083333
-43.7458203125
-43.7609375
-43.79598958333333
-43.817981770833335
-43.840703125
-43.87615885416667
-43.895182291666664
-43.773854166666666
-43.56209635416667
-43.4146484375
-43.3782421875
-43.38330729166667
-43.426067708333335
-43.47834635416667
-43.512395833333336
-43.5016796875
-43.449518229166664
-43.425755208333335
-43.4493359375
-43.471796875
-43.52231770833333
-43.56666666666667
-43.63462239583333
-43.67234375
-43.68502604166667
-43.707669270833335
-43.7331640625
-43.66095052083333
-43.41984375
-43.209296875
-43.1282421875
-43.1545703125
-43.14923177083333
-43.7620703125
-43.729244791666666
-43.722239583333334
-43.6952734375
-43.67444010416666
-43.6629296875
-43.6592578125
-43.705104166666665
-43.76274739583334
-43.77553385416667
-43.838203125
-43.85498697916667
-43.9196875
-43.9434765625
-43.3903125
-43.39985677083333
-43.16428385416667
-42.9536328125
-42.85923177083333
-43.44869791666667
-43.3833203125
-43.35821614583333
-43.4171484375
-43.441953125
-43.4019140625
-43.398815104166665
-43.41102864583333
-43.43020833333333
-43.45384114583333
-43.538736979166664
-43.59760416666666
-43.63227864583333
-43.66817708333333
-43.689778645833336
-43.702161458333336
-43.74592447916667
-43.798671875
-43.844973958333334
-43.888958333333335
-43.8305859375
-43.570338541666665
-42.7948046875
-42.81795572916667
-42.83100260416666
-43.43338541666667
-43.361041666666665
-43.386041666666664
-43.395807291666664
-43.359296875
-43.343046875
-43.437200520833336
-43.49299479166667
-43.56692708333333
-43.608815104166666
-43.63424479166667
-43.626015625
-43.66360677083333
-43.700494791666664
-43.73540364583334
-43.76846354166667
-43.79532552083333
-43.7120703125
-43.51319010416667
-43.392200520833335
-43.36643229166667
-43.39040364583333
-43.43825520833333
-43.4905078125
-43.516940104166665
-43.492486979166664
-43.46403645833333
-43.472903645833334
-43.5114453125
-43.5627734375
-43.61024739583333
-43.640026041666665
-43.68217447916667
-43.70584635416667
-43.7261328125
-43.736354166666665
-43.776783854166666
-43.81466145833333
-43.848619791666664
-43.80936197916667
-43.603203125
-43.403997395833336
-43.335208333333334
-43.36533854166667
-43.378046875
-43.375
-43.419596354166664
-43.440364583333334
-43.42889322916667
-43.41526041666667
-43.43696614583333
-43.47311197916667
-43.52787760416667
-43.586627604166665
-43.621067708333335
-43.662096354166664
-43.675143229166665
-43.65830729166667
-43.63
-43.638033854166665
-43.663736979166664
-43.72944010416666
-43.721692708333336
-43.561223958333336
-43.39608072916667
-43.34553385416667
-43.35541666666666
-43.36807291666667
-43.401028645833335
-43.44787760416666
-43.464518229166664
-43.46119791666667
-43.476276041666665
-43.52940104166667
-43.54921875
-43.58384114583333
-43.6715234375
-43.704296875
-43.734309895833334
-43.8125
-43.85341145833333
-43.87391927083333
-43.90673177083333
-43.951588541666666
-43.41805989583333
-43.537044270833334
-43.55451822916667
-43.4591015625
-43.229505208333336
-43.082317708333335
-43.070989583333336
-43.09548177083333
-43.70033854166667
-43.666028645833336
-43.715390625
-43.73490885416667
-43.698359375
-43.69567708333334
-43.753567708333335
-43.78684895833333
-43.83264322916666
-43.889986979166665
-43.944713541666665
-43.975299479166665
-43.44770833333333
-44.10404947916667
-44.15049479166667
-44.180026041666665
-44.21046875
-44.24809895833334
-44.30282552083333
-44.1851171875
-43.94716145833333
-43.82119791666667
-43.8076171875
-43.838671875
-44.4886328125
-43.905520833333334
-43.9033984375
-43.881484375
-43.8520703125
-43.288333333333334
-43.4005859375
-43.45005208333333
-43.50014322916667
-43.56286458333334
-43.615859375
-43.647447916666664
-43.67893229166667
-43.655546875
-43.721979166666664
-43.756197916666665
-43.4146875
-43.279674479166665
-43.27395833333333
-43.313411458333334
-43.34555989583333
-43.39817708333333
-43.444583333333334
-43.443776041666666
-43.44860677083334
-43.4296484375
-43.443984375
-43.50891927083333
-43.528255208333334
-43.58518229166667
-43.642864583333335
-43.67625
-43.714609375
-43.73555989583333
-43.74880208333333
-43.76864583333333
-43.809986979166666
-43.73296875
-43.501354166666665
-43.29514322916667
-43.21399739583333
-43.210208333333334
-43.219375
-43.851223958333335
-43.8100390625
-43.8251953125
-43.82768229166667
-43.81595052083333
-43.828802083333336
-43.84065104166667
-43.89537760416667
-43.9516015625
-44.01602864583333
-44.05380208333333
-43.50709635416667
-43.6581640625
-43.673489583333335
-43.70045572916667
-43.7299609375
-43.6894140625
-43.464453125
-43.2353125
-43.1709765625
-43.17233072916667
-43.21658854166667
-43.84071614583333
-43.81485677083333
-43.819921875
-43.7818359375
-43.773984375
-43.776927083333334
-43.832994791666664
-43.8898828125
-43.92471354166667
-43.959453125
-43.44153645833333
-43.55555989583333
-43.58703125
-43.622135416666666
-43.653072916666666
-43.690130208333336
-43.74299479166667
-43.69247395833333
-43.491901041666665
-43.189440104166664
-43.205390625
-43.28786458333333
-43.840807291666664
-43.866875
-43.842109375
-43.82307291666667
-43.83256510416667
-43.87450520833333
-43.92764322916667
-43.96075520833333
-44.006861979166665
-43.4708984375
-43.5592578125
-43.563203125
-43.6128515625
-43.67924479166667
-43.686770833333334
-43.56360677083333
-43.31733072916666
-43.21510416666667
-43.20399739583333
-43.23
-43.87015625
-43.8459375
-43.868125
-43.84045572916666
-43.813229166666666
-43.80188802083333
-43.853763020833334
-43.9009375
-43.9623828125
-44.01309895833333
-43.504296875
-43.601236979166664
-43.631861979166665
-43.669453125
-43.606328125
-43.381328125
-43.151614583333334
-43.05686197916667
-43.044270833333336
-43.63813802083333
-44.10341145833333
-44.18467447916667
-44.22243489583333
-44.2042578125
-44.174778645833335
-44.179296875
-44.23223958333333
-44.2693359375
-44.317369791666664
-44.3778515625
-44.403736979166666
-44.43509114583333
-44.468424479166664
-44.47477864583333
-44.518255208333336
-44.54111979166667
-44.577135416666664
-44.43510416666667
-43.56630208333333
-42.906575520833336
-42.851575520833336
-43.43515625
-43.9062890625
-43.97322916666667
-43.99893229166667
-44.001354166666665
-43.9686328125
-43.97834635416667
-44.0174609375
-44.073203125
-44.12618489583333
-44.16783854166667
-44.203723958333335
-44.251223958333334
-44.28890625
-44.30868489583333
-44.33095052083333
-44.3483203125
-44.357408854166664
-44.38498697916667
-44.3278125
-44.100260416666664
-43.799817708333336
-43.668515625
-43.681940104166664
-43.70712239583333
-44.31537760416666
-43.7508984375
-43.7130859375
-43.7018359375
-43.70170572916667
-43.71283854166666
-43.734674479166664
-43.7950390625
-43.85130208333333
-43.915
-43.960078125
-43.4821875
-43.58026041666667
-43.589830729166664
-43.59748697916667
-43.6633984375
-43.7130859375
-43.6555859375
-43.41708333333333
-43.2082421875
-43.16200520833333
-43.205377604166664
-43.25154947916667
-43.27546875
-43.33079427083333
-43.3523828125
-43.307239583333335
-43.292265625
-43.33829427083333
-43.40229166666666
-43.4605859375
-43.533216145833336
-43.5740625
-43.59645833333333
-43.6739453125
-43.69125
-43.710247395833335
-43.735625
-43.677721354166664
-43.396822916666665
-43.19122395833333
-43.12580729166667
-43.11678385416667
-43.175768229166664
-43.78006510416667
-43.75359375
-43.75453125
-43.74375
-43.72110677083333
-43.72506510416667
-43.7641796875
-43.822994791666666
-43.891627604166665
-43.9216015625
-43.41162760416667
-43.5533203125
-43.58938802083333
-43.64473958333333
-43.55735677083333
-43.288203125
-43.05614583333333
-42.9584765625
-42.9993359375
-43.58513020833333
-43.53338541666667
-43.56953125
-43.6019921875
-43.612591145833335
-43.60951822916667
-43.63393229166667
-43.675390625
-43.74171875
-43.79390625
-43.85368489583333
-43.89501302083333
-43.442447916666666
-43.54044270833333
-43.57704427083333
-43.62416666666667
-43.334713541666666
-43.105533854166666
-43.0480078125
-43.0785546875
-43.64962239583333
-43.604869791666665
-43.6455078125
-43.65932291666667
-43.6484375
-43.631640625
-43.658190104166664
-43.709453125
-43.74981770833333
-43.80291666666667
-43.87149739583333
-43.89278645833333
-43.399375
-43.50313802083333
-43.53625
-43.545963541666666
-43.45938802083333
-43.25234375
-43.10328125
-43.089921875
-43.153294270833335
-43.75071614583333
-43.720677083333335
-43.770572916666666
-43.789661458333335
-43.75430989583333
-43.74040364583333
-43.241184895833335
-43.37328125
-43.4226171875
-43.463203125
-43.504231770833336
-43.539440104166665
-43.586223958333335
-43.6019921875
-43.44958333333334
-43.2295703125
-43.1258984375
-43.130390625
-43.168294270833336
-43.754466145833334
-43.70040364583333
-43.72837239583333
-43.698619791666665
-43.67973958333334
-43.688098958333335
-43.71565104166667
-43.78608072916666
-43.843763020833336
-43.88778645833333
-43.92046875
-43.450546875
-43.55154947916667
-43.55029947916667
-43.60329427083333
-43.58095052083333
-43.358815104166666
-43.12553385416667
-43.05485677083333
-43.08947916666666
-43.1337109375
-44.196927083333335
-44.24783854166667
-44.233385416666664
-44.22149739583333
-44.2425390625
-44.288984375
-44.346653645833335
-44.402096354166666
-44.45125
-44.50955729166667
-44.550755208333335
-44.031979166666666
-43.57626302083333
-43.557890625
-43.61700520833333
-43.57243489583333
-43.3222265625
-43.146471354166664
-43.09712239583333
-43.10825520833333
-43.1378515625
-43.6990234375
-43.65123697916667
-43.683671875
-43.673450520833335
-43.67821614583333
-43.70294270833333
-43.74532552083333
-43.80024739583333
-43.82735677083333
-43.87299479166666
-43.94063802083333
-43.44885416666666
-43.566953125
-43.60763020833333
-43.65342447916667
-43.6768359375
-43.68251302083333
-43.296549479166664
-43.22647135416667
-43.23263020833333
-43.265703125
-43.32678385416666
-43.373723958333336
-43.40466145833334
-43.401067708333336
-43.3798828125
-43.41194010416667
-43.470377604166664
-43.5199609375
-43.5507421875
-43.61381510416667
-43.664348958333335
-43.69419270833333
-43.742161458333335
-43.76481770833333
-43.7927734375
-43.831966145833334
-43.802421875
-43.47217447916667
-43.50368489583333
-43.52459635416667
-43.54122395833333
-43.61096354166666
-43.62669270833333
-43.60989583333333
-43.590794270833335
-43.62184895833333
-43.68541666666667
-43.7653125
-43.817447916666666
-43.847734375
-43.8720703125
-43.916393229166665
-43.94704427083333
-43.96515625
-43.882526041666665
-43.087916666666665
-43.0434765625
-43.0251171875
-43.63947916666667
-43.587513020833335
-43.62354166666667
-43.66858072916666
-43.67063802083333
-43.6505859375
-43.64470052083333
-43.6804296875
-43.694010416666664
-43.739505208333334
-43.815625
-43.8758984375
-43.909557291666665
-43.9333203125
-43.975651041666666
-43.990833333333335
-43.2678515625
-43.09453125
-42.96169270833333
-42.9906640625
-43.53830729166667
-43.570703125
-43.594765625
-43.5935546875
-43.5841796875
-43.58123697916667
-43.59548177083333
-43.63671875
-43.687578125
-43.732760416666665
-43.77916666666667
-43.81404947916667
-43.85063802083334
-43.884518229166666
-43.82765625
-43.585078125
-43.384765625
-43.32860677083333
-43.352890625
-43.38002604166667
-43.39826822916667
-43.44654947916667
-43.46328125
-43.457994791666664
-43.45291666666667
-43.49815104166667
-43.59516927083333
-43.645859375
-43.692981770833335
-43.7283984375
-43.764895833333334
-43.803411458333336
-43.72638020833333
-43.51419270833333
-43.2948828125
-43.23037760416667
-43.278385416666666
-43.29061197916667
-43.30526041666667
-43.35192708333334
-43.3748046875
-43.391223958333335
-43.386328125
-43.398111979166664
-43.447291666666665
-43.50731770833333
-43.54897135416667
-43.5959375
-43.6427734375
-43.6826953125
-43.73072916666667
-43.77036458333333
-43.79846354166666
-43.86576822916667
-43.950494791666664
-43.889934895833335
-43.6651953125
-42.91678385416667
-42.93174479166667
-42.95916666666667
-43.4879296875
-43.51940104166667
-43.556484375
-43.56188802083334
-43.569270833333334
-43.5848828125
-43.628177083333334
-43.674466145833335
-43.73509114583333
-43.796145833333334
-43.8448828125
-43.89005208333333
-43.94087239583333
-43.98184895833333
-44.014348958333336
-43.49203125
-43.61954427083333
-43.68018229166667
-43.63729166666667
-43.43990885416667
-43.278997395833336
-43.221341145833335
-43.21630208333333
-43.288151041666666
-43.907890625
-43.84725260416667
-43.8958203125
-43.899388020833335
-43.9032421875
-43.93190104166667
-43.97888020833334
-44.033763020833334
-43.49690104166667
-43.62526041666667
-43.66358072916667
-43.72084635416667
-43.76643229166667
-43.829166666666666
-43.8644921875
-43.897747395833335
-43.95713541666667
-43.99408854166666
-43.880833333333335
-43.70236979166667
-43.615481770833334
-43.62515625
-43.64643229166666
-43.6665625
-43.69690104166666
-43.720013020833335
-43.7475
-43.74111979166667
-43.74072916666667
-43.76740885416667
-43.8307421875
-43.864921875
-43.88920572916667
-43.940768229166665
-44.01330729166666
-44.033854166666664
-44.06126302083333
-44.146549479166666
-43.582330729166664
-43.701497395833336
-43.73592447916667
-43.6119921875
-43.43399739583333
-43.35803385416666
-43.38005208333333
-43.406536458333335
-44.002734375
-43.97252604166667
-43.98100260416667
-43.9691796875
-43.949817708333335
-43.94647135416667
-43.96537760416667
-43.9948828125
-44.00884114583334
-44.0532421875
-44.09548177083333
-44.131770833333334
-44.144505208333335
-43.58615885416667
-43.6690625
-43.68272135416667
-43.68796875
-43.57981770833333
-43.4045703125
-43.32231770833334
-43.32796875
-43.358828125
-43.985026041666664
-43.94643229166667
-43.949921875
-43.954036458333334
-43.9233984375
-43.912526041666666
-43.9305859375
-43.970690104166664
-43.99069010416667
-44.018203125
-44.054127604166666
-44.07265625
-44.14838541666666
-44.14109375
-43.45364583333333
-43.349361979166666
-43.267734375
-43.27260416666667
-43.868229166666666
-43.7843359375
-43.83510416666667
-43.8762109375
-43.86901041666667
-43.852161458333335
-43.82209635416667
-43.82919270833333
-43.8651953125
-43.898984375
-43.923190104166665
-43.954440104166665
-44.010143229166665
-44.029674479166665
-44.043294270833336
-44.06826822916667
-44.064791666666665
-43.912096354166664
-43.6954296875
-43.592421875
-43.611328125
-43.65100260416666
-43.71071614583333
-43.72985677083334
-43.701848958333336
-43.701419270833334
-43.717760416666664
-43.744153645833336
-43.76158854166667
-43.818372395833336
-43.870104166666664
-43.90598958333333
-43.92885416666667
-43.9505078125
-43.99528645833333
-44.01514322916667
-44.017161458333334
-43.85828125
-43.6690234375
-43.60307291666667
-43.60692708333333
-43.634440104166664
-43.649973958333334
-43.67729166666667
-43.706328125
-43.72541666666667
-43.7124609375
-43.69673177083333
-43.720677083333335
-43.772760416666664
-43.820065104166666
-43.86891927083333
-43.88729166666667
-43.91658854166667
-43.95907552083333
-43.9964453125
-44.015247395833335
-44.04678385416667
-44.08260416666667
-44.0117578125
-43.257877604166666
-43.25828125
-43.280950520833336
-43.892825520833334
-43.834010416666665
-43.866276041666666
-43.8928515625
-43.881276041666666
-43.845104166666665
-43.8230859375
-43.827265625
-43.891263020833335
-43.908125
-43.95716145833333
-43.99703125
-44.01540364583333
-44.04799479166667
-44.088567708333336
-44.114140625
-44.11765625
-43.484622395833334
-43.29283854166667
-43.29256510416667
-43.8873046875
-43.892916666666665
-43.924479166666664
-43.90578125
-43.883984375
-43.89462239583333
-43.915078125
-43.9337890625
-43.973359375
-43.99884114583333
-44.03053385416667
-44.0563671875
-44.086979166666666
-44.03498697916667
-43.845
-43.12095052083333
-43.13600260416667
-43.1578125
-43.756901041666666
-43.6886328125
-43.71239583333333
-43.724283854166664
-43.70276041666666
-43.67569010416667
-43.66591145833333
-43.69796875
-43.70106770833333
-43.73401041666666
-43.77040364583333
-43.822890625
-43.80765625
-43.87145833333334
-43.8838671875
-43.74701822916666
-43.50700520833333
-43.39458333333334
-43.402109375
-43.40954427083334
-43.421315104166666
-43.45415364583334
-43.43932291666667
-43.4333203125
-43.42533854166667
-43.43802083333333
-43.48813802083333
-43.5090625
-43.53186197916666
-43.5774609375
-43.619153645833336
-43.63161458333333
-43.63373697916666
-43.664401041666665
-43.66751302083333
-43.688984375
-43.612005208333336
-43.42541666666666
-43.281927083333336
-43.2427734375
-43.25921875
-43.8665234375
-43.7846484375
-43.7951171875
-43.463046875
-43.78674479166666
-43.80575520833333
-43.8109765625
-43.86412760416667
-43.926028645833334
-43.96266927083333
-44.00694010416667
-44.03688802083333
-44.0603515625
-43.51546875
-43.625625
-43.64333333333333
-43.677395833333335
-43.71032552083334
-43.72178385416667
-43.57932291666667
-43.3615625
-43.28080729166667
-43.25858072916667
-43.25704427083333
-43.852916666666665
-43.82022135416667
-43.875911458333334
-43.882734375
-43.866276041666666
-43.874270833333334
-43.902317708333335
-43.945234375
-44.0018359375
-44.0456640625
-44.09046875
-43.543359375
-43.644830729166664
-43.677721354166664
-43.705625
-43.7211328125
-43.764322916666664
-43.81979166666667
-43.695546875
-43.51091145833333
-43.45194010416667
-43.4534765625
-43.474635416666665
-43.518138020833334
-43.53098958333333
-43.55951822916666
-43.555859375
-43.533515625
-43.5322265625
-43.5578515625
-43.6071484375
-43.6355078125
-43.65015625
-43.68515625
-43.70446614583334
-43.7115625
-43.74436197916667
-43.77268229166667
-43.80358072916667
-43.79341145833333
-43.6628125
-43.4752734375
-43.411197916666666
-43.42649739583333
-43.4441015625
-43.47399739583334
-43.52203125
-43.513984375
-43.49197916666667
-43.48876302083333
-43.48842447916667
-43.53595052083333
-43.566484375
-43.62705729166667
-43.687513020833336
-43.70036458333333
-43.70764322916666
-43.6717578125
-43.510442708333336
-43.3293359375
-43.26876302083333
-43.256184895833336
-43.28259114583334
-43.88453125
-43.83095052083333
-43.842434895833335
-43.821263020833335
-43.792682291666665
-43.80966145833333
-43.830677083333335
-43.86657552083334
-43.919505208333334
-43.96716145833334
-43.99911458333333
-44.0208984375
-44.05779947916667
-43.51805989583333
-43.6203515625
-43.5934375
-43.22317708333333
-43.14231770833333
-43.13881510416667
-43.743359375
-43.65213541666667
-43.6555078125
-43.6709765625
-43.65705729166667
-43.66911458333333
-43.6799609375
-43.70436197916667
-43.74994791666666
-43.800130208333336
-43.8385546875
-43.86385416666667
-43.9285546875
-43.96375
-43.975078125
-43.99623697916667
-44.0148828125
-44.058880208333335
-43.47578125
-43.370846354166666
-43.17907552083334
-43.13265625
-43.15407552083333
-43.75888020833333
-43.690455729166665
-43.706640625
-43.740625
-43.75483072916666
-43.74265625
-43.76802083333333
-43.8001953125
-43.82669270833333
-43.84815104166667
-43.895533854166665
-43.930859375
-43.9888671875
-44.02555989583333
-44.0960546875
-43.54799479166667
-43.670260416666665
-43.702747395833335
-43.6840234375
-43.53760416666667
-43.3758203125
-43.324505208333335
-43.36048177083333
-43.389322916666664
-43.98774739583333
-43.944661458333336
-43.96274739583333
-43.954752604166664
-43.941158854166666
-43.95813802083333
-44.0136328125
-44.0544921875
-44.08013020833334
-43.55260416666667
-43.67125
-43.69380208333333
-43.69638020833333
-43.693776041666666
-43.7252734375
-43.74333333333333
-43.489934895833336
-43.4933984375
-43.51234375
-43.551484375
-43.60329427083333
-43.56427083333333
-43.56938802083334
-43.5886328125
-43.62057291666667
-43.651796875
-43.686497395833335
-43.71993489583333
-43.7451171875
-43.76059895833333
-43.766328125
-43.8108203125
-43.82421875
-43.71104166666667
-43.5221484375
-43.43493489583334
-43.42734375
-43.432265625
-43.4244140625
-43.40475260416667
-43.45641927083334
-43.472994791666665
-43.461536458333335
-43.455091145833336
-43.476223958333335
-43.50328125
-43.54678385416667
-43.5896875
-43.607434895833336
-43.63649739583333
-43.673190104166665
-43.6875
-43.68798177083333
-43.725611979166665
-43.7206640625
-43.592890625
-43.3900390625
-43.2608203125
-43.242786458333335
-43.85734375
-43.77240885416666
-43.80766927083334
-43.799557291666666
-43.789440104166665
-43.79515625
-43.81951822916667
-43.82848958333334
-43.86578125
-43.91553385416667
-43.947682291666666
-43.98256510416667
-43.998671875
-44.02890625
-44.083033854166665
-43.53493489583333
-43.620794270833336
-43.659921875
-43.560846354166664
-43.20420572916667
-43.158125
-43.16743489583333
-43.703541666666666
-43.741770833333334
-43.738346354166666
-43.72744791666667
-43.70622395833333
-43.741236979166665
-43.7705859375
-43.81369791666667
-43.867916666666666
-43.887278645833334
-43.9197265625
-43.9387890625
-43.9508984375
-43.980859375
-43.9833984375
-43.97506510416667
-43.86950520833334
-43.72540364583333
-43.60140625
-43.628268229166665
-43.663776041666665
-43.672122395833334
-43.69908854166667
-43.741770833333334
-43.733515625
-43.691692708333335
-43.674479166666664
-43.699244791666665
-43.7461328125
-43.81303385416667
-43.84555989583333
-43.86544270833333
-43.87247395833333
-43.90044270833334
-43.933619791666665
-43.9631640625
-43.91234375
-43.56720052083333
-43.52033854166667
-43.521067708333334
-43.5642578125
-43.585338541666665
-43.59747395833333
-43.59606770833334
-43.5875390625
-43.592760416666664
-43.623346354166664
-43.674140625
-43.72549479166667
-43.75484375
-43.800807291666665
-43.834986979166665
-43.874674479166664
-43.8853515625
-43.90291666666667
-43.92200520833333
-43.93954427083333
-43.85125
-43.60234375
-43.464830729166664
-43.439427083333335
-43.488984375
-43.505182291666664
-43.53817708333333
-43.52071614583333
-43.516875
-43.5531640625
-43.59010416666667
-43.6480078125
-43.682265625
-43.76151041666667
-43.774453125
-43.80236979166666
-43.83125
-43.85010416666667
-43.90118489583333
-43.93662760416667
-43.9448828125
-43.793385416666666
-43.5446484375
-43.378567708333335
-43.41848958333333
-43.439114583333335
-43.45876302083333
-43.53434895833333
-43.5683984375
-43.55072916666666
-43.559283854166665
-43.57967447916667
-43.64243489583333
-43.7053515625
-43.73319010416667
-43.7594140625
-43.790638020833335
-43.82467447916667
-43.86416666666667
-43.879231770833336
-43.88680989583333
-43.917018229166665
-44.01709635416667
-44.0555078125
-43.918958333333336
-43.71341145833333
-42.992109375
-43.039088541666665
-43.094440104166665
-43.70666666666666
-43.650013020833335
-43.70108072916667
-43.699908854166665
-43.659375
-43.64036458333333
-43.695651041666665
-43.709283854166664
-43.74725260416667
-43.764986979166665
-43.840807291666664
-43.882135416666664
-43.9134765625
-43.93296875
-43.9426953125
-43.99809895833334
-44.01020833333333
-43.936276041666666
-43.753932291666665
-43.0578125
-43.09779947916667
-43.108424479166665
-43.70423177083333
-43.76022135416667
-43.717486979166665
-43.6946484375
-43.70985677083333
-43.75729166666667
-43.822890625
-43.8588671875
-43.89768229166667
-43.9076171875
-43.9253515625
-43.93102864583334
-43.923138020833335
-43.755520833333335
-43.5490625
-43.4528515625
-43.482356770833334
-43.5271484375
-43.55514322916667
-43.59725260416667
-43.63375
-43.614375
-43.56729166666667
-43.5696484375
-43.609973958333335
-43.664348958333335
-43.687486979166664
-43.72079427083333
-43.71173177083333
-43.75790364583333
-43.80885416666667
-43.834296875
-43.699192708333335
-43.4621875
-43.23157552083333
-43.261158854166666
-43.29697916666667
-43.336536458333335
-43.35963541666667
-43.359973958333335
-43.35109375
-43.3335546875
-43.360325520833335
-43.41384114583333
-43.4779296875
-43.5236328125
-43.54430989583334
-43.5920703125
-43.617109375
-43.64098958333334
-43.6721484375
-43.68966145833333
-43.520078125
-43.2740234375
-43.16095052083333
-43.13493489583333
-43.15815104166666
-43.71473958333333
-43.652721354166665
-43.71359375
-43.72703125
-43.71111979166667
-43.715520833333336
-43.75984375
-43.79572916666667
-43.830638020833334
-43.8971875
-43.95200520833333
-43.972669270833336
-43.47125
-43.56399739583333
-43.59588541666667
-43.689739583333335
-43.695950520833335
-43.59091145833333
-43.334375
-43.163997395833334
-43.137018229166664
-43.17404947916667
-43.72563802083334
-44.216067708333334
-44.27981770833333
-44.2990625
-44.2905859375
-44.2744921875
-44.284140625
-44.330859375
-44.411328125
-44.46265625
-44.50364583333333
-44.536458333333336
-44.57173177083333
-44.04895833333333
-44.15516927083333
-44.18701822916667
-44.220390625
-44.27272135416667
-44.32231770833334
-44.2052734375
-43.97274739583333
-43.8094921875
-43.849361979166666
-44.44833333333333
-43.851888020833336
-43.82498697916667
-43.80415364583333
-43.80809895833333
-43.83571614583333
-43.875598958333335
-43.9054296875
-43.962239583333336
-43.99897135416666
-43.48494791666667
-43.57893229166667
-43.6173046875
-43.65442708333333
-43.6826171875
-43.7350390625
-43.746640625
-43.632434895833335
-43.452434895833335
-43.34067708333333
-43.35803385416666
-43.38859375
-43.41930989583334
-43.48161458333333
-43.5135546875
-43.4744140625
-43.415
-43.447903645833335
-43.485325520833335
-43.529973958333336
-43.541171875
-43.59462239583333
-43.64436197916667
-43.669856770833334
-43.700572916666665
-43.714544270833336
-43.75319010416667
-43.7466015625
-43.595065104166665
-43.4071875
-43.320247395833334
-43.32022135416667
-43.3620703125
-43.431653645833336
-43.447994791666666
-43.4513671875
-43.450182291666664
-43.4144921875
-43.42108072916667
-43.448984375
-43.51584635416667
-43.56764322916667
-43.62942708333333
-43.651393229166665
-43.671171875
-43.7091796875
-43.735690104166665
-43.7576171875
-43.65768229166667
-43.40506510416667
-43.27264322916667
-43.26135416666666
-43.28444010416667
-43.29091145833333
-43.311536458333336
-43.35346354166666
-43.3691015625
-43.33274739583333
-43.32046875
-43.33022135416667
-43.39080729166667
-43.4938671875
-43.52688802083333
-43.56196614583333
-43.61209635416667
-43.65026041666667
-43.66380208333333
-43.698177083333334
-43.712473958333334
-43.748997395833335
-43.7991015625
-43.761875
-43.54018229166667
-43.33326822916667
-43.2673828125
-43.279322916666665
-43.322903645833335
-43.3358984375
-43.3616015625
-43.40322916666667
-43.373997395833335
-43.3599609375
-43.397044270833334
-43.4394140625
-43.48716145833333
-43.5423046875
-43.58188802083333
-43.60721354166667
-43.632213541666665
-43.74006510416667
-43.758059895833334
-43.7922265625
-43.874010416666664
-43.806966145833336
-43.59162760416667
-43.43736979166667
-43.418697916666666
-43.438541666666666
-43.4804296875
-43.52526041666667
-43.594036458333335
-43.587513020833335
-43.57014322916667
-43.580638020833334
-43.58798177083333
-43.635403645833335
-43.689609375
-43.737109375
-43.78106770833333
-43.80575520833333
-43.87911458333333
-43.88036458333333
-43.912395833333335
-43.951106770833334
-43.98651041666667
-43.93430989583333
-43.75173177083333
-43.60421875
-43.58377604166667
-43.60733072916667
-43.65197916666666
-43.70131510416667
-43.757890625
-43.755872395833336
-43.72087239583333
-43.69763020833334
-43.70846354166667
-43.73802083333333
-43.794908854166664
-43.831171875
-43.858372395833335
-43.92075520833333
-43.93696614583333
-43.95388020833333
-43.9720703125
-43.97731770833333
-43.85760416666667
-43.64834635416667
-43.51619791666667
-43.504869791666664
-43.553515625
-43.5622265625
-43.611171875
-43.6243359375
-43.57760416666667
-43.5515625
-43.5785546875
-43.60684895833333
-43.62345052083333
-43.6862109375
-43.72576822916667
-43.76455729166667
-43.8135546875
-43.83381510416667
-43.834583333333335
-43.8552734375
-43.88524739583333
-43.824544270833336
-43.39078125
-43.307239583333335
-43.307330729166665
-43.3203125
-43.343020833333334
-43.38649739583333
-43.4027734375
-43.367890625
-43.33282552083333
-43.34462239583333
-43.378359375
-43.422916666666666
-43.47317708333333
-43.514140625
-43.5296484375
-43.56108072916667
-43.589466145833335
-43.62885416666666
-43.67932291666666
-43.698971354166666
-43.7166015625
-43.65145833333333
-43.38359375
-43.1932421875
-43.145846354166665
-43.155690104166666
-43.72610677083333
-43.6664453125
-43.6999609375
-43.7134765625
-43.689609375
-43.6655859375
-43.69061197916667
-43.725833333333334
-43.80489583333333
-43.85177083333333
-43.87953125
-43.938203125
-43.9639453125
-43.99235677083333
-43.491497395833335
-43.60299479166667
-43.631145833333335
-43.660859375
-43.71880208333334
-43.665
-43.408489583333335
-43.20006510416667
-43.153645833333336
-43.15794270833333
-43.750377604166665
-43.7087890625
-43.7619140625
-43.767565104166664
-43.73721354166667
-43.698125
-43.71045572916667
-43.74494791666667
-43.7893359375
-43.8352734375
-43.871080729166664
-43.9159375
-43.960338541666665
-43.50540364583333
-43.59583333333333
-43.64247395833333
-43.687161458333335
-43.64294270833334
-43.5085546875
-43.40579427083333
-43.37975260416667
-43.338580729166665
-43.238619791666665
-43.314453125
-43.34055989583333
-43.876796875
-43.756809895833335
-43.7273046875
-43.74821614583333
-43.465091145833334
-43.85848958333333
-43.91734375
-43.94212239583333
-43.97936197916667
-43.48203125
-43.584270833333335
-43.58475260416667
-43.412486979166665
-43.15717447916666
-43.03403645833333
-43.038671875
-43.6221484375
-43.58705729166667
-43.63453125
-43.320872395833334
-43.607135416666665
-43.6042578125
-43.57569010416667
-43.606432291666664
-43.654947916666664
-43.70712239583333
-43.709609375
-43.75477864583333
-43.796223958333336
-43.851861979166664
-43.893229166666664
-43.86682291666666
-43.65828125
-43.4083203125
-43.2805859375
-43.3009375
-43.3648828125
-43.3865234375
-43.44580729166667
-43.4717578125
-43.45028645833333
-43.42372395833333
-43.437526041666665
-43.458658854166664
-43.50817708333334
-43.548893229166666
-43.6119140625
-43.660169270833336
-43.7042578125
-43.74229166666667
-43.7742578125
-43.7646484375
-43.566966145833334
-43.3175
-43.242122395833334
-43.331067708333336
-43.386171875
-43.41454427083333
-43.4098046875
-43.38912760416667
-43.389453125
-43.43671875
-43.51384114583333
-43.5850390625
-43.6409375
-43.6937890625
-43.752330729166665
-43.774075520833335
-43.80186197916667
-43.84591145833333
-43.8132421875
-43.63235677083333
-43.400091145833336
-43.3244921875
-43.3316015625
-43.370807291666665
-43.38471354166666
-43.43497395833333
-43.469752604166665
-43.480625
-43.4551171875
-43.4728125
-43.51345052083333
-43.529283854166664
-43.57696614583333
-43.608203125
-43.66671875
-43.75578125
-43.77723958333333
-43.82041666666667
-43.84072916666667
-43.8805859375
-43.94096354166667
-43.979765625
-43.98477864583333
-43.26970052083333
-43.1001171875
-43.03458333333333
-43.03561197916667
-43.601979166666666
-43.5713671875
-43.59690104166667
-43.6012109375
-43.60716145833333
-43.61403645833333
-43.63548177083333
-43.66662760416666
-43.712330729166666
-43.7547265625
-43.7899609375
-43.814752604166664
-43.87975260416667
-43.90440104166667
-43.91264322916667
-43.912434895833336
-43.4381640625
-43.56946614583333
-43.1023828125
-43.67436197916667
-43.36834635416667
-43.135403645833335
-43.72368489583334
-44.22315104166667
-44.279309895833336
-43.982122395833336
