43.657373046875
43.193310546875
42.735540364583336
42.73915364583333
91.42145182291667
85.837294921875
78.508349609375
89.75213216145833
89.775810546875
77.40177408854167
83.13578450520833
86.32027018229167
80.23925455729167
81.97255533854167
82.00720377604166
82.23544596354166
82.41362955729167
77.87161783854167
78.09663736979167
76.50373697916666
80.07747721354167
80.17029947916667
79.852333984375
78.64386393229167
77.94104817708333
77.83862955729167
79.38196940104167
79.15961588541667
79.22329427083334
76.08271158854167
76.25603841145833
76.32204752604167
76.41188151041666
76.59712239583334
76.84169270833333
77.06765950520834
77.33319661458333
77.52225260416667
77.72887369791667
77.951474609375
78.14194661458333
78.31434895833333
78.47067708333333
78.62245442708333
78.73798502604167
78.70795247395833
76.02895833333334
78.39543619791667
78.15630533854167
79.81259765625
80.76580729166666
80.77249348958334
80.94212239583334
76.63274739583333
76.71359049479166
76.7799609375
76.936220703125
77.15294921875
77.40470377604167
77.66335611979167
77.90539713541666
78.06955078125
78.29646484375
78.48686197916666
78.73033854166667
78.92699544270833
79.105966796875
79.27208658854167
82.833310546875
82.971435546875
83.13277018229167
83.21889322916667
82.49105143229167
79.225361328125
78.62788411458334
78.56832682291666
80.12667317708333
81.14394205729167
81.154853515625
81.336357421875
76.98013671875
76.98869140625
77.08897786458333
77.272451171875
77.51606119791667
77.73744466145833
77.99034830729167
78.23120768229167
78.443662109375
78.584345703125
78.76688802083333
78.969052734375
79.188359375
79.36807942708333
79.5070703125
79.6710546875
79.84017252604167
80.03173177083333
80.17372721354167
80.18460611979167
78.99021158854167
80.57662760416666
79.93636067708333
80.00743489583333
81.68512044270834
81.43535481770833
81.47620768229167
77.07381184895833
77.24380859375
77.32124674479167
77.43145182291667
77.61742513020833
77.86443033854167
79.42111328125
79.67490234375
79.89917317708333
78.55148763020833
78.732431640625
78.92371419270833
82.42332682291666
82.61201822916667
82.75242513020834
82.88422526041667
83.04819986979167
83.30319010416666
83.489033203125
83.62242838541667
83.73205078125
83.461572265625
81.8358203125
80.50146158854167
80.21984049479167
80.33146809895834
81.917001953125
81.85002604166667
82.00151041666666
82.18837239583333
78.93998372395833
78.97008138020833
79.10152018229167
79.31689127604167
79.58695963541666
79.8796875
80.16548502604167
80.38334635416666
80.57873697916666
79.212822265625
79.40824869791666
79.56760091145833
83.00015950520833
83.1428125
83.30650065104167
83.4323828125
83.63972330729166
83.92569986979167
84.0766796875
84.13825520833333
83.19159830729167
81.37111002604166
80.51360677083333
80.54190755208333
82.2715625
82.32326171875
82.32880533854167
79.193408203125
79.271767578125
79.32710611979167
79.46858072916666
79.71460286458333
79.96494791666667
80.17300130208334
80.41377604166667
80.60490559895834
80.69622721354166
80.72336588541667
80.79138346354166
80.901171875
81.074658203125
81.31540690104167
81.53049479166667
81.79703450520833
80.49279947916666
80.81370442708334
81.09233723958333
81.220400390625
83.59938151041666
81.195205078125
79.98875325520834
79.57156901041667
81.03059895833333
81.10457682291667
77.83149739583334
77.79151692708334
77.764404296875
77.595380859375
77.66331380208334
77.75752278645834
77.92715494791666
78.07173828125
78.31055013020833
78.47592447916666
78.807333984375
79.0713671875
79.32491536458333
79.5573828125
79.81404947916667
80.081337890625
80.44051106770833
80.91651692708334
81.34283203125
81.57723958333334
79.11828125
77.453564453125
76.82607421875
76.87557942708334
81.96110677083334
81.95636067708334
82.09975911458334
77.78272786458334
77.76063151041667
77.76598958333334
79.094638671875
79.36559895833334
79.72499674479167
80.039833984375
80.29109375
80.52747721354167
80.72506510416666
80.88827473958334
80.994541015625
81.086552734375
81.22739583333333
81.42319986979167
81.583525390625
79.72626953125
77.84337565104167
79.62759765625
79.30954427083333
80.94942057291667
80.98260091145833
80.871357421875
81.06616861979167
77.86861002604167
77.783447265625
77.7273046875
77.79107421875
78.0383984375
78.36722330729167
78.66705729166667
79.00483072916667
79.47671549479166
79.76493815104166
80.017763671875
80.23634765625
80.43866536458333
80.66784505208334
80.96954427083334
81.29030924479167
80.98061848958334
78.94679036458334
77.61001302083334
77.31437825520834
77.3888671875
78.98852864583333
78.72918294270833
78.73448893229167
77.61015625
77.57591471354166
77.51199544270834
77.52566080729167
77.68229166666667
77.89961588541667
78.14213216145833
78.36242838541666
78.62968424479166
78.92709309895834
77.54446940104167
77.76955729166667
79.42342122395833
79.77298502604167
79.874482421875
80.06294270833334
80.35430013020833
80.26023111979167
78.69474609375
76.25036458333334
75.268125
75.03677083333334
76.38035481770834
76.158662109375
76.00592122395834
76.164677734375
77.701142578125
71.457158203125
71.453515625
71.570361328125
69.75259765625
69.96931315104166
69.78510416666667
70.35797526041667
70.554072265625
70.81229166666667
70.98043619791666
71.225234375
71.517626953125
71.81945963541666
72.118134765625
71.0158203125
71.25466145833333
71.40638997395833
70.3234765625
74.90904296875
73.92514322916666
73.73431966145833
75.07946940104166
75.083720703125
74.43510416666666
67.467802734375
67.55194010416666
67.51462565104167
67.468671875
67.47109049479167
67.56036458333334
67.74700846354166
67.938291015625
68.1628125
68.41462890625
68.65907552083333
68.90415364583333
69.11608723958334
69.32973307291667
69.58787109375
70.75643880208334
71.03529622395833
71.732119140625
71.933095703125
70.855712890625
71.163466796875
70.98515625
69.193095703125
67.63725911458333
70.35339518229166
70.35566731770834
71.76150065104167
71.14703450520834
71.03312174479167
71.16056640625
67.98934244791667
68.05337890625
68.18566731770834
68.414921875
68.68564453125
68.966201171875
69.229462890625
69.52249674479167
69.80423828125
70.058427734375
70.31689453125
70.55262369791667
70.8183984375
71.08933268229167
71.77424153645833
72.06083333333333
70.987314453125
71.29275065104167
74.79473958333334
75.02810546875
74.80774739583333
73.03689127604167
71.323955078125
70.88224934895834
70.982724609375
72.51443033854167
72.024921875
72.06086588541666
72.286728515625
72.40180013020833
69.16207682291666
69.742744140625
70.00063151041667
70.3093359375
70.64588216145833
70.9607421875
72.46518229166666
73.09770182291666
73.30045247395833
73.95181640625
74.16871744791666
74.41992513020833
74.6878515625
73.41133138020834
73.44248046875
75.23744791666667
75.18122395833333
75.065556640625
74.18813151041667
72.63397786458333
71.793486328125
73.265390625
73.41233723958334
73.15056640625
71.3907421875
71.706220703125
71.90510416666666
71.989423828125
72.15723307291667
72.44258138020834
72.84543294270833
73.3862890625
74.01294921875
74.47765299479167
74.78491536458333
75.56292317708333
74.44757486979167
74.921376953125
75.40589192708333
77.78267903645833
78.1290234375
78.48857096354166
77.179541015625
76.9660546875
75.75708984375
79.784873046875
79.37007161458334
81.151796875
81.1109375
81.064873046875
81.25539388020833
76.18808919270833
76.32278645833334
76.40546223958333
76.60060221354166
76.9100390625
77.29349283854167
77.588681640625
77.869326171875
78.09969075520833
78.74469401041667
78.92080729166666
79.092373046875
82.59119466145833
82.66059895833334
82.71548502604166
82.82969075520833
82.93576171875
82.637470703125
81.41208658854167
80.70469075520833
80.65277018229166
80.86028971354166
82.69032877604167
82.82236653645833
79.883955078125
80.11097330729167
80.36
78.94916341145833
79.23575520833333
79.65642578125
83.104423828125
83.30683919270834
83.50416341145834
83.69827473958334
83.92015625
84.099853515625
84.19087565104167
84.242763671875
84.45502604166667
84.671650390625
84.69316731770833
84.541904296875
83.45311197916666
82.112294921875
81.55487955729167
81.59157877604167
81.63623046875
83.08318684895833
82.90765625
82.68176106770834
82.46623372395834
79.00886067708333
78.911591796875
78.98192057291666
79.07912434895833
79.29423828125
79.48851888020833
79.559833984375
79.67829427083333
79.840869140625
79.97291015625
80.09328125
80.16965494791667
80.30918294270833
80.56779296875
80.68859049479167
80.6192578125
79.45794596354166
77.20498046875
75.9953125
75.75126953125
77.2063671875
77.12818033854167
77.08018229166667
76.80099609375
73.01687174479167
73.14638020833333
73.31293619791667
73.54054036458334
73.845712890625
74.15400716145834
74.4847265625
74.77055989583333
75.43283854166667
75.58463541666667
75.73507486979166
75.88561848958334
78.01107421875
78.17561848958333
78.37512044270834
77.09017578125
77.37322591145833
77.39658854166667
78.303525390625
75.91395182291667
74.81139322916667
74.60850260416667
76.08930338541667
75.50455078125
71.40373697916667
71.44339518229167
71.50521484375
71.41021809895834
71.30961263020833
71.337802734375
71.53280598958334
73.279130859375
73.48181966145833
71.20925455729167
71.467763671875
70.20646158854167
70.44701497395833
70.67013346354166
70.85239583333333
73.52778971354167
73.69328125
73.94372721354166
74.256796875
74.5817578125
74.85967122395833
75.25761067708333
73.76257161458334
71.710986328125
70.89697916666667
70.7229296875
71.72355794270834
71.54403971354166
71.24191080729166
71.116708984375
68.35748046875
68.31115234375
68.30911458333334
68.36703776041666
68.48568033854167
68.52242838541666
68.467939453125
68.61560872395833
68.76745768229166
68.935419921875
69.01876953125
69.1794140625
69.44500325520833
69.81791341145833
70.19161783854166
70.53487955729166
70.64497395833334
69.62720377604167
66.4528515625
65.66348958333333
65.47810546875
69.23921223958334
69.12150390625
69.092841796875
66.73583333333333
66.59834635416667
66.35690755208333
66.187900390625
66.23185872395834
67.76652018229167
68.13828776041667
68.54891927083334
68.853720703125
65.347509765625
64.3048046875
64.55777669270833
68.534228515625
68.89604166666666
69.21120442708333
69.24146484375
67.99345052083333
66.39870442708333
65.76605143229166
65.70633138020834
66.99705078125
66.97820638020833
67.05796549479167
67.23280924479167
63.550087890625
63.48871744791666
63.52911458333333
63.666819661458334
63.89044921875
64.16444661458333
64.475771484375
64.75724609375
64.93760091145833
63.85889322916667
64.01429036458333
64.13254557291667
67.881455078125
67.98553059895833
67.60492513020833
65.83986979166667
64.53601236979166
63.9810546875
65.07429036458333
64.871904296875
64.59850260416667
60.82764322916667
60.77475911458333
60.67029296875
61.794117838541666
61.78869466145834
61.87922526041667
61.718759765625
61.84263671875
61.94913411458333
62.09005533854167
62.20177408854167
62.294446614583336
61.20161458333333
61.3742578125
61.547607421875
62.06701171875
62.30265950520833
62.376171875
61.52338541666666
60.05093424479167
59.234521484375
58.9051953125
59.881572265625
59.61125325520833
59.13336263020833
58.97787434895833
58.959973958333336
55.12960611979167
55.09073567708333
55.087744140625
55.145358072916665
55.222438151041665
55.34409830729167
55.46548828125
55.60153971354167
55.739964192708335
55.86717122395833
56.025068359375
56.22354817708333
56.403782552083335
56.58540364583333
56.808033854166666
57.071083984375
57.05743489583333
56.10139322916667
54.97609700520833
54.40235026041667
54.21633138020833
54.13328450520833
53.928792317708336
53.806695963541664
53.797158203125
53.786728515625
53.73934244791667
53.716998697916665
53.775537109375
53.86001953125
53.96015299479166
54.086494140625
54.23282552083333
54.361279296875
54.49313151041667
54.65700520833333
54.81638997395833
54.96072591145833
55.13056640625
55.3762109375
55.60216471354167
55.568232421875
54.625888671875
53.679619140625
53.33901041666667
53.20779947916667
54.10064778645833
54.04106770833334
52.393330078125
52.43467122395833
52.38272135416667
52.338811848958336
52.34925130208333
52.416728515625
52.535846354166665
52.67649088541667
52.818470052083335
52.955390625
53.05904947916667
53.16695963541667
53.268525390625
53.37240559895833
53.49234049479167
52.80538411458333
52.84158203125
52.242916666666666
53.01609375
52.55192708333333
52.40316731770833
53.231692708333334
53.147447916666664
53.098958333333336
51.56333333333333
51.56159830729167
51.51037109375
51.511302083333334
51.568919270833334
51.69847005208333
51.865361328125
52.022936197916664
52.158024088541666
52.32714192708333
52.46345377604167
52.57890950520834
52.724596354166664
52.919873046875
53.154039713541664
53.283310546875
52.69583333333333
50.978779296875
50.56556640625
50.452281901041665
51.224368489583334
52.710559895833335
52.62576171875
52.701998697916665
51.181490885416665
51.187890625
51.210628255208334
51.28031901041667
51.406979166666666
51.578125
51.75701822916667
51.93332682291667
52.134098307291666
52.354625651041665
52.519869791666665
52.67832356770833
52.878564453125
53.1391796875
53.382099609375
53.311497395833335
51.500094401041665
50.747060546875
50.47318359375
51.24912434895833
51.20329427083333
51.16956380208333
51.141057942708336
51.23248372395833
51.25112955729167
51.25779622395833
51.31845052083333
51.41717447916667
51.55494791666667
51.71685546875
51.874768880208336
52.03593424479167
52.224420572916664
52.3480078125
52.47738606770833
52.6328515625
52.807646484375
52.9579296875
53.20243815104167
53.426298828125
53.36469401041666
51.498291015625
50.63861328125
50.286432291666664
50.99424479166667
52.50999348958333
52.40577799479167
52.32662760416667
50.844469401041664
50.894869791666665
50.925654296875
50.95713216145833
51.04805989583333
51.17040364583333
51.311565755208335
51.47128255208333
51.63728515625
51.813486328125
51.947819010416666
52.105361328125
52.282399088541666
52.46712890625
52.67122721354167
52.91786458333333
53.146731770833334
53.40560221354167
53.66128580729167
52.89979817708333
52.055439453125
52.498548177083336
52.014033203125
51.907021484375
52.76438802083333
52.67524088541666
52.56403971354167
51.043756510416664
51.10681966145833
51.09491861979166
51.10631510416667
51.183704427083335
51.32484375
51.465927734375
51.62283854166667
51.7811328125
51.95970703125
52.11206705729167
52.3059765625
52.47467122395833
52.670764973958335
52.87429036458333
53.077373046875
53.30892252604167
53.556546223958335
53.81052408854167
53.183134765625
53.34976888020833
54.323046875
52.91201171875
52.297229817708335
52.167903645833334
53.07680338541667
52.99627604166667
51.31779296875
51.33259440104167
51.37312174479167
51.37927408854166
51.374430338541664
51.404322916666665
51.505537109375
51.6486328125
51.78944986979167
51.93884114583334
52.08458658854167
52.206715494791666
52.335940755208334
52.470146484375
52.62386393229167
52.82430989583333
53.063831380208335
53.29049153645833
53.475263671875
53.68702799479167
53.900263671875
54.12496744791667
53.04361328125
51.854993489583336
50.97877604166667
50.71472330729166
51.554453125
53.15847005208333
53.089830729166664
53.053463541666666
51.515537109375
51.527080078125
51.5073046875
51.55672526041667
51.649768880208335
51.80865559895833
51.95335286458333
52.10521809895833
52.2693359375
52.47683919270833
52.64466145833333
52.800686848958335
52.97711263020833
53.185367838541666
53.41912109375
53.66000325520833
53.89511067708333
54.15176432291667
53.542958984375
53.5110546875
52.285263671875
52.834065755208336
52.484033203125
53.352548828125
53.35854166666667
53.37548828125
53.36572916666667
51.84553385416667
51.858899739583336
51.81185546875
51.82869791666667
51.923841145833336
52.06950520833333
52.23338216145833
52.4403515625
52.661259765625
52.83027669270833
52.983037109375
53.13675130208333
53.294879557291665
53.47172526041667
53.667467447916664
53.87956380208333
54.147649739583336
54.382496744791666
53.137447916666666
51.922451171875
51.20054036458333
52.593395182291665
53.54328776041667
53.613876953125
52.03496419270834
52.15629557291667
52.17201822916667
52.10416341145833
52.06394856770833
52.11153971354167
52.243740234375
52.466197916666665
52.65808268229166
52.877757161458334
53.0352734375
53.17267578125
53.28627604166667
53.414195963541665
53.577939453125
53.809596354166665
54.04141927083333
53.95671875
52.895390625
51.1608984375
50.90463216145833
52.46256184895833
53.404095052083335
53.376103515625
51.85976236979167
51.946819661458335
51.88369791666667
51.84154622395833
51.89915364583333
52.04514973958333
52.235146484375
52.429417317708335
52.60988606770833
52.7855859375
52.9083203125
53.001474609375
53.10206705729167
53.26724934895833
53.48646484375
53.62587565104167
52.976884765625
51.934925130208335
51.396861979166665
51.2461328125
51.216767578125
52.00869140625
51.92509440104167
51.975299479166665
49.28757486979167
49.249212239583336
49.25415690104167
49.294918619791666
49.366640625
49.49150716145834
49.597057291666665
49.722669270833336
49.833033854166665
49.945224609375
49.288929036458335
49.412340494791664
52.25882161458333
52.420055338541665
52.581585286458335
52.235120442708336
51.255777994791664
50.597835286458334
50.291422526041664
51.0138671875
50.822916666666664
48.17661783854167
48.15092447916667
48.176214192708336
48.147060546875
47.8030078125
47.8201953125
48.170016276041665
47.9409375
48.03379557291667
48.13459635416667
48.554361979166664
48.65154947916667
48.767197265625
48.86697591145833
48.997057291666664
49.126396484375
49.27795247395834
49.466171875
49.69865234375
49.804388020833336
48.48769205729167
47.69271484375
47.259996744791664
47.794248046875
50.071956380208334
49.56046223958333
49.41998046875
47.09500651041667
47.12991536458333
47.1218359375
46.961354166666666
46.994427083333335
47.059873046875
47.116455078125
47.20348958333334
47.28716796875
47.379873046875
47.490289713541664
47.58710611979166
47.685029296875
47.80425130208334
47.95712890625
48.080494791666666
48.50946940104166
48.64876953125
48.81260091145833
48.91506184895833
48.46734375
47.74265625
47.269947916666666
47.114462890625
47.029895833333335
46.6654296875
46.55111002604167
46.48877604166667
46.544407552083335
47.199215494791666
47.13876302083333
47.15791015625
47.217044270833334
45.8065234375
45.89869791666667
45.97963216145833
46.0465234375
46.11616536458333
45.611399739583334
45.795354817708336
45.89723958333333
46.0028125
47.64903971354167
47.772242838541665
47.91077473958333
48.044931640625
48.18168619791667
48.65905924479166
48.50329427083334
47.709918619791665
47.11933919270833
46.887646484375
46.814860026041664
46.4938671875
47.068118489583334
46.96875
46.98439127604167
45.638017578125
45.64833984375
45.673082682291664
45.71601236979166
45.76628255208333
45.856783854166665
45.92841796875
46.01036783854167
46.09342122395833
45.574459635416666
45.704130859375
45.80953450520833
47.3971875
47.52771809895833
47.676455078125
47.808505859375
47.973170572916665
48.16921875
48.31470703125
48.33747721354167
47.515774739583335
46.99973958333333
46.823665364583334
46.79762369791667
47.192874348958334
46.905270182291666
46.879404296875
45.37199544270833
45.41222981770834
45.4153515625
45.44797526041667
45.51166015625
45.613011067708335
45.721080729166665
45.824619140625
45.93818359375
45.45049153645834
45.850657552083334
45.971708984375
47.651966145833335
47.76984375
47.91508463541667
48.09265950520833
48.24722330729167
48.44547200520833
48.935602213541664
48.858076171875
48.03561197916667
47.378834635416666
47.19956705729167
47.183421223958334
46.96399739583333
46.96984700520834
47.025439453125
47.02728515625
47.012027994791666
46.983955078125
47.01509114583333
47.11934895833333
47.257412109375
47.40022135416667
47.527750651041664
47.64388346354167
47.777454427083335
47.88760416666667
47.99843098958333
48.127268880208334
48.264375
48.76244140625
48.97891276041667
49.060452473958335
48.43906901041667
47.71815755208333
47.40982096354167
47.3738671875
47.39240885416667
47.14396809895833
47.20878580729167
47.22933268229167
47.240546875
47.20436848958333
47.23287434895833
47.32629231770834
47.456471354166666
47.63131184895833
47.79078125
47.932779947916664
48.0823046875
48.22735677083333
48.353212890625
48.7994140625
48.95641927083334
49.179365234375
49.51606119791666
49.48662434895834
48.56977864583333
47.05074544270833
46.828912760416664
46.77693359375
49.71331705729167
49.236585286458336
49.18046549479167
46.85459635416667
46.885908203125
46.886295572916666
46.956477864583334
47.013050130208335
47.135009765625
47.25886393229167
47.42283203125
47.590289713541665
47.74413411458333
47.89879557291667
48.07482096354167
48.563059895833334
48.73423828125
48.922076822916665
49.122080078125
49.358128255208335
49.615263671875
49.595026041666664
47.830771484375
47.02989908854167
48.88587890625
49.565198567708336
49.49315755208333
46.98623697916667
47.653375651041664
47.513271484375
45.700250651041664
45.719860026041665
45.73318359375
45.79282877604167
45.883297526041666
45.988076171875
46.10783528645833
46.21705078125
45.70746744791666
46.10429361979167
46.22322916666667
46.344462890625
48.206233723958334
48.376070963541665
48.57638346354167
49.044827473958335
49.23439453125
49.42857421875
49.98217122395833
50.11299153645833
49.436396484375
47.44531901041667
46.958193359375
46.838854166666664
49.83306966145833
49.383557942708336
49.275013020833335
47.69976888020833
47.69183268229167
47.688095703125
46.02845052083333
46.108304036458335
46.176708984375
46.26021809895833
46.35345703125
46.456868489583336
46.560804036458336
46.03128255208333
46.18236328125
47.953180338541664
48.096015625
48.29023111979166
48.504716796875
48.70876302083333
49.21056640625
49.495634765625
49.70177734375
49.914781901041664
50.06421875
48.17889322916667
47.258857421875
49.24893880208333
49.993489583333336
49.94242838541667
47.19403971354166
47.908115234375
47.925725911458336
47.93142903645833
47.974918619791666
48.02716145833333
47.99832356770833
48.15455729166667
48.31002604166667
46.15669270833333
46.367353515625
46.479479166666664
48.34027994791666
48.47375
48.63636067708333
49.148828125
49.344921875
49.55447916666667
49.906982421875
50.11449544270833
49.579876302083335
49.83028645833333
50.03057942708333
49.97865885416667
51.32261067708333
49.999811197916664
49.57546223958333
50.514580078125
50.558232421875
50.193408203125
47.784274088541665
47.863544921875
47.87157552083333
47.8543359375
47.905436197916664
48.00241861979167
48.161975911458335
48.33732747395833
48.511852213541665
48.68012369791666
48.858639322916666
49.37406901041667
49.556897786458336
49.75685546875
49.959375
50.16773111979167
50.384534505208336
50.660305989583335
50.140979817708335
50.22996419270833
49.242418619791664
50.55001302083333
50.087718098958334
50.096302083333335
51.010869140625
50.70287434895833
50.807138671875
48.36243489583333
48.33623046875
48.269326171875
48.31789388020833
48.77953450520833
48.635712890625
48.85451171875
49.102451171875
49.642591145833336
49.853701171875
50.03893880208334
50.19434244791667
50.35481119791667
50.55003255208333
50.79578125
51.02549153645833
50.29446614583333
49.312919921875
50.688313802083336
50.22170247395833
51.04758463541667
51.07322265625
50.7487109375
50.81630208333333
48.350123697916665
48.35484049479167
48.29405924479167
48.3730078125
48.47800455729167
48.65975260416667
48.880208333333336
49.103349609375
49.30068359375
49.79685872395833
49.953326822916665
50.09762369791667
50.27593098958334
50.465244140625
50.66531575520833
50.913873697916664
50.330771484375
50.00231119791667
48.576861979166665
47.789820963541665
47.5427734375
50.65622721354167
50.50140625
50.01376302083333
48.28588216145833
48.22408854166667
48.192027994791665
48.110172526041666
48.164837239583335
48.25256510416666
48.390950520833336
48.53697916666667
48.688876953125
48.828818359375
48.21673828125
48.42225911458333
48.6596484375
49.086741536458334
49.24980143229167
49.439501953125
49.62967447916667
49.827314453125
50.045787760416665
50.13857096354167
49.314358723958335
48.17063151041667
47.68824869791667
47.52390299479167
48.143131510416666
47.582936197916666
47.445419921875
47.381214192708335
47.42090494791667
47.39314453125
47.38119466145833
47.415325520833335
47.496171875
47.595699869791666
47.68419596354167
47.788356119791665
47.88289713541667
48.0308984375
48.17458984375
48.29184895833333
48.454169921875
48.626705729166666
48.83692057291667
48.293606770833335
48.526302083333334
48.69818359375
49.182509765625
49.37365234375
49.712809244791664
49.63644205729167
48.478642578125
47.4723828125
47.076767578125
46.970361328125
47.313212890625
47.15547200520833
47.02205729166667
46.99037434895833
47.0066015625
46.972408854166666
46.97873046875
47.03086263020833
47.1189453125
47.224192708333334
47.338619791666666
47.46554036458333
47.602106119791664
47.72334309895833
47.874322916666664
48.024820963541664
48.17524088541666
48.38142578125
48.57332682291667
48.77741861979167
48.24284505208333
48.48382486979167
48.714560546875
49.24472005208333
49.51122395833333
49.040524088541666
47.812786458333335
47.160289713541665
46.94984700520833
47.621376953125
47.119052734375
46.9601953125
46.9468359375
45.27461263020833
45.323564453125
45.312672526041666
45.328310546875
45.3568359375
45.395361328125
45.4484375
45.51790690104167
45.595729166666665
45.65274739583333
45.7515625
45.8503125
45.94607747395833
46.074176432291665
46.21115234375
46.374254557291664
46.51557942708333
46.03165364583333
48.16435546875
48.37254231770833
48.581975911458336
48.559840494791665
47.554088541666665
47.103798828125
46.82884114583333
46.82481119791667
47.29222981770833
46.994075520833334
46.9711328125
47.022311197916665
45.40089518229167
45.415458984375
45.443577473958335
45.50248046875
45.583157552083335
45.698916015625
45.816822916666666
45.9373828125
46.04476888020833
46.140869140625
46.256044921875
46.39064453125
46.50349283854167
45.99388997395833
46.40664713541667
48.45919270833333
48.613675130208335
48.4946484375
47.633961588541666
47.20446614583334
46.941761067708335
47.64487630208333
47.18411458333333
47.134306640625
45.38894856770833
45.45288736979167
45.4337890625
45.40061197916667
45.421142578125
45.49058268229167
45.61218098958334
45.7677734375
45.922705078125
46.030924479166664
46.155244140625
46.27540690104167
46.38387369791667
46.51033854166667
46.009212239583334
48.188815104166665
48.4279296875
48.57289388020833
48.182431640625
47.13677734375
46.92934244791667
46.730859375
47.178876953125
47.017711588541665
47.068994140625
47.119098307291665
47.15757161458333
45.34999674479167
45.380481770833335
45.44721354166666
47.33267578125
47.48689453125
47.667529296875
47.85803385416666
48.04057942708334
48.20879231770834
48.412083333333335
48.617548828125
48.8380078125
49.05625325520833
48.501246744791665
48.79142578125
49.534329427083335
49.74374348958333
49.40032877604167
48.008235677083334
47.272692057291664
47.067099609375
47.74342447916667
47.25180989583333
47.131253255208335
45.341220703125
45.4142578125
45.433212890625
45.435872395833336
45.467760416666664
45.540296223958336
45.644716796875
45.75918619791667
45.86917643229167
45.99356119791667
46.12697265625
46.250299479166664
46.38613932291667
46.53616861979167
46.063251953125
48.25331380208333
48.481959635416665
48.694765625
49.01692057291667
49.203450520833336
49.756943359375
49.756822916666664
48.62427734375
47.498912760416665
47.12702799479167
47.06725911458334
47.46140625
47.23062174479167
47.12806640625
47.16306315104167
45.469241536458334
45.540087890625
45.561708984375
45.61869140625
45.71078125
45.838857421875
45.95826171875
46.07847005208333
46.198229166666664
46.316637369791664
46.454404296875
46.588909505208335
47.949677734375
48.254072265625
48.467939453125
48.77095703125
48.974215494791665
49.18125651041667
49.72555013020833
49.92611653645833
49.81114908854167
48.56151692708333
46.84850911458334
46.59107096354167
48.684248046875
49.091259765625
48.98188802083333
46.63872395833334
47.411959635416665
47.205240885416664
45.477848307291666
45.5241796875
45.58563151041667
45.70758138020833
45.825670572916664
45.97780598958333
47.95078125
48.09425455729167
48.27439453125
48.443203125
48.615341796875
48.801891276041665
48.26488606770833
48.566822916666666
48.798450520833335
49.425511067708335
49.63950846354167
49.808893229166664
49.39085286458333
48.041884765625
47.36068033854167
47.332724609375
48.06676432291667
47.765865885416666
47.55194010416667
47.57763020833333
47.62755859375
46.04548502604167
46.070556640625
46.11341145833333
46.18810221354167
46.30814127604167
46.4392578125
46.594798177083334
46.719013671875
46.82299153645833
46.93641927083333
46.391416015625
46.56434895833333
48.504873046875
48.67086263020833
48.891422526041666
49.226048177083335
49.635390625
48.86392578125
47.792926432291665
47.41443033854166
47.380478515625
47.87162109375
47.73561197916667
47.73918294270833
45.98203450520833
46.04137369791667
45.98913411458334
45.979801432291666
46.062542317708335
46.195569661458336
48.232516276041665
48.38984700520833
48.553509114583335
48.70801432291667
48.125078125
48.385198567708336
48.640224609375
48.764651692708334
49.27767903645833
49.188349609375
49.70863932291667
49.39572265625
48.220498046875
47.516057942708336
47.34113932291667
47.326158854166664
47.753811848958335
47.505130208333334
45.68903971354167
45.769488932291665
45.7673828125
45.76914713541667
45.794609375
45.873349609375
45.984775390625
46.099443359375
46.22412109375
46.35352213541667
46.45228841145833
46.5684375
48.61910807291667
48.020263671875
48.29140625
48.570009765625
48.73324544270833
48.963108723958335
49.18190755208333
49.10444010416666
48.343720703125
47.424495442708334
47.106455078125
47.04007486979167
47.42533854166667
47.09857096354167
46.96318359375
45.250830078125
45.28194661458333
45.254964192708336
45.2500390625
45.302867838541665
45.368974609375
45.44712239583333
45.5453125
45.65052734375
45.74032552083333
45.835634765625
45.91790690104167
46.03293619791667
46.15919596354167
46.299586588541665
46.47154947916667
46.621653645833334
46.76194661458333
48.14537760416667
48.420087890625
48.581500651041665
48.31462890625
47.526448567708336
46.629869791666664
46.700533854166665
47.03260091145833
46.919527994791665
45.34799153645833
45.34412434895833
45.36591471354166
45.33736979166667
45.32763671875
45.347972005208334
45.40404296875
45.47009765625
45.56311197916666
45.655
45.73448893229167
45.8402734375
45.95401692708333
46.050224609375
46.15517252604167
46.264895833333334
46.42599609375
46.589544270833336
46.736871744791664
46.8813671875
47.039208984375
46.548160807291666
46.597841796875
45.92340169270833
46.72103841145833
46.382268880208336
47.000921223958336
47.049495442708334
46.974482421875
46.91402994791667
45.4192578125
45.46464518229167
45.457265625
45.46615559895833
45.50249348958334
45.5915625
45.698619791666665
45.83803385416667
45.965625
46.1051953125
46.23591796875
46.378001302083334
46.56779296875
46.755862630208334
46.947197265625
46.50477864583333
46.56446940104167
46.745751953125
49.02941731770834
49.442369791666664
48.59728841145834
47.523076171875
47.147060546875
47.13246744791667
47.926761067708334
47.645572916666666
47.749794921875
47.843505859375
47.86091796875
47.786376953125
46.010556640625
46.16257486979167
46.347180989583336
48.47576822916667
48.72293294270833
48.209147135416664
48.471796875
48.654140625
49.10991536458334
49.388987630208334
49.559482421875
49.736826171875
49.927311197916666
50.03863606770833
49.394697265625
48.13478190104167
46.915393880208335
46.870602213541666
49.085950520833336
49.527262369791664
49.494886067708336
47.206110026041664
48.04400390625
47.98108723958333
47.90939127604167
47.989651692708335
48.148235677083335
48.290830078125
48.43203776041667
48.576943359375
48.67169270833333
48.726396484375
48.7840625
48.971927083333334
49.267568359375
48.716634114583336
48.947115885416665
49.439794921875
49.25643880208333
48.29073567708333
47.48966145833333
47.17558268229167
47.73660481770833
47.211995442708336
47.05669270833334
46.90959309895833
46.956796875
46.96137369791666
46.909716796875
46.91861002604167
47.021298828125
47.161373697916666
47.27839518229167
47.413684895833335
47.52464192708333
47.71407552083333
47.90923177083334
48.068359375
48.214921875
48.36839192708333
48.531985677083334
48.72944661458333
48.98539713541667
49.24395833333333
49.21257161458333
47.46177083333333
47.148684895833334
46.956614583333334
47.698919270833336
47.35041666666667
47.23502278645833
47.22302734375
45.47546549479166
45.57993815104167
45.59636067708333
45.62509765625
45.7366015625
45.83626627604167
45.98013346354167
46.092890625
46.22563151041667
46.358779296875
46.46111328125
46.584140625
48.68174479166667
48.11007161458333
48.40058919270833
48.68580078125
48.88279622395833
49.42936848958333
49.2596875
48.639742838541665
47.750445963541665
47.51357421875
48.28099609375
47.92996744791667
47.829830729166666
47.877314453125
48.029514973958335
48.05190104166667
48.05270182291667
48.11785807291667
48.24586588541667
48.42215169270833
48.620927734375
48.8349609375
49.02939453125
49.20560221354167
49.3472265625
48.725380859375
48.93111328125
49.44435546875
49.646617838541665
49.87846354166667
50.17042643229167
49.50502604166667
48.475992838541664
48.142034505208336
48.10536458333333
48.92003580729167
48.53033528645833
48.5286328125
48.6594140625
48.66246744791667
48.69062174479166
48.745768229166664
48.83947265625
49.006481119791665
49.212213541666664
49.410699869791664
49.607841796875
48.95994140625
49.499078776041664
49.67099609375
49.83882161458333
50.1855078125
50.36824869791667
50.593248697916664
50.80969075520834
51.07642252604167
51.205104166666665
50.40934895833333
48.573307291666666
48.30763997395833
50.86470052083333
51.770755208333334
51.40203776041667
48.797213541666665
48.89932291666667
48.94727213541667
48.978069661458335
49.02552734375
49.134479166666665
49.29812825520833
49.46177734375
49.63296549479167
50.14646809895833
50.294850260416666
50.46093098958333
50.601018880208336
50.788154296875
50.94875
51.112102864583335
51.32428059895833
51.55725911458333
51.756481119791665
51.1014453125
51.33947591145834
54.501614583333335
54.45488606770834
53.188235677083334
52.1183203125
51.84896809895833
52.77968424479167
52.79466145833333
52.781223958333335
52.819768880208336
50.138238932291664
50.1990625
50.19236328125
50.26534505208333
50.38126953125
50.55354166666667
50.74058268229167
50.925358072916666
51.046005859375
51.21623372395833
51.335634765625
51.4489453125
51.60055013020833
51.777682291666665
51.966852213541664
51.32080729166667
51.59574869791667
51.78939127604167
55.086787109375
55.33732747395833
55.395680338541666
54.325556640625
52.932115885416664
52.53144856770833
52.56857096354167
53.59703776041667
53.585341796875
50.695257161458336
50.795384114583335
50.83874674479166
50.836507161458336
50.852054036458334
50.94982747395834
51.092119140625
51.29933268229167
51.51792643229167
51.669993489583334
51.7980078125
51.903333333333336
51.980227864583334
52.06524739583333
52.20353841145833
51.38863606770833
51.42832682291667
51.45127604166667
54.398014322916666
54.17869466145833
53.043238932291665
51.786123046875
50.89569986979166
51.18796875
50.775576171875
50.21060872395833
50.88521484375
48.10416341145833
47.8907421875
47.64858072916667
47.36543294270833
47.97228190104167
47.862630208333336
45.931722005208336
45.92563802083333
45.889365234375
45.854423828125
45.82154296875
45.8047265625
45.77504231770833
45.753935546875
45.762965494791665
45.7338671875
45.64073893229167
45.26000325520833
44.79222981770833
44.48093424479167
44.30579427083333
44.81888671875
44.652646484375
44.51715169270833
43.69863932291667
43.660084635416666
43.57490234375
43.53478515625
43.50140299479167
43.51624348958333
43.490003255208336
43.49446940104167
43.502835286458335
43.49696940104167
43.5007421875
43.50401041666667
43.52448893229167
43.56201171875
43.582265625
43.57447265625
43.36240234375
43.071806640625
42.86805989583333
42.7625390625
43.28791666666667
43.18640950520833
43.22385416666667
43.176500651041664
42.951962890625
42.93161783854167
42.90726236979167
42.8980859375
42.917994791666665
42.945758463541665
42.941630859375
42.966435546875
42.98384114583333
42.995836588541664
43.02076171875
43.048040364583336
43.077337239583336
43.09662109375
43.028430989583335
42.84396158854167
42.635927734375
42.54138997395833
42.50786458333334
42.98916015625
42.870862630208336
42.78097005208333
42.786162109375
42.735797526041665
42.706865234375
42.68948567708333
42.69317708333333
42.71746744791667
42.73715169270833
42.75388671875
42.76115234375
42.76687825520833
42.786083984375
42.81776692708333
42.820771484375
42.852757161458335
42.862604166666664
42.76380208333333
42.55705078125
42.41995768229167
42.344752604166665
42.85443033854167
42.743639322916664
42.7104296875
42.70456705729167
42.80869791666667
42.826998697916665
42.8246484375
42.83338216145833
42.8658203125
42.886171875
42.93775065104167
43.01526692708333
43.04775390625
43.090387369791664
43.125185546875
43.154827473958335
43.18060546875
43.23241536458333
43.272532552083334
43.28115885416667
43.22999674479167
43.050725911458336
42.86936197916667
42.79582356770833
42.79088541666667
42.77041666666667
42.755481770833335
42.741266276041664
42.77150716145833
42.815888671875
42.821057942708336
42.825810546875
42.85902994791667
42.9006640625
42.936712239583336
42.969091796875
42.998463541666666
43.038385416666664
43.073404947916664
43.105777994791666
43.155384114583335
43.203684895833334
43.24054036458333
43.289593098958335
43.33351888020833
43.39213541666667
43.355576171875
43.17654622395833
43.013645833333335
42.45056966145833
42.55006510416667
42.548388671875
42.961712239583335
42.79685221354167
42.807275390625
42.97232421875
43.0310546875
43.049462890625
43.071627604166665
43.1025
43.141796875
43.1994140625
43.243733723958336
43.29010091145833
43.33417643229166
43.36799479166667
43.404134114583336
43.4498828125
43.48877604166667
42.99703776041667
43.115224609375
43.17087890625
43.128102213541666
42.855211588541664
42.68669921875
42.69078776041667
42.676471354166665
42.669078776041665
42.674274088541665
42.688610026041665
42.71130859375
42.70352864583333
42.813043619791664
42.870751953125
42.89984049479167
42.93650390625
42.969287109375
43.00257161458333
42.91922526041667
42.92063151041667
42.94322916666667
42.98037109375
42.99285807291667
43.05179036458333
43.094580078125
43.16119140625
43.210166015625
43.204736328125
43.136363932291665
43.01745768229166
42.98966796875
42.991077473958335
42.937024739583336
42.91660481770833
42.93022135416667
42.944010416666664
42.934000651041664
42.924313151041666
42.946318359375
42.984860026041666
43.022594401041665
43.07092447916666
43.1032421875
43.164319661458336
43.201061197916665
43.24876953125
43.274296875
43.3892578125
43.416829427083336
43.455091145833336
42.95810546875
43.07330403645833
43.098216145833334
42.9982421875
42.849856770833334
42.71998046875
42.700244140625
42.70925130208333
42.689423828125
43.23425130208334
43.181399739583334
43.176650390625
43.150729166666665
43.19754231770833
43.24992513020833
43.27770833333334
43.308203125
43.348466796875
43.3834765625
43.41979817708334
43.461490885416666
42.966142578125
43.05560546875
43.069879557291664
43.10878255208333
43.15501953125
43.16158203125
43.216363932291664
43.163098958333336
42.996689453125
42.875439453125
42.82802083333333
42.84506184895833
42.83740885416667
42.81479817708333
42.814482421875
42.825771484375
42.82388997395833
42.811549479166665
42.825426432291664
42.853505859375
42.88863932291667
42.92684895833333
42.95931315104167
42.99126953125
43.03285481770833
43.068600260416666
43.10129557291667
43.14162434895833
43.16836588541667
43.19404622395833
43.2441796875
43.306162109375
43.250804036458334
43.07563802083333
42.960992838541664
42.92255533854166
42.94142252604167
42.93422200520833
42.932314453125
42.955859375
42.944716796875
42.915341796875
42.926197916666666
42.9305078125
42.954036458333334
42.979791666666664
43.02255859375
43.04882161458333
43.077320963541666
43.118069661458335
43.11345703125
43.131907552083334
43.15585286458333
43.18844401041667
43.182278645833335
43.052965494791664
42.93414388020833
42.860416666666666
42.850179036458336
42.84962890625
42.85217447916666
42.85041015625
42.849658203125
42.834052734375
42.8016015625
42.819378255208335
42.83590169270833
42.8665625
42.90588541666666
42.943193359375
42.969951171875
42.995618489583336
43.01489908854167
43.05705403645833
43.076578776041664
43.140224609375
43.140231119791665
43.008372395833334
42.84097981770833
42.741155598958336
42.70324869791666
42.69168294270833
42.64755208333333
42.62923828125
43.08463216145833
43.06904622395833
43.067646484375
43.034313151041665
43.188723958333334
43.24637369791667
43.281139322916665
43.29998046875
43.363375651041665
43.37751627604167
43.42318033854167
43.452666015625
43.561015625
43.58221354166667
43.61382161458334
43.00978841145833
42.899563802083335
42.753229166666664
42.671748046875
42.491015625
42.92614908854166
42.70109375
42.87410807291667
42.917666015625
42.9362109375
42.9140625
42.93054036458334
42.94093424479167
42.98452799479167
43.01931966145833
43.06505859375
43.1158984375
43.142919921875
43.175537109375
43.21412109375
43.241748046875
43.3101953125
43.38599283854167
43.41675455729167
43.33009765625
43.13960286458333
43.07761393229167
43.03560546875
42.954661458333334
42.90908854166667
42.900660807291665
42.903414713541665
42.916240234375
42.9163671875
42.93243489583333
42.93822265625
42.970966796875
43.01661783854167
43.07294921875
43.10806315104167
43.15220703125
43.19141276041667
43.22641927083333
43.25445638020833
43.306995442708335
43.36143229166667
43.412685546875
43.48625325520833
43.50694010416667
43.5521875
42.81808268229167
42.73911458333333
42.697757161458334
42.70095703125
43.15817057291667
42.9038671875
42.89364583333333
42.917125651041665
43.034111328125
43.04824869791667
43.051051432291665
43.08297200520833
43.120533854166666
43.17509440104167
43.22089518229166
43.251533203125
43.272880859375
43.308720703125
43.36195638020833
43.4001953125
43.43054361979166
43.476708984375
43.59287434895833
43.63687825520833
43.12725911458333
43.153671875
42.8724609375
42.6900390625
42.65322265625
42.66019205729167
42.66094075520834
43.194150390625
43.11901041666667
43.176875
43.14932942708333
43.27686197916667
43.313134765625
43.319140625
43.34120442708333
43.39306640625
43.429309895833335
43.45630533854167
43.5039453125
43.614423828125
43.639267578125
43.11136393229167
43.21502604166667
43.12431640625
43.06828450520833
42.95491861979167
42.837405598958334
42.7669140625
42.746220703125
42.738935546875
42.731282552083336
42.75766927083333
42.80473958333334
42.83560872395833
42.818857421875
42.821490885416665
42.853525390625
42.878359375
42.91196614583333
42.95116536458333
42.992626953125
43.029560546875
43.072467447916665
43.089518229166664
43.086246744791666
43.078369140625
43.133017578125
43.107333984375
42.964244791666665
42.834345703125
42.77442057291667
42.775947265625
42.76643229166667
42.753336588541664
42.775325520833334
42.77921223958333
42.804700520833336
42.832373046875
42.843369140625
42.87203125
42.890247395833335
42.913889973958334
42.94154947916667
42.99037760416667
43.01318359375
43.04871419270833
43.08241536458333
43.11758463541667
43.151318359375
43.18287109375
43.146158854166664
42.947835286458336
42.77957682291667
42.71771158854167
42.703955078125
42.69445638020834
42.67120442708333
42.719654947916666
42.69663736979167
42.687444661458336
42.667779947916664
42.689423828125
42.704541015625
42.72673177083333
42.760927734375
42.814619140625
42.842220052083334
42.96015950520833
42.973795572916664
43.013805338541665
43.04547200520833
43.087421875
43.1198828125
43.09805989583333
42.9423046875
42.748463541666666
42.62538411458333
42.594495442708336
42.564140625
43.075634765625
42.93029296875
42.956728515625
43.00022135416667
42.9990625
43.11279947916667
43.15880859375
43.2092578125
43.256197916666665
43.27811197916667
43.33472330729167
43.394680989583335
43.414798177083334
43.460078125
43.566142578125
43.581539713541666
43.083076171875
43.194296875
43.22717122395834
43.169951171875
42.85672526041667
42.67672200520833
42.623264973958335
42.54765950520834
43.02303385416667
42.867421875
43.010380859375
43.079921875
43.07272135416667
43.06552083333333
43.0834765625
43.107158203125
43.12536783854166
43.176376953125
43.212389322916664
43.25681966145833
43.29715494791667
43.34693033854167
43.40002604166666
43.45048502604167
43.49768229166666
43.593753255208334
43.07815755208333
43.1957421875
43.049169921875
42.848046875
42.67246744791667
42.574443359375
42.545953776041664
43.06801106770833
42.9219921875
42.90595377604166
42.91800130208333
43.02037109375
43.029921875
43.04130859375
43.072412109375
43.119267578125
43.16306640625
43.20455078125
43.21971028645833
43.26026041666667
43.29796549479167
43.35124348958333
43.41220703125
43.446640625
43.503079427083335
43.60738606770833
42.956376953125
42.79702799479167
42.65158854166667
42.489794921875
42.956598307291664
42.7801171875
42.843408203125
42.880289713541664
42.88535807291667
42.873805338541665
42.87258138020833
42.890123697916664
42.91786458333333
42.96021484375
43.002672526041664
43.054765625
43.082841796875
43.126819661458335
43.15556966145834
43.18211263020833
43.236813151041666
43.271158854166664
43.315973307291664
43.401630859375
43.43933268229166
43.32624674479167
43.0956640625
42.482272135416665
42.474010416666665
42.39365885416667
42.758518880208335
42.626614583333335
42.646015625
42.75166015625
42.77640299479167
42.76522135416667
42.797877604166665
42.823255208333336
42.88809895833333
42.9321875
42.974091796875
43.025537109375
43.064423828125
43.101162109375
43.14550130208333
43.193492838541665
43.24060872395833
43.28317057291667
43.34366536458333
43.413623046875
43.46836588541667
43.36235026041667
43.123125
42.52201171875
42.54126953125
42.522379557291664
42.934140625
42.74893229166667
42.73353515625
42.74471354166667
42.8490625
42.877568359375
42.88877604166667
42.93859700520834
42.988636067708335
43.05531901041667
43.093115234375
43.12580078125
43.17076171875
43.213740234375
43.2442578125
43.32052734375
43.343805338541664
43.434016927083334
43.463701171875
43.536298828125
43.6414453125
43.02120442708333
42.874462890625
42.72437174479167
42.70103190104167
42.57146484375
43.004384765625
42.90883138020833
42.916748046875
42.93576171875
42.91278971354166
43.040592447916666
43.08585286458333
43.132093098958336
43.17882486979167
43.23790690104167
43.28409505208333
43.31619466145833
43.37766276041667
43.44887044270833
43.48659505208333
43.53255533854167
43.09672526041667
43.19674479166667
43.243411458333334
43.303141276041664
43.24024088541667
43.21830078125
43.0942578125
42.907275390625
42.81089518229167
42.80969075520834
42.75862955729167
42.703626302083336
42.71456705729167
42.695445963541665
42.74013671875
42.729296875
42.74402018229166
42.83517252604167
42.86243489583333
42.908216145833336
42.94521484375
42.99662109375
43.031412760416664
43.07851236979167
43.104453125
43.16152018229167
43.19277018229167
43.230716145833334
43.25062825520833
43.26552734375
43.32028971354167
43.36974934895834
43.296520182291665
43.10105143229167
42.433284505208334
42.451429036458336
42.46733072916667
42.958486328125
42.87294596354167
42.903525390625
43.000087890625
43.02634765625
43.01626953125
43.03958333333333
43.05980794270833
43.1062890625
43.13949544270833
43.18807291666667
43.22821940104166
43.291171875
43.31144856770833
43.34385416666667
43.374280598958336
43.42876302083334
43.483548177083335
43.474306640625
42.78646158854167
42.65782877604167
42.49643880208333
42.36259440104167
42.98937174479167
42.90251302083333
42.906588541666665
42.92885091145833
43.02825846354167
43.06701497395834
43.06025390625
43.07984375
43.11253255208333
43.15974609375
43.201171875
43.23400065104167
43.288141276041664
43.32783203125
43.36156575520833
43.381373697916665
43.43563151041667
43.4719140625
43.51547200520833
42.964404296875
42.882457682291665
42.69994466145833
42.43079427083333
42.33731119791667
42.95400065104167
42.85712890625
42.83510416666667
42.852666015625
42.97634765625
43.020458984375
43.0083984375
43.047076822916665
43.07177734375
43.131930338541665
43.17362955729167
43.215618489583335
43.251025390625
43.306708984375
43.32984375
43.376953125
43.4171484375
43.476494140625
43.5180078125
43.010322265625
43.061809895833335
42.895970052083335
42.567249348958335
42.40982421875
42.38222005208333
42.996474609375
42.8929296875
42.873736979166665
42.98176432291667
43.001263020833335
42.982958984375
43.044716796875
43.10798502604167
43.147060546875
43.18884440104166
43.237698567708335
43.30417643229167
43.361126302083335
43.41230794270833
43.50726236979167
43.618870442708335
43.600764973958334
42.927802734375
42.950504557291666
42.877369791666666
42.810520833333335
42.750133463541665
42.498505859375
42.253857421875
42.074560546875
42.51696940104166
42.396481119791666
42.481311848958335
42.93159505208333
42.85151692708333
42.637545572916665
42.639423828125
42.64297526041667
42.69725911458333
42.74978841145833
42.834072265625
42.91173828125
42.980078125
43.063548177083334
43.16165364583333
43.26119140625
42.848681640625
43.07913411458333
43.186207682291666
43.300540364583334
43.64876627604167
43.80497721354167
43.35108072916667
43.377958984375
43.144840494791666
43.046139322916666
43.016412760416664
43.00495768229167
42.954059244791665
42.909612630208336
42.9198046875
42.92939127604166
42.99775065104166
43.003076171875
43.01564778645833
43.02635091145833
43.06828450520833
43.107333984375
43.100572916666664
43.121676432291665
43.13443684895833
43.175625
43.201748046875
43.226735026041666
43.250416666666666
43.27638671875
43.298938802083335
43.35159830729167
43.21385091145833
43.00373046875
42.846637369791665
42.77175130208333
42.746839192708336
42.677151692708335
42.74292643229167
42.76178059895833
42.74921549479166
42.74186848958333
42.72536458333333
42.744801432291666
42.782945963541664
42.827731119791665
42.86099283854167
42.888642578125
42.922666015625
42.983831380208336
43.0359765625
43.064807942708335
42.98931966145833
42.99581705729167
43.036376953125
43.07281575520833
42.99836588541667
42.77966145833334
42.59984700520833
42.509423828125
42.44485677083333
43.04028971354167
42.96268229166667
42.941611328125
43.0633203125
43.104609375
43.086376953125
43.087109375
43.110859375
43.13142578125
43.15612955729166
43.19447916666667
43.22733072916667
43.256298828125
43.28257161458333
43.310732421875
43.34006510416667
43.36351888020833
43.42680989583334
43.46868815104167
43.52048828125
43.505576171875
42.77063151041666
42.644830729166664
42.489827473958336
42.39914713541667
42.87233072916667
42.75643229166667
42.8598828125
42.91674153645833
42.911318359375
42.8836328125
42.89623372395833
42.919596354166664
42.94263671875
42.982353515625
43.02874674479167
43.06234700520833
43.09083658854167
43.133938802083335
43.16860026041667
43.198567708333336
43.230130208333335
43.27432291666667
43.3200390625
43.372802734375
43.40245768229167
43.35277669270833
43.15959309895833
43.00229817708333
42.925953776041666
42.93236653645833
42.865966796875
42.797893880208335
42.81721354166667
42.862005208333336
42.87869791666667
42.86804036458334
42.88148763020833
42.911204427083334
42.94343424479167
42.96974283854167
42.99062174479167
43.0375
43.073245442708334
43.098056640625
43.126695963541664
43.15712565104167
43.19478841145833
43.25075520833333
43.298974609375
43.301510416666666
43.13665690104167
42.954303385416665
42.88504231770833
42.862154947916665
42.81676432291667
42.75305989583333
42.751536458333334
42.80759765625
42.84555989583333
42.826982421875
42.82824544270834
42.85475911458333
42.8844140625
42.93201171875
42.96616536458333
43.000559895833334
43.03578776041667
43.06146158854167
43.09058268229167
43.120211588541665
43.13189453125
43.096246744791664
43.06410481770833
42.95845052083333
42.781259765625
42.66045247395834
42.597483723958334
42.57171549479167
42.97876627604167
42.85646809895833
42.874296875
42.99470703125
42.99433919270833
42.93869791666667
42.918401692708336
42.957314453125
43.02578125
43.03890299479167
42.978828125
42.929928385416666
42.97375651041666
43.045703125
43.102132161458336
43.06636067708333
42.994251302083335
43.023424479166664
43.09527669270833
42.989407552083335
42.701549479166665
42.443317057291665
42.36793619791667
42.42090494791667
42.972913411458336
42.83402994791667
42.787490234375
42.819498697916664
42.908427734375
42.91549153645833
42.86862955729167
42.828408203125
42.87671875
42.98839518229167
43.124541015625
43.25504231770833
43.34175130208333
43.418131510416664
43.481634114583336
43.55225260416667
43.087643229166666
43.21512369791667
43.2244921875
43.042210286458335
42.8040625
42.638349609375
42.619697265625
42.64923177083333
43.19990559895833
43.14102864583333
43.16779947916667
43.197421875
43.21708658854167
43.241458333333334
43.273525390625
43.347180989583336
43.42370442708334
43.48358072916667
43.531787109375
43.03716145833334
43.173528645833336
43.237294921875
43.34646809895833
43.41693033854167
43.48268880208333
43.551025390625
43.48861002604167
42.816311848958335
42.68886067708333
42.386920572916665
42.194482421875
42.631891276041664
42.611002604166664
42.666396484375
43.19495442708333
43.26846354166667
42.971751302083334
43.32765299479167
43.478212890625
43.58044921875
43.085299479166665
43.23232421875
43.315416666666664
43.41173828125
43.51012369791667
43.56817708333333
43.60185872395834
43.126669921875
43.38234700520833
43.443720703125
43.153779296875
43.020732421875
43.012099609375
43.025009765625
43.069189453125
43.06599283854167
43.0883203125
43.13325520833333
43.154498697916665
43.18466796875
43.227854817708334
43.289225260416664
43.33470052083333
43.406481119791664
43.45633463541667
43.519000651041665
43.5429296875
43.036389973958336
43.09935872395833
43.10679361979167
43.102552083333336
43.1516796875
43.11978841145833
42.978427734375
42.869710286458336
42.841266276041665
42.84737630208333
42.853961588541665
42.870930989583336
42.98941731770833
42.952945963541666
42.965830078125
42.97513671875
43.000673828125
43.0301953125
43.07011393229167
43.1107421875
43.16275716145833
43.21236328125
43.258678385416665
43.295940755208335
43.355768229166664
43.386953125
43.44143880208333
43.361529947916665
43.20063151041666
42.59793619791667
42.65236002604167
42.66790690104167
43.166370442708335
43.129205729166664
43.15004557291667
43.154759114583335
43.17305989583333
43.1707421875
43.189869791666666
43.225986328125
43.27083658854167
43.316363932291665
43.375843098958335
43.415338541666664
43.48218424479167
43.50814127604167
43.036647135416665
43.10646809895833
42.94820638020833
42.87780924479166
42.77013671875
42.75290690104167
43.259075520833335
43.171031901041665
43.190654296875
43.14532552083333
43.167737630208336
43.151025390625
43.15248697916667
43.182060546875
43.20722981770833
43.25866861979166
43.287109375
43.32791666666667
43.36333333333334
43.42979166666667
43.47234375
43.497639973958336
43.44707356770834
42.769993489583335
42.668447265625
42.60153971354167
43.10116536458333
43.071712239583334
42.99051432291667
43.00185221354167
42.9637109375
42.982272135416665
42.984814453125
42.980289713541666
42.99383463541667
43.02491861979167
43.067041015625
43.10585611979167
43.1380859375
43.16847330729167
43.198460286458335
43.25361328125
43.290078125
43.25589192708333
43.088619791666666
42.9045703125
42.868395182291664
42.85568359375
42.85205729166667
42.961103515625
43.18229817708333
43.2312109375
43.16888346354167
43.057454427083336
43.0125
42.92603515625
42.889482421875
42.939098307291665
42.98766927083334
43.01246744791667
43.05212890625
43.073971354166666
43.09271484375
43.130029296875
43.164150390625
43.17126302083334
43.125732421875
42.878046875
42.68099609375
42.6083984375
42.59763346354167
42.60241861979166
43.254716796875
43.27021484375
43.364827473958336
43.18798177083333
43.580087890625
43.088460286458336
43.18358723958333
43.173694661458335
43.20705078125
43.14780924479167
43.136637369791664
43.177584635416665
43.22598958333333
43.264462890625
43.27907552083333
43.323408203125
43.361233723958335
43.43364583333334
43.413860677083335
43.236569010416666
42.512587890625
42.47277018229167
42.435113932291664
42.932880859375
42.842679036458335
42.80695963541667
42.8987109375
42.840244140625
42.843681640625
42.84352213541667
42.870078125
42.89224934895833
42.92810221354166
42.969713541666664
43.0090625
43.036051432291664
42.998463541666666
43.02027018229167
43.044925130208334
43.075849609375
43.12918294270833
43.16685546875
43.19595703125
43.1426171875
42.91855794270833
42.724384765625
42.635188802083334
42.611575520833334
42.57263997395833
43.18038411458333
43.119130859375
43.103854166666665
43.096552734375
43.064466145833336
43.140598958333335
43.184488932291664
43.222119140625
43.31540690104167
43.389150390625
43.436038411458334
43.47213541666667
43.506389973958335
43.52101888020833
42.95989908854167
43.02744140625
43.061875
43.00158528645834
43.02033854166667
43.03009765625
42.87557291666667
42.63249348958333
42.47068359375
42.421604817708335
42.405911458333335
43.01857096354167
42.933671875
42.947008463541664
42.953111979166664
43.050807291666665
43.089586588541664
43.13342447916666
43.160875651041664
43.19314453125
43.24722330729167
43.276025390625
43.33338216145833
43.35495768229167
43.38515625
43.43292317708333
43.46952799479167
43.46644856770833
43.47115885416667
42.955738932291666
43.060413411458335
43.09134765625
42.93617838541667
42.640087890625
42.42026692708333
42.351383463541666
42.88384114583334
42.907291666666666
42.91109700520833
43.0322265625
43.096393229166665
43.05875325520833
43.045397135416664
43.06474934895834
43.08705078125
43.12396484375
43.1818359375
43.21895833333333
43.26472330729167
43.31792317708334
43.346194661458334
43.361064453125
43.408642578125
43.44805989583333
43.50205403645833
43.55090494791666
43.568792317708336
42.831533203125
42.6373828125
42.418642578125
42.32015299479167
42.92368815104167
42.877314453125
42.971910807291664
43.03888020833333
43.046904296875
43.09054361979167
43.14623046875
43.232041015625
43.328831380208335
43.44770833333333
43.590478515625
43.680634765625
43.78509440104167
43.303294270833334
43.31101888020833
43.28841471354167
43.301731770833335
43.312587890625
43.38466796875
43.38833984375
43.25208984375
42.457721354166665
42.278544921875
42.193212890625
42.701259765625
42.60992513020833
42.69698567708333
43.28486328125
43.21508138020833
42.999446614583334
43.003798828125
43.00685872395833
43.05645833333333
43.10751302083333
43.16541015625
43.22956705729167
42.720546875
42.80955403645833
43.12329752604167
43.115071614583336
43.11422526041667
43.023870442708336
42.981936848958334
42.987509765625
43.020953776041665
42.83956705729167
42.621025390625
42.45822916666667
42.44149739583333
42.48264973958333
43.1075
43.05590169270833
43.114095052083336
43.230647786458334
43.259036458333334
43.254755859375
43.271673177083336
43.34578125
43.398798828125
43.41123372395833
43.426770833333336
43.492470703125
43.02516276041667
43.13828776041667
43.12506184895833
43.092734375
43.072132161458335
43.135035807291665
43.20253580729167
43.264241536458336
43.17081380208333
42.854443359375
42.59131510416667
42.5022265625
42.410458984375
42.930673828125
42.89721028645833
42.964436848958336
42.978206380208334
42.959091796875
42.97987630208333
43.004368489583335
43.03072591145833
43.063082682291665
43.11296223958333
43.161578776041665
43.212428385416665
43.24720052083333
43.27802408854166
43.324534505208334
43.351116536458335
43.388668619791666
43.44867838541666
43.473401692708336
43.53403645833333
43.540784505208336
42.928479817708336
42.74467447916667
42.40789713541667
42.238271484375
42.733873697916664
42.624606119791665
42.541126302083335
42.53310546875
43.133961588541666
43.11271809895833
43.061061197916665
42.85872721354167
43.25693359375
43.32173828125
43.355481770833336
43.4055078125
43.470201822916664
43.50210611979167
43.55316080729167
43.653369140625
43.1363671875
43.23218424479167
43.268704427083335
43.18514973958333
43.20067708333333
43.26336588541667
43.313138020833335
43.18151041666667
42.897760416666664
42.68947265625
42.629580078125
42.61521809895833
43.08170247395833
42.883642578125
42.91211588541667
43.095888671875
43.11826171875
43.08884440104167
43.097789713541665
43.14515625
43.19248372395833
43.247884114583336
43.30232096354167
43.34264973958334
43.40140625
43.447802734375
43.47439453125
43.50177083333333
43.61513020833333
43.65262044270833
43.156181640625
43.167057291666666
42.912838541666666
42.565035807291665
42.407626953125
42.387841796875
42.841009114583336
42.73381184895833
42.765810546875
42.92496419270833
42.5840234375
