0.0
0.0
0.0
0.0
20.700777994791668
15.55509765625
36.192789713541664
38.98970703125
40.59220052083333
36.54765299479167
40.582112630208336
40.702366536458335
34.47256510416667
34.594931640625
34.70311848958333
34.779254557291665
34.911923828125
34.85436848958334
33.566767578125
31.453606770833332
31.032825520833335
31.681155598958334
33.37616861979166
33.42357747395833
33.7441796875
33.994052734375
30.251653645833333
30.397340494791667
30.430003255208334
31.897288411458334
32.12074544270833
32.38284505208333
32.60170247395833
32.78655924479167
33.102861328125
33.220524088541666
33.318912760416666
31.96380533854167
32.040257161458335
32.108248697916665
32.178714192708334
35.053310546875
33.46380859375
31.354303385416667
31.081656901041665
32.95363606770833
33.37950846354167
35.230283203125
35.537281901041666
35.753388671875
31.212119140625
31.164046223958334
31.220787760416666
31.351246744791666
31.566256510416668
31.804475911458333
32.06310872395834
32.273984375
30.843557942708333
31.126419270833335
31.239567057291666
31.334459635416668
33.251764322916664
33.327548828125
33.56781901041666
33.621663411458336
32.76512044270833
30.541236979166666
29.278671875
29.633600260416667
31.756083984375
31.3480859375
31.519554036458334
31.818863932291666
30.192666015625
30.150813802083334
30.155231119791665
30.404788411458334
30.74444661458333
30.885384114583335
31.171669921875
31.51806640625
31.731240234375
31.901194661458334
32.033232421875
30.546399739583332
30.81442708333333
30.907841796875
30.991943359375
32.950872395833336
32.813043619791664
31.22734375
29.026223958333333
28.500738932291668
30.5398828125
30.821435546875
30.864599609375
32.67811848958333
30.969599609375
30.967923177083332
30.872789713541668
27.927975260416666
28.212099609375
28.388763020833334
28.455283203125
28.637526041666668
27.455003255208332
27.593072916666667
27.717047526041668
27.789580078125
30.94873046875
31.01958984375
31.253912760416668
31.39767578125
31.535413411458332
31.10671875
28.985641276041665
26.982701822916667
26.820953776041666
28.922265625
29.1661328125
29.440361328125
26.846435546875
26.998828125
27.075130208333334
26.99802083333333
27.113720703125
27.297291666666666
27.515530598958332
27.715139973958333
27.904228515625
28.055699869791667
28.153238932291668
28.231481119791667
28.258932291666667
28.329173177083334
28.472220052083333
28.660556640625
28.560983072916667
26.587698567708333
22.98928385416667
22.348649088541666
22.584124348958333
27.202109375
27.287747395833332
29.14230794270833
26.57013020833333
26.651966145833335
26.707529296875
25.732386067708333
26.0200390625
26.327265625
26.594554036458334
26.81830078125
27.017789713541667
27.176389973958333
27.396311848958334
26.082109375
26.243450520833335
26.417096354166667
26.426103515625
26.1273828125
23.43828125
22.31735677083333
23.6478515625
23.828723958333335
24.876728515625
23.394622395833334
23.845237630208334
23.972164713541666
20.773102213541666
20.976214192708333
21.274527994791665
21.674016927083333
22.041419270833334
22.392333984375
22.88714518229167
23.219088541666668
22.041764322916666
22.11451171875
22.391513671875
22.549153645833332
25.89451171875
25.755283203125
23.325055338541667
21.018629557291668
20.373802083333334
21.76007161458333
21.471910807291668
22.507998046875
22.729182942708334
18.21064453125
18.345462239583334
18.3483984375
18.597428385416666
18.932503255208335
19.407220052083332
19.924664713541667
20.36912109375
19.461142578125
19.813011067708334
20.246494140625
20.429036458333332
22.73037109375
21.714404296875
21.978486328125
25.288206380208333
24.37350911458333
21.706243489583333
20.2946484375
20.166123046875
21.452360026041667
21.059482421875
22.22818359375
23.399391276041666
19.011686197916667
19.22311848958333
19.351539713541666
19.794596354166668
20.274287109375
20.727679036458333
21.16134765625
20.191946614583333
19.664837239583335
20.049326171875
20.233639322916666
20.602080078125
22.757392578125
22.93693359375
23.219925130208335
22.08513671875
22.3013671875
22.62546223958333
24.767727864583332
21.991549479166668
20.48025065104167
20.246901041666668
21.590589192708332
21.248304036458332
19.50637369791667
19.95241861979167
20.562893880208332
19.063196614583333
19.31353515625
19.653372395833333
20.211764322916668
20.582630208333335
20.934944661458335
19.88935546875
20.187604166666667
20.5816796875
22.691204427083335
23.039348958333335
23.214098307291668
23.481868489583334
23.615205078125
22.412115885416668
22.575026041666668
22.872932942708335
22.349495442708335
22.906839192708333
20.943427734375
20.481982421875
21.919189453125
21.483040364583335
22.694147135416667
20.795319010416666
21.42233723958333
22.976175130208333
20.332776692708332
20.527021484375
19.723723958333334
18.303522135416667
18.60017578125
18.838395182291666
20.772516276041667
20.974664713541667
21.12814778645833
19.892854817708333
20.002057291666667
20.276555989583333
22.355836588541667
22.543271484375
22.730224609375
22.43771484375
20.468756510416668
18.440390625
17.8936328125
19.10416015625
19.252845052083334
18.608626302083334
19.677626953125
20.103951822916667
18.655826822916666
18.703606770833332
19.029446614583332
19.43719401041667
19.822623697916665
18.908040364583332
19.157848307291665
19.539635416666666
19.718333333333334
21.578209635416666
21.70453125
21.84806640625
22.067138671875
22.334973958333332
20.906295572916665
18.451432291666666
16.336529947916667
15.919163411458333
18.879449869791667
19.092731119791665
20.18389973958333
19.622184244791665
20.238876953125
20.490068359375
19.029817708333333
19.3228125
19.68609375
20.052900390625
19.137333984375
18.592620442708334
20.718297526041667
20.93206705729167
21.0671484375
21.20638671875
21.399391276041666
21.611370442708335
21.88056640625
20.739169921875
20.302330729166666
19.717848307291668
18.13994140625
18.085104166666667
19.309684244791665
19.50111328125
20.724153645833333
20.267962239583333
20.849739583333335
21.2965234375
19.739775390625
20.05287109375
20.352369791666668
20.689524739583334
19.913063151041666
19.367698567708334
19.639163411458334
19.851617838541667
20.047369791666668
21.994427083333335
22.151715494791667
20.96042317708333
21.312259114583334
21.521087239583334
21.2769921875
21.221077473958335
19.371712239583335
18.9814453125
20.60279296875
20.674847005208335
21.920852864583335
21.129326171875
21.835133463541666
22.177737630208334
20.583206380208335
20.72349609375
19.893466796875
19.359632161458332
19.645179036458334
19.91896484375
21.958043619791667
22.173173828125
22.396526692708335
22.588483072916667
21.368317057291666
21.679378255208334
23.792057291666666
23.94928059895833
24.268802083333334
24.1240234375
22.42462239583333
20.222356770833333
19.800924479166667
21.48611002604167
21.633675130208335
19.813623046875
21.278971354166668
21.776910807291667
22.005657552083335
22.105159505208334
20.958782552083335
19.582770182291668
19.84072265625
20.101139322916666
22.116627604166666
22.342542317708332
22.591927083333335
22.795751953125
22.969567057291666
21.916002604166668
22.07642578125
22.19587890625
22.4876171875
24.56399088541667
24.69802408854167
24.780631510416665
24.094147135416666
22.207516276041666
21.194928385416667
21.71693359375
23.34698567708333
23.480149739583332
23.445804036458334
23.618255208333334
23.873994140625
21.831070963541666
21.708193359375
21.678323567708333
21.760667317708332
21.83794921875
21.91677734375
21.927037760416667
21.987395833333334
21.904384765625
21.66294921875
21.49916015625
21.4601171875
21.4900390625
21.547233072916665
21.5894921875
21.60085611979167
21.6348046875
20.944977213541666
18.328564453125
16.313323567708334
16.135908203125
17.645618489583335
18.34623046875
19.333551432291667
17.958098958333334
18.305940755208333
18.134807942708335
16.176263020833332
16.237467447916668
16.476201171875
16.81087890625
17.123850911458334
17.493147786458334
17.7833203125
18.09484375
18.496806640625
18.927457682291667
19.281048177083335
18.585891927083335
18.8904296875
19.192392578125
19.44181640625
21.133626302083332
18.415218098958334
16.598805338541666
18.186022135416668
20.226959635416666
20.778251953125
21.072376302083335
22.848736979166667
23.151123046875
19.73419921875
18.523902994791666
18.667630208333332
20.769117838541668
21.093570963541666
21.367646484375
21.543955078125
21.842727864583335
20.703863932291668
19.923841145833332
20.005247395833333
20.09205078125
21.888841145833332
21.95548828125
21.970087890625
20.901315104166667
19.059381510416667
18.307607421875
19.976487630208332
21.192174479166667
21.323782552083333
20.903141276041666
20.395983072916668
20.697744140625
17.671839192708333
18.61056640625
18.766393229166667
20.871416015625
21.148779296875
21.411383463541668
21.61595703125
21.913033854166667
20.768098958333333
20.87388671875
20.936917317708332
21.025143229166666
22.908336588541665
22.994814453125
22.914954427083334
21.573365885416667
19.492913411458332
18.822744140625
20.494889322916666
20.8672265625
20.909593098958332
20.667626953125
20.106256510416667
20.4371484375
18.6022265625
17.503896484375
18.488072916666667
18.652737630208332
18.880166015625
19.137428385416666
21.271875
21.43328125
21.556044921875
21.613935546875
21.9007421875
21.98712239583333
22.085319010416665
22.204886067708333
21.075432942708332
20.250517578125
19.543645833333333
17.268798828125
17.46453776041667
18.655325520833333
19.936070963541667
19.742311197916667
20.018317057291668
20.380182291666667
18.838665364583335
18.91666015625
18.945660807291667
19.051533203125
19.444830729166668
19.728603515625
19.973688151041667
20.246162109375
19.262112630208332
19.48849609375
19.650205078125
19.780218098958333
21.785686848958335
22.075364583333332
22.241044921875
22.312620442708333
22.393190104166667
21.223736979166667
20.427561848958334
20.31716471354167
18.873948567708332
18.1729296875
17.483466796875
19.13308268229167
20.500159505208334
21.867194010416668
22.106123046875
18.931588541666667
19.072718098958333
19.123411458333333
19.245992838541667
19.588678385416667
19.792643229166668
20.083525390625
20.367747395833334
19.391002604166665
19.629378255208334
19.789446614583333
19.906012369791668
21.885400390625
22.098984375
22.220748697916665
22.325201822916668
22.407275390625
22.47784505208333
22.540732421875
22.481344401041667
21.26748046875
17.844130859375
16.25876953125
16.676005859375
19.940439453125
20.866451822916666
22.357041015625
20.414117838541667
20.48734375
20.440745442708334
18.608597005208335
18.895556640625
19.081891276041667
19.332425130208332
19.563020833333333
19.739462890625
18.671402994791666
18.816123046875
18.882991536458334
20.842392578125
20.903359375
20.967942708333332
21.02279296875
21.086110026041666
21.190934244791666
20.980973307291666
19.452685546875
17.525458984375
17.210227864583334
18.839886067708335
19.1606640625
17.641350911458332
17.96188802083333
18.134134114583333
18.036516927083333
17.993063151041667
18.054742838541667
18.192721354166668
18.417649739583332
18.658271484375
18.8762109375
19.095924479166666
19.310859375
19.634625651041667
18.543590494791665
18.67306966145833
20.656695963541665
20.806103515625
20.931507161458335
20.309466145833333
18.357779947916665
17.11505859375
17.328470052083333
19.181455078125
19.412864583333334
17.71265625
18.219954427083334
18.346142578125
18.305042317708335
18.325751953125
18.447926432291666
18.67584309895833
18.992779947916667
19.24951171875
19.483349609375
19.656295572916665
19.97548828125
18.937347005208334
19.053313802083334
19.172457682291668
21.170973307291668
21.305032552083333
21.287356770833334
20.009641927083333
17.9200390625
17.25323567708333
18.868645833333332
19.44392578125
19.584680989583333
19.023238932291665
19.504912109375
19.670927734375
15.327503255208333
14.567639973958334
14.7165234375
18.15236328125
18.41357421875
18.688551432291668
18.916435546875
19.101402994791666
19.417867838541667
18.331901041666665
19.390286458333332
19.506123046875
21.48434895833333
21.579397786458333
21.672119140625
21.738014322916666
21.145403645833333
19.046767578125
17.741341145833335
18.035113932291665
19.755221354166668
19.87176432291667
20.039345703125
21.538203125
19.865501302083334
19.894020182291666
18.746373697916667
15.670091145833334
15.849029947916666
16.081302083333334
19.57552734375
19.81119140625
20.031484375
20.341438802083335
20.480305989583332
19.454205729166667
19.574619140625
19.687027994791666
19.781064453125
21.756673177083332
21.835198567708332
21.909674479166668
21.980631510416668
21.558528645833334
19.661715494791668
18.312620442708333
18.378352864583334
20.038134765625
20.150104166666665
20.284612630208333
20.531477864583334
18.913463541666665
18.979212239583333
18.976438802083333
19.066754557291667
19.208704427083333
19.408518880208334
19.61077799479167
19.769847005208334
19.914270833333333
20.20880208333333
20.2809375
20.355804036458334
20.4852734375
19.346263020833334
19.423720703125
21.348759765625
21.379544270833332
21.43841796875
21.498756510416666
21.371266276041666
19.870022786458332
17.8147265625
17.26373046875
18.848346354166665
19.162552083333335
20.450927734375
20.657174479166667
15.701012369791666
15.826673177083334
15.735133463541667
15.689602864583334
15.787327473958333
15.93013671875
16.082083333333333
16.285960286458334
16.462278645833333
16.589921875
15.569733072916666
15.649264322916666
15.7218359375
15.79431640625
15.890667317708333
19.262942708333334
19.427158203125
19.334381510416666
17.84296875
15.858463541666667
15.576585286458334
17.112509765625
17.614140625
17.711455078125
15.967584635416667
15.409658203125
15.494759114583333
12.633834635416667
13.53947265625
13.746057942708333
15.856204427083334
16.109573567708335
16.554622395833334
16.799104817708333
17.0052734375
16.025787760416666
16.14886393229167
16.26158203125
16.411787109375
19.844733072916668
19.855777994791666
18.766910807291666
16.663655598958332
16.015120442708334
17.594488932291668
18.075699869791666
18.14426106770833
19.498668619791665
15.71251953125
16.010836588541668
14.911611328125
14.188483072916666
14.345393880208333
14.569225260416667
16.715162760416668
16.987395833333334
17.239586588541666
16.304934895833334
16.449147135416666
16.580921223958335
19.998157552083335
20.1159375
20.393821614583334
20.505657552083335
20.64490234375
20.458186848958334
18.791982421875
16.951891276041668
16.717815755208335
18.424788411458334
18.740647786458332
18.613824869791667
15.634329427083333
15.924485677083334
16.155934244791666
16.16271484375
16.218815104166666
16.326770833333335
16.446826171875
16.604934895833335
16.559720052083332
16.682356770833334
15.707652994791667
15.829283854166667
19.178551432291666
19.307268880208333
19.4164453125
19.49646484375
19.594674479166667
19.693063151041667
19.771966145833332
19.371266276041666
17.705074869791666
16.334488932291666
16.374775390625
17.812203776041667
17.942942708333334
17.966344401041667
18.215152994791666
15.267903645833334
15.356031901041666
15.290859375
15.514427083333333
15.62150390625
15.777360026041666
15.917825520833333
16.054195963541666
16.131520182291666
16.162587890625
16.18455078125
16.247486979166666
16.283697916666668
16.319140625
16.376070963541668
15.305833333333334
15.329573567708334
15.358037109375
18.64377278645833
18.6173828125
17.807975260416665
15.864303385416667
14.874680989583334
15.940559895833333
15.91921875
16.549117838541665
15.443317057291667
10.512604166666666
10.519892578125
10.451806640625
10.434684244791667
10.505569661458333
10.620022786458334
10.791214192708333
10.947776692708333
11.078095703125
11.201682942708333
11.322545572916667
11.415172526041667
11.524602864583333
11.613548177083333
11.66884765625
11.736940104166667
11.790094401041667
11.859026692708333
10.887161458333333
11.010283203125
9.488307291666667
10.583180338541666
11.916315104166667
11.585126953125
9.793173828125
10.955159505208334
11.16806640625
11.124456380208333
10.480296223958334
10.390791015625
