0.0
0.0
0.0
0.0
21.436116536458332
22.397086588541665
23.25095052083333
32.42774088541667
30.004518229166667
35.623531901041666
38.17573567708333
33.681162109375
33.78139322916667
35.4645703125
35.535641276041666
35.632623697916664
35.78842122395833
30.81201171875
30.844876302083332
28.884420572916667
27.320699869791667
25.141214192708333
25.03786783854167
27.264052734375
27.813121744791665
28.127932942708334
26.482864583333335
26.663564453125
26.6589453125
26.863968098958335
25.511298828125
25.70989908854167
25.86163411458333
26.019632161458333
26.09025390625
28.0550390625
28.127317708333333
28.168720703125
28.071555989583334
28.071201171875
28.072161458333333
28.00067057291667
27.708590494791668
25.92158203125
23.877200520833334
23.960882161458333
26.381380208333333
27.157083333333333
28.922063802083333
29.308216145833335
24.768889973958334
23.392939453125
23.42795247395833
23.627571614583335
23.859290364583334
24.024420572916668
27.02496419270833
27.072721354166667
27.077711588541668
27.184029947916667
27.231285807291666
27.242220052083333
27.224319661458335
27.296998697916667
27.057874348958332
24.394222005208334
22.041656901041666
21.854033203125
23.639925130208333
24.111243489583334
25.448684895833335
24.500595703125
25.239182942708332
24.057457682291666
20.798196614583333
21.119970703125
21.513033854166668
25.10072265625
25.32287109375
25.548385416666665
25.686770833333334
25.868141276041666
24.630875651041666
24.36276692708333
24.003160807291668
23.734573567708335
25.110260416666666
24.339723307291667
21.074527994791666
18.246243489583332
18.92734375
18.271012369791666
19.057962239583333
18.77640625
20.062125651041665
15.787942708333333
15.553597005208333
15.427197265625
13.8700390625
14.061682942708334
14.249905598958334
14.499026692708334
14.786256510416667
15.053375651041666
15.355081380208333
15.82205078125
16.155078125
16.536126302083332
15.779635416666666
16.197760416666668
17.772083333333335
15.498916015625
13.929348958333334
13.396588541666667
14.307063802083333
13.327571614583333
14.446507161458333
15.353899739583333
15.561204427083334
12.125354817708333
12.140602213541667
12.4176171875
12.6295703125
12.935940755208334
13.297353515625
13.676982421875
14.030992838541666
13.367275390625
12.937447916666667
13.238961588541667
13.6185546875
15.562652994791666
15.825908203125
14.959052734375
13.679674479166666
11.412620442708333
10.414772135416667
12.463063151041666
13.032815755208333
13.704189453125
12.111634114583333
12.26333984375
13.34734375
8.83787109375
8.869205729166667
9.011103515625
7.729007161458333
8.042376302083333
8.397903645833333
7.975094401041667
8.272366536458334
8.649921875
10.460270182291667
10.739231770833333
10.079176432291666
13.269482421875
13.566233723958334
13.892786458333333
15.162184244791666
12.767044270833333
11.639729817708334
11.2640625
12.20744140625
11.977900390625
12.031334635416666
13.294713541666667
13.434430338541667
7.412633463541667
7.41408203125
7.526930338541667
7.776666666666666
8.100283203125
8.436110026041666
8.730869140625
8.153694661458333
8.473795572916666
8.60341796875
8.768854166666667
8.966292317708334
13.886891276041666
14.037041015625
11.773876953125
10.252298177083333
9.689290364583334
10.607294921875
12.181832682291667
13.008095703125
13.290120442708334
11.835065104166667
11.767434895833333
11.634059244791667
7.323662109375
7.482044270833334
7.762014973958333
8.093317057291667
8.428219401041666
8.705830078125
8.125338541666666
8.430680338541666
8.587955729166667
13.408388671875
13.661559244791667
13.541533203125
11.880240885416667
9.878365885416667
9.438870442708334
10.819544270833333
11.610110677083334
11.586031901041666
12.703756510416667
12.112122395833333
12.037454427083333
6.225921223958333
6.261468098958333
6.3862109375
6.605009765625
6.800732421875
7.017457682291667
7.29044921875
7.580263671875
7.731917317708334
7.083037109375
7.9537890625
8.332994791666666
9.802483723958334
8.473873697916666
7.4548046875
9.565250651041667
10.2235546875
9.917626953125
9.883570963541667
10.876136067708334
10.276770833333334
4.840592447916666
4.844436848958333
4.876149088541666
4.131617838541667
4.280589192708334
4.467646484375
4.027701822916667
5.042451171875
5.144342447916666
6.501070963541666
6.619440104166666
6.785110677083333
6.941676432291667
6.4264908854166665
6.3085319010416665
6.669749348958334
5.800628255208333
5.360794270833333
5.858037109375
5.73310546875
5.333264973958333
4.709720052083333
4.187848307291667
4.186399739583333
3.1235319010416664
3.1524479166666666
3.2283821614583332
3.34359375
3.4661881510416666
3.60099609375
3.7184602864583334
3.83884765625
3.970475260416667
4.10423828125
4.221083984375
4.037001953125
4.758619791666667
4.951936848958334
5.026471354166667
5.405771484375
4.441311848958334
3.940615234375
3.741416015625
4.264055989583333
3.3955696614583335
3.4149055989583332
4.064765625
4.124967447916666
1.8817545572916667
1.9151725260416668
2.0048567708333334
2.1597330729166666
1.9580078125
2.152701822916667
3.5821549479166666
3.7557063802083333
3.954951171875
4.148932291666667
3.71669921875
4.761263020833334
4.93609375
5.11673828125
5.329108072916667
6.89294921875
6.290934244791667
5.284423828125
5.15443359375
4.683955078125
5.259973958333333
5.20380859375
5.590914713541666
5.09171875
3.969912109375
4.050973307291667
4.101875
3.118701171875
3.34845703125
3.671012369791667
3.9386100260416668
4.166080729166667
4.3951171875
3.9906705729166667
5.070338541666667
5.225706380208333
6.732347005208333
6.956328125
7.206647135416667
6.641591796875
6.61900390625
5.261608072916666
5.16787109375
4.6329134114583335
5.316067708333334
5.344127604166666
5.849619140625
5.518447265625
3.233512369791667
3.236943359375
3.223857421875
3.3350032552083335
3.5622623697916667
3.828274739583333
4.06443359375
4.253203125
4.444866536458333
4.3017350260416665
5.052233072916667
5.176360677083333
6.679143880208334
6.887272135416667
7.047106119791667
6.222939453125
3.91951171875
3.279228515625
3.1847916666666665
3.815849609375
3.5993522135416667
4.312529296875
3.95365234375
4.063317057291667
3.488154296875
3.5213444010416666
3.6789811197916666
2.519033203125
2.7326139322916667
2.4588248697916666
2.6416438802083335
2.814150390625
2.97337890625
4.213050130208333
4.027347005208333
4.741435546875
4.882233072916667
5.061442057291667
5.106770833333333
5.029449869791667
3.1296907552083333
2.743463541666667
3.8175032552083334
4.4790266927083335
4.200966796875
4.824231770833333
4.437744140625
4.638600260416666
2.828597005208333
2.8690494791666667
3.010390625
2.26646484375
2.489352213541667
2.6883203125
2.8757389322916667
2.5503190104166666
2.6831966145833333
3.8667578125
3.9914583333333336
4.1420703125
4.311640625
4.843011067708333
4.371930338541667
4.2828971354166665
2.8088606770833335
2.243486328125
3.0187760416666665
3.58728515625
2.8256510416666667
2.30447265625
2.4220279947916667
2.4940983072916665
1.6694694010416666
1.6826529947916666
1.7590885416666666
1.9056477864583334
2.0975390625
2.2862565104166666
2.447659505208333
2.654352213541667
2.8045475260416666
2.94830078125
2.591318359375
2.714879557291667
3.905869140625
4.087457682291666
4.30298828125
4.279697265625
3.34861328125
1.7733430989583334
1.971376953125
1.9648828125
2.1906770833333336
2.618095703125
3.216083984375
3.356653645833333
2.3845149739583333
2.8414453125
2.883356119791667
2.1229752604166667
2.3499446614583333
2.577802734375
0.9820052083333334
1.0916569010416666
1.2325748697916667
2.8951204427083335
2.566162109375
2.674899088541667
3.8654524739583334
4.0690690104166665
4.309921875
4.50123046875
3.771988932291667
2.0792578125
2.1045963541666666
2.087252604166667
2.354111328125
3.2501236979166666
3.9859830729166665
4.203118489583333
3.1258138020833335
3.5945833333333335
3.6288639322916665
1.3117317708333334
1.47361328125
1.655205078125
1.80412109375
1.5917057291666667
1.7531087239583334
1.8813248697916667
1.9737174479166666
2.0559602864583333
3.47685546875
3.662408854166667
3.647265625
3.543046875
2.45873046875
2.421376953125
2.851904296875
2.677607421875
3.181181640625
2.0773600260416667
2.15060546875
2.0865494791666666
0.8256640625
0.8590201822916667
0.9490559895833334
1.0939453125
1.2374641927083334
1.3399446614583332
1.14158203125
1.2120963541666667
1.307724609375
2.907486979166667
3.075771484375
3.2338444010416665
3.0093619791666666
1.905009765625
1.0328157552083332
0.897509765625
0.8743684895833334
1.0976595052083333
2.0012337239583333
2.49328125
2.54822265625
0.4796419270833333
0.6563932291666666
0.67337890625
0.5765364583333333
0.6640983072916666
0.760263671875
0.6449609375
0.7247005208333334
0.7962760416666667
1.062294921875
1.1406998697916666
0.9443684895833333
1.0490494791666667
1.1530338541666667
1.2490950520833333
2.3342513020833335
1.3091764322916666
0.9128971354166666
0.8105305989583333
1.0346126302083334
0.9843717447916667
1.2476529947916666
1.2820475260416666
1.3124088541666667
0.2719954427083333
0.2711946614583333
0.29346354166666666
0.3284407552083333
0.387451171875
0.458583984375
0.524150390625
0.5993001302083333
0.6680859375
0.5202180989583334
0.58708984375
0.661259765625
0.894619140625
0.9802376302083333
1.0802701822916667
1.1777018229166667
0.7776334635416666
0.279775390625
0.10668294270833334
0.066806640625
0.11117838541666666
0.7272591145833334
0.9422819010416666
0.9624609375
0.14137044270833332
0.23899088541666666
0.23105794270833332
4.557291666666667E-5
1.85546875E-4
7.356770833333333E-4
0.0
0.0
0.0
0.00474609375
0.009306640625
0.017119140625
0.62958984375
0.50673828125
0.5717838541666667
0.7984993489583333
0.888896484375
0.9832682291666667
0.8730403645833333
0.31884440104166667
0.05935546875
0.031695963541666664
0.029827473958333333
0.07651692708333334
0.6243326822916667
0.9003938802083333
0.9327180989583334
0.11861653645833334
0.214208984375
0.23926432291666666
0.0
0.0
0.0
0.0
0.0
0.0
0.017086588541666666
0.00373046875
0.0062467447916666665
0.014098307291666667
0.025029296875
0.04485677083333333
0.9668033854166667
0.47263671875
0.082421875
0.043297526041666666
0.04778645833333333
0.123720703125
0.82947265625
1.2130143229166668
1.288671875
0.346201171875
0.341396484375
0.3683268229166667
0.3186165364583333
0.41068359375
0.5077799479166667
0.5905891927083333
0.6635677083333333
0.7326725260416667
0.573369140625
0.6351106770833334
0.6981705729166666
0.97232421875
1.07685546875
0.9820865885416666
0.4224348958333333
0.08484700520833334
0.05869466145833333
0.5118359375
0.7625325520833334
0.8064778645833334
0.32611979166666666
0.35204427083333334
0.3357845052083333
0.22348958333333332
0.25171223958333333
0.3159049479166667
0.4091438802083333
0.49810221354166667
0.58328125
0.6587076822916667
0.72931640625
0.7763639322916667
0.6178678385416667
0.6836393229166666
0.765498046875
1.0182161458333334
0.7106184895833333
0.21599934895833334
0.09166341145833333
0.068857421875
0.14345703125
0.160849609375
0.26182942708333334
0.29100911458333334
1.3020833333333334E-5
3.2552083333333335E-6
9.765625E-6
0.0
0.0
0.0
0.0
0.0
0.0
3.2552083333333335E-6
3.2552083333333335E-6
1.3020833333333334E-5
0.495048828125
0.5535188802083333
0.4363606770833333
0.4862923177083333
0.27392578125
0.03434895833333333
0.01529296875
0.007744140625
0.02224609375
0.07552083333333333
0.08786783854166667
0.098896484375
0.05063802083333333
0.112001953125
0.11511067708333333
0.0
0.0
0.0
0.0
0.0
0.0
0.0
0.0
0.0
0.0038151041666666667
0.009215494791666667
0.015302734375
0.48169921875
0.5554296875
0.5338541666666666
0.071982421875
0.0037565104166666667
3.90625E-4
0.008473307291666666
0.009222005208333333
0.01
0.025305989583333334
0.031520182291666664
0.08119140625
0.0
0.0
0.0
0.0
0.0
0.0
0.0
0.0
0.0
3.02734375E-4
2.9296875E-5
8.463541666666667E-5
0.5767936197916667
0.6561067708333334
0.7458365885416667
0.7969661458333334
0.335419921875
0.045322265625
0.025279947916666667
0.05276692708333333
0.06579427083333333
0.089208984375
0.06774088541666666
0.09626302083333334
0.0
0.0
0.0
0.0
0.0
0.0
6.510416666666667E-6
0.0
0.0
3.2552083333333335E-6
0.0
2.2786458333333334E-5
0.48425130208333333
0.5390559895833333
0.394541015625
0.23742513020833333
0.022900390625
0.0024772135416666666
0.0226953125
