62.91760091145834
62.803134765625
62.84489583333333
77.50954752604167
107.65912109375
124.355595703125
123.94207682291666
121.197568359375
121.42569010416666
121.62611002604167
121.71182942708333
121.61976236979167
121.590625
121.78564127604167
122.020078125
122.18096028645833
122.33013020833333
122.39505859375
122.503974609375
120.26443684895834
120.33159830729167
120.41057942708333
120.525869140625
120.59431640625
120.67795247395833
120.69624348958334
120.76785481770834
120.80964192708333
120.850673828125
120.91061848958333
120.956181640625
120.970537109375
120.977265625
120.93322916666666
120.947119140625
121.05582682291667
121.181875
121.26220377604167
121.302392578125
121.31857421875
121.33383463541666
121.31774088541667
121.37087565104167
121.380478515625
121.37864583333334
121.39373697916666
121.42336263020833
121.46157552083334
121.41791666666667
121.47122395833334
121.50009440104166
121.49434244791667
121.49674153645833
121.48048502604166
121.43669270833334
121.364853515625
121.287724609375
121.373056640625
121.407158203125
121.45991536458334
121.47390950520834
121.47693684895833
121.54385416666666
121.569609375
121.55204752604166
121.56806966145834
121.562763671875
121.581953125
121.61115885416666
121.646591796875
121.653193359375
121.62097981770833
121.59748697916666
121.56382161458333
121.55876302083334
121.57122395833333
121.576630859375
121.61576497395833
121.573046875
121.45480143229166
121.4498046875
121.56583333333333
121.60402018229166
121.49796549479167
121.49147786458333
121.50037109375
121.49236653645833
121.49942057291666
121.53856770833333
121.54140625
121.60459635416667
121.64662760416667
121.64331705729167
121.61903645833333
121.623779296875
121.603955078125
121.54658854166667
121.52758138020833
121.47376627604167
121.47254557291667
121.45535807291667
121.32015950520834
121.221708984375
121.268955078125
123.50775065104166
123.51605794270833
123.51993489583333
123.57652994791667
121.19383463541666
121.17576497395834
121.114775390625
121.08094075520833
121.100947265625
121.100390625
121.08786458333333
121.07850911458333
121.06034830729166
121.075126953125
121.03913736979166
121.08300130208333
121.06283854166666
121.005546875
120.96231770833333
120.89662760416667
120.91612630208333
120.97623372395833
120.97248372395833
121.008291015625
121.04423502604166
121.03193359375
121.04015950520834
121.04070963541666
121.02889322916667
120.982568359375
121.02664388020834
121.03609700520833
121.0433203125
121.06729817708333
121.05940755208333
121.04571614583334
121.05238606770833
121.04297200520833
121.07966145833333
121.09114583333333
121.07423502604166
120.95561197916666
120.90407552083333
120.97121744791667
120.97281575520833
120.99565104166666
121.018955078125
121.025634765625
121.02294596354167
121.018984375
121.03142903645833
121.05318684895833
121.07073893229166
121.07377604166666
121.12457682291667
121.17527994791666
121.149873046875
121.165517578125
121.172470703125
121.15848958333333
121.20596028645834
121.188642578125
121.19263346354167
121.173583984375
121.09671875
120.932880859375
121.00940104166666
121.03650716145833
121.06138346354167
121.04230143229167
121.07223958333333
121.14533203125
121.20266276041667
121.18435872395834
121.19263997395834
121.177568359375
121.15024088541666
121.15587565104167
121.22374348958333
121.238212890625
121.26383463541667
121.248427734375
121.23401692708333
121.26748372395834
121.24879557291666
121.26754231770833
121.27228841145833
121.22722330729167
121.10220703125
120.97486328125
121.04015625
121.04632161458333
121.07698567708333
121.08273763020833
121.06522135416667
121.06430338541666
121.04
120.997724609375
120.99620768229167
120.9667578125
120.95578776041667
120.95104166666667
120.89524739583334
120.915234375
120.90213541666667
120.93384440104167
120.9780859375
120.99279622395834
120.95510416666667
120.952578125
120.96299479166667
120.961630859375
120.95788736979166
120.79143880208333
120.75222005208333
120.82052083333333
120.867490234375
120.8802734375
120.93954427083334
120.98148763020833
120.97634114583333
120.945703125
120.98275716145834
121.01460286458334
120.97591145833333
120.98204752604167
120.95537760416667
121.00990234375
121.05388671875
121.04809895833333
121.053154296875
121.06447591145833
121.0725390625
121.06642578125
121.084677734375
121.248515625
121.33936848958334
121.21180338541667
120.91211263020833
120.93734049479167
120.987646484375
120.99481119791666
120.96722005208333
121.003681640625
121.00703125
121.02300455729167
120.974736328125
120.85594401041666
120.79694986979166
120.76968098958334
120.743232421875
120.78339518229167
120.812216796875
120.80326171875
120.782900390625
120.78930338541667
120.73192708333333
120.78044596354167
120.776640625
120.794765625
120.75179036458333
120.67226888020834
120.48212565104167
120.56426106770833
120.57253580729167
120.58444986979167
120.54164388020833
120.56240885416666
120.57421549479167
120.59893229166667
120.57549153645833
120.53203125
120.50155598958334
120.54970703125
120.58236979166666
120.63618815104167
120.91276692708334
121.147587890625
121.39764322916666
121.41279296875
121.37712890625
121.44516276041666
121.3057421875
120.5118359375
119.41741861979166
119.08220703125
119.54769205729167
121.96382486979167
121.97364583333334
121.98386393229167
121.99108723958334
121.910400390625
121.93248697916667
121.981328125
122.06010091145833
122.08919596354167
122.15477864583333
122.30140950520833
122.37848307291667
122.46126953125
122.47675130208333
122.49818359375
122.58110026041666
122.64359375
122.58242838541666
122.13942708333333
121.59954752604166
121.7690234375
122.31260091145833
122.51103841145833
122.60701497395833
122.60378255208333
122.52507161458334
122.38314453125
122.33606770833333
122.122001953125
121.64487630208333
121.34533203125
121.3419140625
121.28098307291667
121.270791015625
120.83374348958333
120.689697265625
120.52833984375
120.22850260416666
119.76781901041667
119.32990234375
120.59970703125
120.05352213541667
120.37959635416667
120.64027994791667
119.00244140625
119.115224609375
119.16436848958334
119.16644856770833
119.16802408854167
119.3138671875
119.36919921875
119.33942057291667
119.31442057291666
119.29140950520834
119.28361328125
119.283671875
119.28805338541666
119.22795247395834
119.21570963541667
119.26465494791667
119.05546875
118.439775390625
118.21613606770833
118.514326171875
118.783916015625
121.25337239583334
121.360693359375
121.44807291666666
118.26000651041667
118.39311197916666
118.41892578125
119.50472330729167
119.505537109375
119.50312174479167
119.558291015625
119.63865234375
119.681787109375
119.70183268229167
119.73092122395833
119.75664713541667
119.81827799479167
119.86399088541667
119.82563802083334
119.38534505208334
118.61795247395834
118.382822265625
118.75728190104167
119.00686197916667
121.49286458333333
121.535830078125
121.61742513020833
119.33262044270833
118.38589192708334
118.47776692708334
118.51744791666667
119.566875
119.61380208333334
119.64529296875
119.72500325520834
119.81644205729167
119.820439453125
119.78596028645833
119.74363606770834
119.754267578125
119.75378580729166
119.89659505208333
119.97421875
119.90639322916667
119.50808919270834
118.939873046875
118.93233723958333
119.25037760416667
119.50062174479167
119.71603841145833
119.82234049479166
119.95480794270833
120.00818684895833
120.04681640625
120.0733984375
120.15400065104167
120.22528971354167
120.31853190104167
120.343779296875
120.38992838541667
120.454912109375
120.50361653645834
120.52869791666667
120.58451171875
120.64827473958333
120.70605143229167
120.726640625
120.78258138020833
120.82701822916667
120.42309244791667
119.90408528645834
119.97027018229167
120.25590494791666
120.42424479166667
120.53427734375
120.64543294270834
120.65603841145834
120.72125325520834
120.74622721354167
120.771123046875
120.80767252604167
120.84364583333333
120.89400065104167
120.93902018229167
120.98872395833334
121.01842447916667
121.03590494791666
121.091904296875
121.09781901041667
121.041044921875
121.07853190104167
121.10235677083334
121.11976888020833
120.863583984375
120.50856119791666
120.55720377604166
120.78688151041666
120.9264453125
121.08193359375
121.32869466145833
121.43310546875
121.41011393229167
121.39882486979167
121.40441080729167
121.44402018229167
121.50021809895833
121.52007161458333
121.57777018229167
121.79097005208334
121.93052734375
121.9483203125
122.08580078125
120.062265625
120.13533528645833
120.08342447916667
121.43444986979166
120.96815104166667
120.96083984375
121.16399739583333
123.35688151041667
123.28494791666667
121.60669270833333
121.75767252604167
121.82582682291667
121.87698893229167
121.89953125
121.91167643229167
122.10931640625
122.1108984375
122.18332682291667
122.17303059895833
122.20207356770834
122.231181640625
122.221298828125
122.242099609375
122.32819661458333
122.27687825520833
121.95128580729167
121.83875325520833
121.99515625
122.17887044270833
122.17243815104166
122.19012369791666
122.16716796875
122.32138020833334
122.289599609375
122.27269205729166
122.315380859375
122.28223307291667
122.285908203125
122.259833984375
122.21073567708333
122.19054361979167
122.28556966145834
122.3623046875
122.37226888020834
122.34494791666667
122.28387044270833
121.88601236979167
121.77319986979167
121.89612630208333
122.01465169270833
121.97474283854167
122.02567057291667
122.07893880208333
122.08352213541667
122.08890950520833
122.16913736979167
122.206025390625
122.22762369791667
122.242939453125
122.0794921875
122.14336263020833
122.34411783854166
122.38423177083334
122.26126302083334
122.420146484375
122.41905598958333
122.29435872395834
121.88875
121.80018880208333
121.9280859375
121.92861979166666
121.93842122395833
121.95886393229166
122.00427734375
122.09016276041666
122.092744140625
122.09276692708333
122.10277669270833
122.121533203125
122.10888020833333
122.13201822916666
122.19823893229167
122.20065104166666
122.14364583333334
122.20441731770833
122.22815104166666
122.26036458333333
122.32502604166666
122.0706640625
121.65519856770834
121.62336263020833
121.79820638020833
121.88948893229167
121.90381510416667
121.97332356770833
122.05672200520833
122.08638020833334
122.14470377604167
122.18869791666667
122.23528645833333
122.32096028645833
122.43050130208333
122.459189453125
122.48826822916666
122.51621744791667
122.677265625
122.73868815104167
122.90583333333333
123.04087565104167
123.13501953125
121.10209635416666
120.586435546875
119.18053059895833
118.94869466145833
121.37062174479166
123.409052734375
123.39115559895833
121.77271484375
121.83185872395833
121.82930989583333
121.78084309895833
121.733134765625
121.77293294270834
121.74149088541667
121.72046875
121.80701822916667
121.93544596354167
122.04894205729167
122.14478190104167
122.28354817708333
122.59643229166667
122.82863606770833
122.9698828125
120.986064453125
120.910595703125
120.04376627604167
118.45811848958333
118.61430989583333
123.03501627604167
122.911552734375
123.066435546875
121.581435546875
121.92080078125
122.166318359375
122.2684375
122.42447916666667
122.68432942708333
122.856318359375
120.591171875
120.26272786458334
122.52731119791666
122.72918619791666
122.709921875
122.72967122395833
123.43090494791667
123.39614908854166
123.29307291666667
123.45862955729167
123.50141927083334
122.93152994791667
122.824306640625
122.901181640625
122.69222981770834
122.61783854166667
122.943046875
123.47962565104167
123.59013346354166
123.50754231770833
123.6091796875
123.64320638020833
123.52599934895834
123.27869140625
123.09716145833333
122.95139322916667
122.97402669270834
122.89243489583333
122.82543294270833
122.85264322916667
122.81176106770833
122.86937825520833
122.94419921875
122.94555338541667
122.95745768229166
122.87446940104167
123.06025390625
123.34033528645833
123.33520833333333
123.3575
123.502666015625
123.667568359375
123.84062174479166
124.033427734375
124.01113932291666
124.01669596354166
124.06994140625
124.12136067708333
124.07824544270834
124.03591145833333
124.11957356770833
124.12323567708333
124.202802734375
124.29918294270833
124.373603515625
124.31434895833333
124.369521484375
124.34022135416667
124.27835611979167
124.30701171875
124.330380859375
124.318583984375
124.26125
124.24263671875
124.23675130208333
124.216884765625
124.24482747395834
124.318994140625
124.3636328125
124.36869466145833
124.4288671875
124.60640625
124.66614583333333
124.64034505208333
124.59575846354167
124.66719401041667
124.71508463541667
124.71673177083333
124.642998046875
124.520322265625
124.54082356770833
124.60645833333334
124.64233072916667
124.66222330729167
124.601630859375
124.59611328125
124.679462890625
124.74738932291666
124.7796875
124.80494791666666
124.81712565104166
124.85658203125
124.83834309895833
124.89583658854167
124.88494466145833
124.85425455729167
124.92979817708333
124.977158203125
124.93291341145833
124.93736002604167
124.89203776041667
124.76766276041667
124.70165364583333
124.65462239583333
124.62791666666666
124.625634765625
124.576435546875
124.53348958333333
124.52148763020833
124.514072265625
124.48501953125
124.512451171875
124.509951171875
124.53498046875
124.56499674479167
124.51112630208333
124.45442708333333
124.4425
124.44982421875
124.44212565104166
124.44958658854166
124.45740234375
124.436328125
124.37810872395833
124.28146158854166
124.26864583333334
124.290693359375
124.31502604166667
124.41610677083334
124.43785807291667
124.42743815104167
124.41158854166666
124.4403125
124.38337890625
124.37341145833334
124.41915364583333
124.57406575520834
124.667412109375
124.713388671875
124.7553125
124.738505859375
124.76856119791667
124.7794921875
124.80485677083334
124.77654296875
124.69882161458334
124.58150390625
124.499970703125
124.49512044270833
124.44889973958334
124.42553385416667
124.43564453125
124.422421875
124.40130533854166
124.3995703125
124.40332356770833
124.38942708333333
124.36586263020833
124.36536783854167
124.332197265625
124.31941080729166
124.37806640625
124.42259765625
124.41584635416666
124.407607421875
124.38078125
124.36573893229166
124.43914388020833
124.46218098958333
124.45555338541666
124.46141927083333
124.387568359375
124.296533203125
124.30993489583334
124.2966015625
124.28869466145834
124.33078776041667
124.35906575520833
124.35136393229166
124.41315104166667
124.398125
124.37602213541666
124.4205078125
124.44083333333333
124.42508463541667
124.40321940104167
124.454755859375
124.46888997395833
124.46353841145833
124.43249348958334
124.400693359375
124.38508138020833
124.357724609375
124.36482096354166
124.26478841145833
124.05749348958334
123.807841796875
123.74999348958333
123.86357096354166
123.65810872395834
123.45434244791667
123.55026692708333
123.921513671875
124.013115234375
124.33158854166666
124.40516276041667
124.50719075520833
124.6015625
124.713125
124.765439453125
124.84403645833333
125.00986979166667
125.171318359375
125.371435546875
125.47433268229166
125.51080078125
125.49929361979167
125.523251953125
125.51083333333334
125.27138020833333
125.07096028645833
125.17191731770833
125.33241536458333
125.377724609375
125.38623372395833
125.37402669270833
125.47509765625
125.49717447916667
125.477978515625
125.51369140625
125.57694010416667
125.56592447916667
125.56992513020833
125.57342122395833
125.622578125
125.69572916666667
125.73026692708333
125.727841796875
125.73465494791667
125.72881184895833
125.67230143229166
125.47022135416667
125.32951822916667
125.444033203125
125.494921875
125.530537109375
125.59160807291667
125.62659830729167
125.6609375
125.63335611979167
125.66954752604167
125.65044596354167
125.5997265625
125.55515625
125.38971354166667
125.31303059895833
125.26697591145833
125.242734375
125.29376953125
125.33872721354167
125.34853515625
125.20910481770834
124.96415364583333
124.82017578125
124.79586588541666
124.88317057291667
124.87446614583334
124.86173502604167
124.91288736979166
124.88591471354167
124.871845703125
124.90724934895833
124.9164453125
124.88884114583334
124.83856770833333
124.78584635416667
124.75188151041667
124.83537434895834
124.86154622395833
124.87125
124.921240234375
124.88626953125
124.79661458333334
124.54583658854166
124.49627278645833
124.57396809895833
124.59330729166666
124.55869140625
124.53998697916667
124.56685872395833
124.56615559895833
124.57009765625
124.58431315104167
124.58979817708334
124.57800130208334
124.60210286458333
124.60017578125
124.58607747395833
124.56850911458334
124.53359049479167
124.53220052083333
124.56689127604167
124.514443359375
124.378388671875
124.07515625
124.04808919270833
124.14275065104167
124.25797526041667
123.70035807291667
123.721650390625
123.94193033854167
123.91814778645833
124.26306640625
124.23867513020834
123.938349609375
123.97728841145833
123.95471028645834
123.98458658854166
124.0021484375
124.095869140625
124.15597981770833
124.17272135416667
124.14066731770833
124.47763997395833
124.521845703125
124.56308268229166
124.44768880208333
124.15968098958334
123.99351888020833
124.09457356770834
124.16671875
123.87734375
123.563837890625
123.563349609375
123.78143229166666
123.84388671875
123.575234375
123.56976236979166
123.551826171875
123.84341796875
123.89514973958333
123.65063151041667
123.6721875
123.61311848958333
123.53388671875
123.36021809895833
123.52150065104166
123.32166341145833
123.412392578125
123.48559895833333
123.42674479166666
123.188583984375
123.15689453125
123.270361328125
123.332265625
123.356181640625
123.33710286458333
123.32401041666667
123.37954427083334
123.47195638020834
123.438681640625
123.473369140625
123.51636067708333
123.53018880208333
123.56167643229166
123.64985677083334
123.72644205729166
123.74089192708334
123.76921549479167
124.07211588541666
124.08923177083334
124.105771484375
124.166572265625
124.14997395833333
123.95943684895833
123.69964192708333
123.735078125
123.87719401041667
123.68747395833333
123.68139973958333
123.73832356770833
123.7451171875
123.73399088541667
123.78989583333333
123.84836263020833
123.885234375
123.90594401041666
124.18267252604167
124.242451171875
124.31169270833334
124.318115234375
124.31872721354166
124.35068359375
124.66235026041667
124.6484765625
124.40459309895833
124.7526953125
124.70922526041667
124.50325520833333
124.21447916666666
124.02111002604167
124.092939453125
123.73201171875
123.41947591145833
123.36892903645834
123.32435546875
123.34408528645834
123.35826171875
123.25819661458333
123.23013020833334
123.324150390625
123.27677734375
123.15137044270833
123.07845377604167
122.94183268229166
122.76181640625
122.73762044270833
124.68472981770833
124.51046875
122.73348958333334
122.43408854166667
122.16537109375
121.978212890625
121.847041015625
121.92803059895833
122.11188802083333
122.16830403645834
122.12015625
122.03606770833333
121.931474609375
121.87960611979166
121.89914388020833
121.90189127604167
121.8318359375
121.82224609375
121.79112955729167
121.84144856770833
121.85934895833333
121.84423828125
121.84987630208333
121.8792578125
121.942705078125
121.82178385416667
121.6132421875
121.55494466145834
121.597080078125
121.65964192708333
121.69936848958334
121.74510416666666
121.80331705729166
121.78632161458333
121.797197265625
121.85260091145834
121.90437825520833
121.81398111979166
121.789208984375
121.85208333333334
121.89260091145833
121.93471028645833
121.97055989583333
121.95908203125
121.97461588541667
121.93493489583334
121.778056640625
121.58257161458333
121.63543294270833
121.63518229166667
121.587783203125
121.612509765625
121.63912434895833
121.722470703125
121.73804036458333
121.66202799479167
121.57059895833333
121.61573893229166
121.64882486979167
121.6903515625
121.770439453125
121.72005208333333
121.775390625
121.86299153645834
121.88271158854167
121.84461588541667
121.91833658854166
121.82998046875
121.66029622395833
121.73658203125
121.8987109375
122.00142252604167
122.06902018229167
122.06056640625
121.99718098958333
121.99765950520833
122.02558268229167
121.92384114583334
121.89555989583333
121.98106770833333
121.998564453125
122.08073567708334
122.12834635416667
122.09571940104166
122.10696614583334
122.139521484375
122.16799479166667
122.19694010416667
122.2159375
122.21274739583333
122.029130859375
121.807080078125
121.88213541666667
121.993935546875
122.050625
122.13524739583333
122.22096028645834
122.28981770833333
122.30463216145833
122.2699609375
122.25482096354166
122.31763346354167
122.37880533854167
122.413408203125
122.4142578125
122.42933919270833
122.454931640625
122.521591796875
122.63533528645833
122.61882486979167
122.62782552083333
122.7271875
122.82555989583334
122.888349609375
122.91244791666666
122.744951171875
122.57126302083333
122.48296875
122.40120442708333
122.40590494791667
122.40305338541667
122.36529296875
122.309931640625
122.31158528645834
122.34655598958334
122.34008138020833
122.39068684895834
122.390029296875
122.41036783854166
122.500029296875
122.53523763020833
122.54070638020833
122.55798828125
122.56248372395834
122.54279947916666
122.642421875
122.83153971354167
122.98237955729167
123.16035807291667
123.40443684895833
123.49654947916666
123.55606119791666
123.69455403645833
123.890693359375
124.072197265625
124.20319986979166
124.31027018229166
124.39525716145833
124.51115559895834
124.59127604166666
124.6785546875
124.94109700520833
122.94481119791666
123.09185546875
123.35388997395833
125.253056640625
125.796083984375
125.79415364583333
125.94502278645834
125.88684244791666
125.989228515625
126.08336263020833
126.20966796875
126.23239583333333
125.97562174479167
125.78811197916667
125.877861328125
126.00352213541667
126.22847330729167
126.33360677083333
126.370009765625
126.3647265625
126.3880859375
126.40530598958334
126.464580078125
126.487626953125
126.5280859375
126.56269856770834
126.670810546875
126.75630533854167
126.767255859375
126.76222005208334
126.77287760416667
126.73891927083334
126.71449544270833
126.57365559895834
126.350712890625
126.36958658854167
126.51958333333333
126.48297526041667
126.5343359375
126.62875651041666
126.61958333333334
126.51366861979167
126.36718098958333
126.31807942708333
126.251279296875
126.20339192708333
126.18671875
126.21930013020834
126.28830403645833
126.303466796875
126.25650065104166
126.33968098958333
126.45301432291667
126.52105794270834
126.48818359375
126.41766927083333
126.3527734375
126.28794921875
126.25568684895833
126.24014973958333
126.30320963541666
126.24532877604166
126.19138997395834
126.14984049479166
126.03872721354166
125.9805078125
126.03812825520833
126.08388997395834
126.09968424479166
126.09412760416667
126.19650065104166
126.34335286458334
126.38772135416667
126.45099283854167
126.50471354166666
126.54948567708334
126.51416015625
126.43542643229166
126.44927734375
126.422001953125
126.428369140625
126.41888346354166
126.38416341145833
126.34219401041666
126.29458658854166
126.25942708333334
126.248662109375
126.26303059895834
126.30208333333333
126.37536458333334
126.40137044270833
126.37640950520833
126.377080078125
126.366005859375
126.39151041666666
126.42295247395833
126.35814127604166
126.25194010416666
126.13812825520833
126.16259440104167
126.171796875
126.16841471354167
126.19662760416666
126.22598958333333
126.25753580729166
126.25642903645833
126.30892903645834
126.3227734375
126.33574869791667
126.35400065104167
126.36337890625
126.390380859375
126.40689127604166
126.46228841145833
126.50773763020834
126.49313151041666
126.44766276041666
126.31609049479167
126.20389973958333
126.1272265625
126.14857421875
126.15362955729167
126.20275065104167
126.23817057291667
126.231025390625
126.23194986979166
126.196337890625
126.19836588541666
126.19011067708334
126.166650390625
126.259189453125
126.29201822916667
126.317216796875
126.33098307291667
126.350537109375
126.37785481770834
126.42635416666667
126.480126953125
126.44031575520833
126.25785481770833
126.12570963541667
126.1344921875
126.17409830729167
126.22458984375
126.22628255208333
126.24025065104166
126.24030924479166
126.24224934895834
126.22642903645833
126.23842122395833
126.238525390625
126.23854166666666
126.252421875
126.25871744791667
126.25602864583334
126.23604817708333
126.21354817708334
126.26015299479167
126.2609375
126.251689453125
126.30586263020834
126.37567057291666
126.26510091145833
126.08206705729167
126.08757161458334
126.11430013020833
126.158330078125
126.217333984375
126.27457682291667
126.28255859375
126.19033203125
126.172470703125
126.20416015625
126.23083333333334
126.24083658854167
126.22578450520834
126.20446614583334
126.24841471354166
126.27481119791666
126.26733072916667
126.24845377604167
126.2570703125
126.26037109375
126.27217122395834
126.321015625
126.29183919270834
126.34293294270833
126.27458984375
126.0464453125
125.99859049479167
126.08779296875
126.13151692708334
126.11526692708334
125.83269856770833
126.17687825520834
126.241064453125
126.26209309895833
126.19604817708333
126.18234375
126.21466471354167
126.270166015625
126.27975911458333
126.27980143229166
126.24680989583334
126.30492838541667
126.33287760416667
126.29556640625
126.31007161458334
126.316337890625
126.370126953125
126.42075846354167
126.43700846354167
126.40103190104166
126.29818033854167
126.15265625
126.144990234375
126.19835611979167
126.22286783854166
126.24526692708334
126.23017903645834
126.240263671875
126.29142578125
126.299072265625
126.244365234375
126.26138997395833
126.291005859375
126.36938151041667
126.43894856770834
126.48890299479167
126.49239583333333
126.5037890625
126.5185546875
126.53682942708333
126.54054036458334
126.59707682291666
126.66276041666667
126.69990559895834
126.682548828125
126.61704752604167
126.46258138020833
126.32422526041667
126.37466471354166
126.37950520833333
126.35001953125
126.40493815104166
126.41883463541667
126.39286783854166
126.38087565104166
126.38773763020833
126.39145833333333
126.417353515625
126.48652669270834
126.536103515625
126.57447916666666
126.60248046875
126.63872395833333
126.62591796875
126.66357747395833
126.70814127604167
126.7365234375
126.749873046875
126.68950520833333
126.71129231770833
126.7290625
126.7107421875
126.59998697916667
126.45283854166667
126.412216796875
126.44318359375
126.49124348958334
126.50665364583334
126.499248046875
126.49328125
126.479189453125
126.51461588541666
126.55627278645834
126.60309244791667
126.58011067708334
126.598173828125
126.62523763020833
126.63061848958333
126.59657877604167
126.607646484375
126.648818359375
126.68293619791666
126.63179361979167
126.62054361979166
126.630966796875
126.68188151041667
126.66360026041667
126.57412109375
126.4866015625
126.47306966145834
126.470830078125
126.53099609375
126.56124348958333
126.53469075520833
126.53968098958333
126.55963216145834
126.55941731770834
126.55827473958334
126.59447265625
126.59506184895834
126.59204427083333
126.584677734375
126.60603841145833
126.60224283854167
126.63834309895833
126.63145833333333
126.621572265625
126.63170572916667
126.60775390625
126.555146484375
126.45964518229167
126.40474609375
126.419345703125
126.48997395833334
126.55078125
126.56857747395833
126.61003255208334
126.61430989583333
126.617666015625
126.62898763020833
126.67933919270833
126.681474609375
126.72047200520834
126.728251953125
126.82224934895834
126.8806640625
126.85472330729166
126.87972330729167
126.9382421875
126.98544270833334
127.003564453125
126.99772786458334
126.89470052083334
126.754521484375
126.71428385416667
126.75341471354167
126.73150390625
126.79393229166666
126.805166015625
126.80149739583334
126.78478841145834
126.75733723958334
126.81651041666667
126.855771484375
126.84588216145833
126.814501953125
126.82412760416666
126.86000325520833
126.86394205729167
126.93280924479167
126.9478515625
126.91080403645833
126.88657877604167
126.87682291666667
126.78515299479167
126.72560221354166
126.66940104166666
126.66123697916667
126.67349934895833
126.693994140625
126.72132486979167
126.69902994791667
126.71640299479166
126.70570638020833
126.76427083333333
126.77337890625
126.77165364583334
126.805478515625
126.84238932291667
126.85964192708333
126.88789713541667
126.89094401041666
126.89076822916667
126.91279622395834
126.94521484375
126.95141927083333
126.89894205729166
126.821884765625
126.69611979166666
126.62748046875
126.671953125
126.65805013020834
126.69927083333333
126.75151692708333
126.66805338541667
126.68468098958333
126.68665364583333
126.69884440104167
126.71680013020833
126.69463216145833
126.71392252604167
126.73012369791667
126.728603515625
126.770771484375
126.81678059895833
126.83807291666666
126.86822916666667
126.888154296875
126.90660807291667
126.94962890625
126.96591145833334
126.898173828125
126.77022135416667
126.70662434895833
126.75602864583334
126.80701822916667
126.76924153645834
126.66927734375
126.498271484375
126.27125
126.11168619791667
125.87563151041667
125.648896484375
125.064384765625
124.67740234375
124.17410807291667
124.253994140625
126.354638671875
126.35477864583333
126.58191731770833
125.50673828125
125.75578450520834
125.772646484375
125.64717447916667
125.60931315104166
125.81828450520834
125.946552734375
125.63787109375
125.27098958333333
123.38823893229167
123.54054036458334
123.53998046875
125.19039388020833
125.18585611979167
125.29162760416666
125.26301432291666
125.32656575520834
125.34373046875
125.34178385416666
125.37482421875
125.4276953125
125.4205859375
125.55489583333333
125.67772135416666
125.79220377604166
125.86841145833333
126.00104817708333
126.36566731770833
126.439267578125
126.53955403645833
126.877666015625
126.82411783854167
126.44076171875
126.03856119791666
125.93722330729166
126.00504557291667
125.679296875
125.35980143229166
125.30974934895833
125.20005533854167
125.09845377604167
125.088115234375
125.18045572916667
125.32078776041666
125.43248372395833
125.43892903645833
125.4166015625
125.31736328125
125.1681640625
125.10914713541666
125.15398763020833
125.18000325520833
125.18107096354167
125.28044596354167
125.34867838541666
125.2011328125
124.75582356770833
124.62903971354167
124.67911783854167
126.817705078125
126.71326171875
126.70380208333333
126.75886067708333
125.21359700520833
125.1361328125
125.09013020833333
125.139677734375
125.21119466145834
125.29462239583333
125.41648763020834
125.48766276041667
125.57071614583333
125.61325520833333
125.63586588541666
125.81856119791667
125.80427734375
125.69152018229167
123.16201822916666
122.86708658854167
122.91952473958334
125.18688151041667
126.69519856770833
126.689267578125
126.75245442708334
125.20013997395833
125.21107096354167
125.18212565104167
125.18535481770833
125.194970703125
125.2052734375
125.25694661458333
125.27732096354167
125.27922200520834
125.28286783854166
125.31711263020833
125.38941080729167
125.41101888020833
125.173779296875
124.644990234375
124.486884765625
124.587138671875
124.77934244791666
124.88398763020834
124.99516276041666
125.06419270833334
125.10484049479167
125.03479166666666
125.071455078125
125.11056966145833
125.16401692708334
125.24492838541667
125.354453125
125.42934895833334
125.48829752604166
125.545322265625
125.56660807291667
125.69124348958333
125.697216796875
125.31264973958334
124.95469401041667
125.09289388020834
125.27713216145834
125.30676432291666
125.36832682291667
125.41130533854167
125.474091796875
125.55903971354167
125.52153971354167
125.48044921875
125.46138997395833
125.51305338541667
125.53652018229167
125.567490234375
125.5874609375
125.58075520833333
125.566748046875
125.532978515625
125.56120768229167
125.6328515625
125.50266927083334
124.89852213541667
124.673896484375
124.778701171875
124.95907552083334
125.06312825520833
125.130546875
125.154453125
125.19179361979167
125.17267903645833
125.14859375
125.20628255208334
125.24056315104167
125.26707356770834
125.29875
125.368974609375
125.41572916666667
125.46881184895834
125.45138346354166
125.38669921875
125.397119140625
125.44263671875
125.49611002604166
125.50494791666667
125.25982096354167
124.74021484375
124.672939453125
124.7984375
124.9427734375
124.99072265625
125.042421875
125.04992838541666
125.120439453125
125.11681315104167
125.1198828125
125.17883463541666
125.22886067708333
125.25071614583334
125.28236002604167
125.2939453125
125.33042317708333
125.38481119791666
125.41663411458333
125.42585611979166
125.48108723958333
125.53419921875
125.547470703125
125.63061848958333
125.59810221354167
125.20111002604166
124.81424479166667
124.82740885416666
124.961494140625
125.121630859375
125.12802408854166
125.15884765625
125.29164388020833
125.34868815104167
125.350458984375
125.35516927083333
125.37985677083333
125.4523046875
125.495107421875
125.590634765625
125.62402669270833
125.67432942708334
125.693134765625
125.70924153645834
125.741240234375
125.79830403645833
125.809638671875
125.83467447916667
125.870703125
125.88509765625
125.71325846354166
125.29171875
125.21353190104166
125.34162434895833
125.44087239583334
125.479287109375
125.558271484375
125.56048828125
125.60498046875
125.60027669270833
125.61077799479166
125.63495768229167
125.666484375
125.65056640625
125.67402018229167
125.738447265625
125.760400390625
125.771767578125
125.82807291666667
125.86754557291667
125.87713541666666
125.89884114583333
125.90529296875
125.91633463541666
125.87467122395833
125.57062825520833
125.27682291666666
125.30202473958333
125.44112955729166
125.52734049479167
125.57236002604166
125.63307942708333
125.66855143229166
125.63744140625
125.60229817708333
125.64369466145833
125.75625651041666
125.828623046875
125.86419270833333
125.89352213541666
125.90287434895833
125.93017903645833
125.97745768229167
126.02166341145833
126.08158854166666
126.12528645833333
126.131279296875
126.02786783854167
125.83736979166666
125.7280859375
125.80997395833333
125.73975260416667
125.77115559895833
125.75724934895834
125.81756184895833
125.82191080729167
125.81671549479167
125.79144205729166
125.851123046875
125.902958984375
125.98050130208334
126.01398763020833
126.03255533854167
126.02561848958334
126.06315104166667
126.07998372395834
126.11836263020834
126.12703776041667
126.11306315104167
125.90234049479167
125.64923828125
125.6466796875
125.74964192708333
125.82888346354167
125.85388997395833
125.888828125
125.964130859375
125.92397786458334
125.88348307291666
125.87427408854167
125.91563802083333
125.93526692708333
125.96427734375
126.00361002604167
126.03941731770833
126.06720052083334
126.16590494791667
126.17155924479167
126.21964192708333
126.27818359375
126.415078125
126.36045247395833
126.01130859375
125.77091796875
125.83362630208333
125.92858072916667
125.92219075520833
125.93216796875
125.936015625
125.93838216145834
125.910146484375
125.887197265625
125.88903645833334
125.94223958333333
125.95846028645833
125.95721354166666
125.996259765625
126.02860677083333
125.99162434895834
126.01609049479167
126.043779296875
126.056884765625
126.08626302083333
126.15209635416667
126.17904947916666
126.16250325520834
125.76993815104167
125.60255533854166
125.68899739583334
125.77201171875
125.7532421875
125.80286458333333
125.81094075520834
125.82348958333333
125.85919596354167
125.85732747395834
125.85021484375
125.88868489583334
125.96132486979167
125.97108072916667
126.023369140625
126.04913411458334
126.09755208333333
126.15098958333333
126.20001953125
126.16115234375
126.14972981770833
126.17129557291666
126.22314127604167
126.244560546875
126.14113606770833
125.89914713541667
125.85258138020833
125.960947265625
126.08061848958333
126.08572265625
126.11112630208333
126.211123046875
126.25367838541666
126.24098307291666
126.13847005208333
126.15415364583333
126.19558268229167
126.17174479166667
126.25197916666667
126.29040364583334
126.28788736979166
126.28866536458334
126.29574869791666
126.32713216145834
126.33180989583333
126.3075
126.34015950520833
126.36939453125
126.40569986979166
126.42749674479167
126.36544270833333
126.08263671875
126.04452799479166
126.10624348958333
126.06918619791666
126.08892252604167
126.0774609375
126.133359375
126.09576822916667
126.02614908854167
126.03943684895833
126.07145833333334
126.104599609375
126.14791015625
126.18507161458334
126.191357421875
126.23937825520834
126.23642903645833
126.23356119791667
126.24520833333334
126.268828125
126.3124609375
126.36004557291666
126.42183268229167
126.47267903645833
126.48222005208333
126.33948567708333
126.15958333333333
126.10642903645834
126.1715625
126.07839192708333
126.11220703125
126.17152669270833
126.24065104166667
126.24796549479167
126.24899739583333
126.26464518229167
126.35063802083333
126.42344401041667
126.48806315104167
126.51734049479167
126.52533854166667
126.61133463541667
126.59128580729167
126.62491861979167
126.650927734375
126.70922526041667
126.74309244791667
126.71393229166667
126.61978841145833
126.35501302083334
126.19361979166666
126.27392578125
126.31338541666666
126.27266927083333
126.33816080729167
126.35371744791667
126.36513346354167
126.33969401041666
126.28170247395833
126.27590494791667
126.31078776041667
126.33546549479166
126.40646809895833
126.46737630208334
126.50879231770833
126.48031575520834
126.50917643229167
126.65779296875
126.64928385416667
126.70515950520833
126.71094401041667
126.546298828125
126.21084635416666
126.18058268229167
126.31870442708333
126.28844075520833
126.33851888020833
126.36427408854166
126.385869140625
126.361875
126.31888997395833
126.36248372395833
126.408818359375
126.455400390625
126.522294921875
126.57623372395834
126.59661458333333
126.7435546875
126.76940104166667
126.78083984375
126.80331380208334
126.82939453125
126.85900065104167
126.85479817708334
126.587939453125
126.31809244791667
126.29190104166666
126.360830078125
126.28188151041667
126.34859049479167
126.35980794270833
126.393232421875
126.29825846354167
126.26895833333333
126.27803059895834
126.389296875
126.43959309895833
126.45020182291667
126.43826497395834
126.471640625
126.45978190104167
126.49351236979167
126.50712890625
126.51888020833333
126.53321614583334
126.55311197916667
126.54039388020833
126.35305989583334
125.99251627604167
125.93790690104167
126.035712890625
126.09777669270834
126.1296875
126.17068684895834
126.17236328125
126.22727213541667
126.186845703125
126.15439453125
126.166201171875
126.216943359375
126.29058919270834
126.27921549479167
126.21318033854166
126.16025390625
126.15428385416666
126.18971028645834
126.19272135416666
126.183154296875
126.19810872395833
126.28076171875
126.3696484375
126.383173828125
126.049013671875
125.76276692708333
125.766171875
125.82150716145833
125.84445638020833
125.86355143229167
125.94443033854166
125.95976888020833
125.89004231770834
125.78883138020834
125.74567057291667
125.73974283854167
125.78453776041667
125.84765299479167
125.81721354166666
125.81638997395834
125.80658203125
125.83353190104167
125.89400390625
125.971201171875
126.01742838541666
126.03794270833333
126.04853841145834
126.05361979166666
126.037431640625
125.92455078125
125.50055338541667
125.3731640625
125.41230794270834
125.52572916666666
125.52885091145833
125.53612955729167
125.47283528645833
125.476552734375
125.43204752604167
125.45283528645834
125.50779947916666
125.640859375
125.67323893229167
125.68541666666667
125.67772786458333
125.71983072916667
125.74639973958334
125.78197916666667
125.79094401041667
125.82910481770833
125.84963216145833
125.86504231770833
125.871171875
125.90345052083333
125.95690755208334
125.947802734375
125.802734375
125.36125325520834
125.21373697916667
125.302392578125
125.36871419270834
125.407490234375
125.43001627604167
125.45841145833333
125.473076171875
125.4726953125
125.48584309895833
125.50318684895834
125.59205078125
125.70227213541666
125.7471875
125.70409505208333
125.68320638020833
125.854912109375
125.93808268229166
125.99951171875
126.014248046875
126.01244791666667
126.04484700520834
126.155478515625
126.19621419270834
126.160732421875
126.08137369791666
125.86056966145833
125.63634765625
125.697568359375
125.78068359375
125.88933268229167
125.91114908854166
125.92341145833333
125.974921875
126.03675130208333
126.06038736979167
126.12266927083333
126.190419921875
126.288017578125
126.331220703125
126.44429361979167
126.48895182291666
126.52596028645833
126.51486328125
126.55021484375
126.57336588541666
126.62221354166667
126.66611328125
126.70087239583333
126.7071484375
126.72073567708334
126.72458333333333
126.56998697916667
126.38061197916667
126.3399609375
126.36399739583334
126.43948567708334
126.509990234375
126.52747721354167
126.54580403645834
126.5383203125
126.50398111979166
126.429599609375
126.40738932291667
126.46920572916666
126.48878580729166
126.53927083333333
126.47730143229167
126.47239908854166
126.51700520833333
126.58919596354167
126.64360677083333
126.64188151041667
126.605390625
126.602900390625
126.455263671875
126.260078125
126.19838541666667
126.19742513020833
126.21003580729166
126.23241861979167
126.27007161458333
126.23638997395834
126.190830078125
126.160654296875
126.130732421875
126.158466796875
126.205859375
126.21003255208333
126.23677734375
126.24420247395834
126.28611653645834
126.32306966145833
126.317314453125
126.25203776041667
126.29962890625
126.38861979166667
126.24514973958334
125.97981119791666
125.86239583333334
125.92845703125
126.00699869791667
126.065556640625
126.12492838541667
126.19758138020833
126.18137044270833
126.20677734375
126.24034830729167
126.29982747395833
126.30550130208333
126.36977213541667
126.37473307291667
126.362333984375
126.38369140625
126.39445963541667
126.43474934895833
126.49153971354167
126.5515234375
126.50459309895834
126.31751302083333
125.99263020833334
125.94373046875
126.06201497395833
126.08529947916666
126.123759765625
126.10915364583333
126.150322265625
126.13154947916667
126.10329427083333
126.12734700520834
126.14378580729166
126.167265625
126.20272135416667
126.24928059895834
126.27063151041666
126.31331380208333
126.27687174479166
126.30893880208333
126.38237630208333
126.367412109375
126.388232421875
126.35982421875
126.082265625
125.733525390625
125.67982421875
125.74331380208334
125.8746875
125.88630208333333
125.85749674479166
125.86029296875
125.872431640625
125.79144205729166
125.748955078125
125.74985677083333
125.81519856770834
125.8221875
125.82005533854166
125.77236653645834
125.80160481770834
125.79352213541667
125.83430989583333
125.91451497395833
126.00252278645833
125.985791015625
125.99005859375
126.03632486979167
125.88343424479167
125.51488932291667
125.36072591145833
125.412578125
125.50105794270833
125.53505859375
125.51100260416666
125.474482421875
125.46353190104166
125.46728190104167
125.50963541666667
125.55744466145833
125.58993489583334
125.61826171875
125.659130859375
125.70244140625
125.74571614583333
125.784189453125
125.78776041666667
125.83152018229167
125.87780598958334
125.90609375
125.93635091145833
125.970986328125
125.99360026041667
125.84560872395834
125.42015625
125.22572916666667
125.233359375
125.32671875
125.38924153645833
125.4432421875
125.50521809895834
125.48078125
125.51006184895833
125.5237109375
125.51686848958333
125.53062825520833
125.63331380208334
125.67609049479167
125.72048177083333
125.744296875
125.77882161458334
125.783154296875
125.75864583333333
125.782841796875
125.799091796875
125.74382161458334
125.77958333333333
125.81772786458333
125.84451822916667
125.83252278645833
125.55201497395834
125.17839192708334
125.14308268229166
125.269375
125.37614908854167
125.383056640625
125.42104166666667
125.43776692708333
125.46993815104166
125.42294596354166
125.44500325520833
125.4868359375
125.54125
125.605732421875
125.62529947916667
125.623173828125
125.616826171875
125.49998697916666
125.33521809895834
125.391787109375
125.44702799479167
125.52225911458333
125.609521484375
125.65234049479167
125.64185546875
125.29140625
125.09060546875
125.08393880208334
125.15226888020834
125.20616861979167
125.29486979166667
125.322744140625
125.3670703125
125.36013346354167
125.35536783854167
125.368837890625
125.438095703125
125.52684895833333
125.5992578125
125.63791015625
125.694833984375
125.71111328125
125.69056640625
125.71639322916667
125.71354166666667
125.756953125
125.84095052083333
125.83238606770833
125.51295247395834
125.24422526041667
125.29781575520833
125.41190104166667
125.47724283854167
125.4558203125
125.52314778645834
125.55941731770834
125.506865234375
125.49438151041667
125.49810872395834
125.56888671875
125.61223958333333
125.63473307291666
125.64396158854167
125.65140950520833
125.59531901041667
125.53555338541666
125.55207356770833
125.5834765625
125.61845377604166
125.67127278645833
125.70749348958333
125.57238932291666
125.24010091145833
125.00929361979166
125.04333333333334
125.10263346354166
125.14207682291666
125.19709309895833
125.21201497395833
125.23465494791667
125.23753580729166
125.244814453125
125.257783203125
125.319404296875
125.38965169270833
125.44005208333333
125.50595377604166
125.51977213541667
125.59852864583333
125.645322265625
125.692744140625
125.75383463541667
125.822158203125
125.79192708333333
125.815107421875
125.875029296875
125.78135091145833
125.40138020833334
125.25198567708334
125.3348046875
125.413251953125
125.428984375
125.465
125.45156575520834
125.49049479166666
125.55266276041667
125.513974609375
125.50812825520833
125.48402018229167
125.52479817708333
125.58201497395834
125.60958984375
125.67372721354167
125.85276692708334
126.00539713541667
126.0476171875
126.0748828125
126.12328125
126.130927734375
126.12234375
126.1487890625
126.176318359375
126.05417643229167
125.631513671875
125.50823893229166
125.52916666666667
125.60005208333334
125.65382161458334
125.6876953125
125.73122395833333
125.74403971354167
125.704111328125
125.70856119791667
125.748203125
125.774931640625
125.78822591145833
125.84883138020834
125.87261067708333
125.92276041666666
125.98489908854167
126.01251627604167
126.091728515625
126.116904296875
126.16519205729166
126.28085286458334
126.33548177083334
126.37000651041667
126.35026041666667
126.1295703125
125.78960286458333
125.77375325520833
125.84334635416667
125.83417317708333
125.83362955729167
125.89954752604167
126.00245442708334
126.06005533854167
125.99353515625
126.00293294270833
126.04123697916667
126.11737955729167
126.16853515625
126.21875651041667
126.22071940104166
126.26728841145834
126.35579752604167
126.41972005208333
126.464248046875
126.56385091145833
126.57692057291666
126.58998697916667
126.60554036458333
126.55147786458333
126.25578125
126.005341796875
126.0463671875
126.118916015625
126.19033528645834
126.27593098958333
126.33167317708333
126.37569661458333
126.33851888020833
126.38453450520834
126.36516276041667
126.37347005208333
126.40360677083333
126.46277018229166
126.50217447916667
126.58230794270834
126.67240559895833
126.76955078125
126.84520833333333
126.88424479166666
126.82741861979167
126.79616861979167
126.747509765625
126.58350911458334
126.41289388020833
126.464228515625
126.64723307291666
126.90496419270833
127.05789713541667
127.136513671875
127.190341796875
127.2164453125
127.17739908854166
127.18288736979167
127.16248046875
127.19259440104166
127.06413411458334
126.8537109375
126.82011067708333
126.96131184895833
127.11574544270833
127.24042643229167
127.30910807291667
127.32827799479166
127.35247395833333
127.137392578125
126.156044921875
124.72613606770834
124.05696614583333
124.05307291666666
124.696845703125
127.47697591145834
128.05059244791667
128.36677083333333
125.508310546875
125.790078125
125.887060546875
126.94097005208333
127.16650065104167
127.32293619791666
127.24249674479167
127.320810546875
127.5773046875
127.71903645833333
128.28253255208332
126.70789713541667
126.57034505208334
126.49859375
126.97787109375
128.28503255208332
128.317607421875
128.58820638020833
128.91398111979166
129.04438151041666
129.155
129.420830078125
129.65734700520832
129.73199544270832
129.693857421875
129.80825846354168
129.886748046875
129.83735677083334
127.56120768229167
127.64001953125
127.65241536458333
127.65513997395833
127.660166015625
127.68642578125
127.733671875
127.77230794270834
127.62147135416667
127.30845377604167
127.08073567708334
127.1526953125
129.56998697916666
129.46555013020833
129.37961588541665
129.49403645833334
129.50172200520834
129.428564453125
129.35871419270833
129.35113606770832
129.32459309895833
129.369794921875
129.37404947916667
129.30179036458333
129.32193684895833
129.26724283854168
129.22902994791667
129.10354817708333
129.087763671875
128.82448567708335
128.69125325520832
128.51501302083332
128.11001953125
127.62697265625
126.904365234375
126.35770833333333
125.905751953125
127.31073567708333
126.835478515625
126.69690755208333
126.68411783854167
125.38877604166667
125.46408528645833
125.286591796875
125.22011067708333
125.41181966145834
125.503701171875
125.49961588541667
125.41447265625
125.64052408854167
125.78579427083334
125.90436197916667
125.83603190104166
125.64881184895833
125.7459375
126.00020182291667
126.436748046875
126.85198567708333
126.83862630208333
126.69128580729166
126.62935546875
126.84480794270833
126.981142578125
127.0914453125
127.19042317708333
127.22863932291666
127.317841796875
127.49651692708333
127.63888997395833
127.61930338541667
127.71454752604167
125.61516927083333
125.724375
125.74861979166667
127.12825846354167
127.11986002604166
127.21507486979166
127.36572591145833
127.58
127.87051106770834
128.10547200520833
128.431416015625
128.73092122395835
128.68731770833332
128.715810546875
128.741142578125
128.82900716145832
128.947060546875
129.03274088541667
129.02855143229166
129.08078776041665
129.07199869791665
129.02376953125
129.01835286458333
129.08961588541666
129.14414713541666
129.28136393229167
129.386640625
129.412353515625
129.421484375
129.464169921875
129.47276041666666
129.51356119791666
129.55590494791667
129.45321614583332
129.26507161458332
129.09998372395833
129.09231119791667
129.12855143229166
129.13774088541666
129.15700520833335
129.16325846354167
129.188798828125
129.1970703125
129.18619791666666
129.19305013020832
129.23479817708332
129.27300130208334
129.30913411458334
129.30891276041666
129.27456380208332
129.28115234375
129.32076497395835
129.3545703125
129.37979166666668
129.37592447916666
129.21539713541668
128.97072265625
128.82636067708333
128.875166015625
128.92147135416667
129.00779296875
129.024072265625
129.044970703125
129.04326497395834
129.05845052083333
129.12311848958333
129.162705078125
129.19434895833334
129.23806640625
129.30085611979166
129.30085286458333
129.33123372395832
129.3732421875
129.365029296875
129.40865559895835
129.44251953125
129.507333984375
129.50311197916668
129.323974609375
128.99868489583332
128.98759114583333
129.040126953125
129.10177083333335
129.144921875
129.16721028645833
129.15402669270833
129.18138997395835
129.1604296875
129.181015625
129.24489908854167
129.28150065104165
129.23774088541666
129.18907877604167
129.172548828125
129.19813151041666
129.28640625
129.340595703125
129.36266276041667
129.40026692708332
129.42402669270834
129.42615885416666
129.24100911458333
128.98376953125
128.96398111979167
129.03252604166667
129.07265625
129.10832682291667
129.178046875
129.22716796875
129.2187109375
129.251435546875
129.222578125
129.22457356770835
129.24974283854166
129.23720377604167
129.32430989583332
129.37322265625
129.41865559895834
129.407041015625
129.32755859375
129.25001627604166
129.25332682291668
129.26206705729166
129.28240234375
129.20848307291666
128.938623046875
128.82475260416666
128.82050455729166
128.7908984375
128.83688151041667
128.89889973958333
128.99570638020833
129.01901692708333
128.99435872395833
128.94087239583334
128.96904296875
129.046181640625
129.10526041666665
129.16736979166666
129.19472005208334
129.2369921875
129.23745768229168
129.27666666666667
129.35314127604167
129.36858072916667
129.41846354166665
129.455263671875
129.504384765625
129.49312825520835
129.25880533854166
129.04011393229166
129.01572591145833
129.04427408854167
129.06282552083334
129.10489908854166
129.1613671875
129.24254231770834
129.258935546875
129.25740559895834
129.25900390625
129.28515299479167
129.33277018229165
129.37772135416665
129.38297200520833
129.42366861979167
129.44518229166667
129.4734375
129.47988932291668
129.485888671875
129.463916015625
129.497421875
129.506748046875
129.51437174479167
129.52181315104167
129.46011067708332
129.24171875
129.04529296875
128.98710611979166
128.97868815104167
128.96263997395835
128.99894856770834
129.053427734375
129.14603190104165
129.17548502604166
129.23182291666666
129.229931640625
129.20582682291666
129.22169270833334
129.252724609375
129.27866861979166
129.2924609375
129.33902669270833
129.40266276041666
129.46183268229166
129.474130859375
129.47521484375
129.47845052083332
129.51943684895832
129.54305013020834
129.57230794270833
129.484130859375
129.301181640625
129.193125
129.21266927083335
129.21680989583334
129.22624674479167
129.25150716145833
129.29445638020835
129.32809244791667
129.33379231770834
129.41765299479167
129.489599609375
129.563798828125
129.63236979166666
129.67316731770833
129.678662109375
129.72209635416667
129.76194661458334
129.808037109375
129.82157552083333
129.86828125
129.88701171875
129.882255859375
129.92474934895833
129.94411458333335
129.84819661458334
129.65245768229167
129.531640625
129.529267578125
129.56559244791666
129.56389973958332
129.620283203125
129.67363932291667
129.711591796875
129.72697916666667
129.76623372395832
129.821123046875
129.88814453125
129.887060546875
129.90875325520832
129.94779947916666
129.9675
129.99423177083332
130.04144856770833
130.05588541666665
130.092216796875
130.08988606770833
130.040390625
129.90010091145834
129.72512044270835
129.64517578125
129.65569661458332
129.72248046875
129.78537434895833
129.83545572916665
129.91381510416667
129.97662109375
129.95186197916667
129.95892578125
130.01610677083335
130.05106770833333
130.11369791666667
130.12318684895834
130.088046875
130.109384765625
130.135556640625
130.153828125
130.201474609375
130.17573567708334
130.15358723958335
130.02215494791668
129.79112955729167
129.64363932291667
129.71573893229166
129.71739908854167
129.69776692708334
129.70874674479165
129.74001627604167
129.72184244791666
129.71513997395834
129.67629231770835
129.64392252604168
129.632236328125
129.75544596354166
129.90001302083334
129.93844075520835
129.97871419270834
130.00758138020834
129.98369140625
129.961552734375
129.98075520833333
129.976884765625
129.93364583333334
129.69300455729166
129.46722005208332
129.48312174479167
129.52119140625
129.50930989583333
129.54719075520833
129.59314453125
129.60050455729166
129.563857421875
129.59597005208335
129.62187174479166
129.64356119791665
129.65105143229167
129.72891276041668
129.81361653645834
129.79143880208332
129.827255859375
129.866767578125
129.836650390625
129.871669921875
129.90459635416667
129.90404296875
129.81533854166668
129.61152018229166
129.39816731770833
129.42308268229166
129.47365559895835
129.52136393229168
129.52347330729165
129.53643229166667
129.53033203125
129.5070703125
129.499921875
129.51852864583333
129.54170247395834
129.59480794270834
129.62142903645832
129.621669921875
129.63988932291667
129.62200520833332
129.64569986979166
129.68135416666667
129.739482421875
129.759931640625
129.78637044270835
129.79166666666666
129.74003580729166
129.54462565104166
129.28508138020834
129.22727864583334
129.31268880208333
129.42444986979166
129.486669921875
129.52008463541668
129.56114583333334
129.566513671875
129.54271484375
129.519130859375
129.54105143229165
129.59179361979167
129.658623046875
129.71596354166667
129.75748697916666
129.81080729166666
129.81063151041667
129.83980143229167
129.838740234375
129.90189453125
129.9594140625
130.01115559895834
130.03567057291667
129.998359375
129.73646484375
129.42906901041667
129.34932942708335
129.44561848958332
129.513154296875
129.58579427083333
129.62447265625
129.674228515625
129.67310872395834
129.61427734375
129.50037109375
129.44303385416666
129.55448893229166
129.680771484375
129.80696614583334
129.86789713541665
129.8545703125
129.85252604166666
129.87962239583334
129.93176106770832
129.959462890625
129.99940104166666
130.039453125
130.09336588541666
129.89191731770833
129.60810872395834
129.53421875
129.51611653645833
129.49088216145833
129.58826822916666
129.6915234375
129.71651692708335
129.71091145833333
129.70367838541668
129.68367838541667
129.76009765625
129.79822591145833
129.86227864583333
129.88012044270835
129.913515625
129.89822916666665
129.89623046875
129.93246419270832
129.93994466145833
129.92591796875
129.87285807291667
129.69930989583332
129.463359375
129.33885091145834
129.31695963541668
129.28172200520834
129.32276041666665
129.34446940104166
129.41431315104165
129.39966796875
129.44652018229166
129.45881510416666
129.51618489583333
129.547548828125
129.5927734375
129.58476888020834
129.640693359375
129.71150390625
129.733525390625
129.72594401041667
129.693544921875
129.71219075520833
129.77031575520834
129.77442057291665
129.505537109375
129.205439453125
129.159736328125
129.12933268229168
129.17089518229167
129.27030924479166
129.24726236979166
129.23563151041665
129.17389973958333
129.175400390625
129.27498372395834
129.33856770833333
129.37594075520835
129.42255208333333
129.42356119791665
129.412587890625
129.39048177083333
129.44676106770834
129.49208984375
129.544951171875
129.549423828125
129.56609375
129.53512044270835
129.42054361979166
129.06804036458334
128.86558919270834
128.89866861979166
129.034951171875
129.09597981770833
128.76673177083333
129.11162109375
129.12847005208334
129.117919921875
129.073427734375
129.100888671875
129.19135091145833
129.267890625
129.29540364583335
129.31923177083334
129.318544921875
129.27607421875
129.25351888020833
129.27215169270832
129.32504231770832
129.327783203125
129.333779296875
129.3059375
129.34540690104166
129.21961588541666
128.836875
128.717041015625
128.76957682291666
128.81689127604167
128.57193359375
128.607548828125
128.67595052083334
128.70891927083332
129.01880859375
129.02263671875
129.08830403645834
129.16116536458333
129.17474609375
129.20051432291666
129.227041015625
129.23774739583334
129.28428385416666
129.34165364583333
129.36982421875
129.35995442708332
129.390380859375
129.450048828125
129.5041015625
129.49210286458333
129.19096028645833
128.93505208333335
128.949208984375
129.02214192708334
129.09722330729167
129.14872721354166
129.15059244791667
129.165615234375
129.14861979166668
129.11923177083332
129.08793294270833
129.165986328125
129.2412109375
129.26094401041667
129.25369140625
129.26907877604165
129.30645833333332
129.355283203125
129.424375
129.49541341145834
129.540751953125
129.582646484375
129.63234375
129.51766927083332
129.23759114583333
129.06126302083334
129.10612630208334
129.182568359375
129.24320638020833
129.26896484375
129.325107421875
129.31470377604165
129.316572265625
129.32728841145834
129.31806640625
129.34935872395835
129.41398763020834
129.47364583333334
129.523310546875
129.52493815104165
129.49716796875
129.509423828125
129.52752278645832
129.515986328125
129.54300130208333
129.51932942708333
129.268720703125
129.01499348958333
129.01900716145835
129.08210611979166
129.13169596354166
129.20707682291666
129.22169921875
129.19123697916666
129.18701497395833
129.18721354166667
129.20517903645833
129.2646484375
129.31536783854168
129.34841796875
129.41469075520834
129.45492838541668
129.46552408854166
129.46497721354166
129.53407552083334
129.55617513020835
129.56490559895835
129.580556640625
129.407080078125
129.11248697916668
129.006103515625
129.02780924479165
129.085
129.11288411458332
129.14699544270835
129.14775716145834
129.13392252604166
129.09938151041666
129.07591471354166
129.08555013020833
129.13863606770835
129.20918619791667
129.2901953125
129.30775390625
129.31517903645835
129.34578125
129.382412109375
129.445302734375
129.50556966145834
129.53176106770835
129.53909505208333
129.58935546875
129.483271484375
129.16441080729166
128.9609765625
128.96482096354165
129.01128580729167
129.05016276041667
128.77222981770834
128.80207356770833
129.11118815104166
129.05422200520835
129.04689778645835
129.06138346354166
129.13067708333332
129.19637044270834
129.22781901041665
129.22257486979166
129.249560546875
129.2780078125
129.29413736979166
129.32896158854166
129.37569010416667
129.38828125
129.38469401041667
129.419462890625
129.44205078125
129.40780924479168
129.16860026041667
128.87324544270834
128.83924479166666
128.91351888020833
128.98181640625
128.74179361979168
128.75861653645833
128.76562825520833
129.04299153645835
129.04760091145835
129.06916015625
129.09250325520833
129.18512044270832
129.17492513020832
129.20902669270833
129.241298828125
129.27381184895833
129.29575520833333
129.3688671875
129.41178059895833
129.425615234375
129.44849609375
129.45310872395834
129.467958984375
129.480400390625
129.39375651041667
129.08754231770834
128.87941080729166
128.924404296875
129.00414713541667
129.02461588541667
128.729990234375
128.671552734375
128.68490559895832
129.01115234375
129.02451822916666
128.76920247395833
128.82741861979167
128.825712890625
128.85058268229167
129.225234375
129.287890625
129.316220703125
129.35300130208333
129.3555078125
129.39171549479167
129.43274739583333
129.47086263020833
129.52128580729166
129.52877278645835
129.36400716145835
129.04761067708333
128.95447916666666
128.93690104166666
129.00466145833335
128.77316080729167
128.86092447916667
128.912763671875
128.88658854166667
129.125546875
129.123720703125
129.18732747395833
129.27779947916667
129.33697916666668
129.36680989583334
129.39271484375
129.39455729166667
129.35196614583333
129.37389973958332
129.454326171875
129.469052734375
129.42565104166667
129.47534830729165
129.32557291666666
128.977431640625
128.87004557291667
128.89673828125
128.96632486979166
128.74843424479167
128.861328125
128.90968098958334
128.95923502604165
129.239736328125
129.262763671875
129.33013671875
129.38255208333334
129.35778645833332
129.42517252604168
129.42951822916666
129.36729817708334
129.365927734375
129.421884765625
129.43206705729168
129.41195963541668
129.43585611979168
129.46783528645832
129.39427408854166
129.09628255208332
128.794814453125
128.775537109375
128.85160481770833
128.56873372395833
128.31613606770833
128.38945963541667
128.6801171875
128.64411458333333
128.63675130208333
128.6765625
128.73514322916665
128.77616861979166
128.79394205729167
128.833798828125
128.83904947916668
129.21118815104165
129.24832356770833
129.26699869791668
129.25622721354168
129.313154296875
129.36378255208334
129.37651692708334
129.38587239583333
129.30610677083334
128.89450520833333
128.64559895833332
128.67723307291666
128.730732421875
128.16953125
128.16685546875
128.14695963541666
128.18417317708332
128.18603841145833
128.16404947916666
128.18294921875
128.23714192708334
128.19270833333334
128.22418619791668
128.25747721354168
128.3022265625
128.35517252604166
128.37815104166665
128.67052083333334
128.70623697916668
128.74446614583334
128.8040625
128.90990885416667
128.9067578125
128.82277669270835
128.585302734375
128.53816080729166
128.411533203125
128.201328125
127.99175455729167
127.96543294270833
127.97275065104166
128.00838541666667
128.02814127604168
128.0085546875
128.03465494791666
128.09322265625
128.11823893229166
128.18266276041666
128.21461263020834
