0.0
0.0
0.0
0.0
1.045078125
24.310647786458333
4.9955436197916665
8.662841796875
24.603815104166667
15.77384765625
23.1412109375
18.291123046875
19.456266276041667
18.465872395833333
14.8702734375
15.636943359375
15.433287760416667
11.588818359375
11.480221354166666
10.459759114583333
10.550452473958334
10.743502604166666
10.983779296875
9.530514322916666
9.745286458333334
9.949697265625
10.116083984375
10.21578125
9.353623046875
9.381139322916667
9.358642578125
9.343346354166666
11.007893880208334
11.055758463541666
11.093063151041667
11.140494791666667
11.208740234375
11.23533203125
11.238245442708333
11.26458984375
11.235944010416667
11.231624348958333
11.258736979166667
11.280677083333334
11.326813151041666
11.377265625
11.366285807291666
11.367054036458333
11.386305338541666
11.421520182291667
11.461809895833333
11.48353515625
11.465162760416666
11.496806640625
11.515234375
11.538616536458333
11.5273828125
11.511136067708334
11.557477213541667
11.582897135416667
11.581653645833333
11.586979166666667
11.568212890625
11.559104817708333
11.577337239583333
11.596676432291666
11.558948567708333
11.538515625
11.534534505208333
11.509759114583334
11.504254557291667
11.514303385416667
11.508147786458334
11.4735546875
11.467014973958333
11.433557942708333
11.395123697916667
11.288623046875
11.132444661458333
10.954567057291667
10.876471354166666
11.765703125
11.716529947916667
9.928619791666666
9.876328125
9.80662109375
9.783600260416666
9.772327473958333
9.7865234375
9.78330078125
9.744182942708333
9.7184375
9.646796875
9.613610026041666
9.604733072916666
9.593675130208334
9.56884765625
9.539622395833334
9.558551432291667
9.605520833333333
9.662838541666666
9.757151692708334
9.84361328125
9.901298828125
10.018776041666667
10.17169921875
10.274527994791667
10.286904296875
10.311764322916666
10.368522135416667
10.401858723958334
10.446741536458333
10.481051432291666
10.524524739583333
10.58494140625
10.636767578125
10.672799479166667
10.691311848958334
10.731097005208333
10.738466796875
10.756650390625
9.843274739583334
9.871920572916666
9.889908854166666
9.90171875
11.596279296875
11.638626302083333
11.6571484375
11.699794921875
11.738655598958333
11.777477213541667
11.809680989583333
11.835869140625
11.864134114583333
11.849606119791666
11.879280598958333
11.901780598958334
11.921175130208333
11.940286458333333
11.950452473958334
11.950208333333334
11.982529296875
12.0065625
12.05103515625
12.095263671875
12.13453125
12.139065755208334
12.162731119791667
12.197486979166667
12.609762369791667
12.599755859375
12.600634765625
12.583512369791666
12.6080859375
12.640647786458333
12.668004557291667
12.752008463541667
12.768258463541667
12.766516927083334
12.790133463541666
12.8046484375
12.832600911458334
12.872317708333334
12.891858723958334
12.9190234375
12.9558203125
12.955852864583333
12.948655598958334
12.943883463541667
12.96193359375
12.968723958333333
13.007236328125
13.023125
13.025201822916667
13.045823567708334
13.055657552083334
13.080162760416666
13.1083984375
13.119876302083334
13.13412109375
13.152093098958334
13.158740234375
13.142669270833334
13.165260416666667
13.196370442708334
13.196497395833333
13.213069661458333
13.219833984375
13.224309895833333
13.233151041666666
13.258499348958333
13.27306640625
13.29314453125
12.341116536458333
12.344791666666667
12.335735677083333
12.353776041666666
15.609720052083333
15.643512369791667
15.695748697916667
15.728235677083333
15.76939453125
15.7804296875
15.794768880208334
15.805279947916667
15.820348307291667
15.811315104166667
15.840849609375
15.857985026041666
15.879886067708334
15.892613932291667
15.900032552083333
15.914348958333333
15.892897135416666
15.899593098958333
15.931764322916667
15.974430338541667
16.007037760416665
16.034029947916668
16.018831380208333
16.022102864583335
16.030208333333334
16.045166015625
16.061126302083334
16.053463541666666
16.051949869791667
16.071217447916666
16.088538411458334
16.109811197916667
16.156787109375
16.1729296875
16.138492838541666
16.13224609375
16.110458984375
16.1115234375
16.124951171875
16.133987630208335
16.131975911458333
16.141569010416667
16.133587239583335
16.158203125
16.148740234375
16.161484375
16.19888671875
16.2162890625
16.227877604166668
16.260927734375
16.284713541666665
16.269130859375
16.2933984375
16.305260416666666
16.292535807291667
16.314007161458335
16.341845703125
16.376171875
16.411705729166666
16.42705078125
16.412490234375
16.372542317708334
16.391253255208333
16.414807942708332
16.439417317708333
16.428444010416666
16.445914713541665
16.420530598958333
16.3967578125
16.416363932291667
16.40947265625
16.411624348958334
16.434166666666666
16.428356119791665
16.42955078125
16.439075520833335
16.42681966145833
16.437054036458335
16.425458984375
16.432268880208333
16.435087890625
16.43459635416667
16.439407552083335
16.453326822916665
16.445901692708333
16.418388671875
16.378349609375
16.378255208333332
16.39625
16.425026041666666
16.403271484375
16.413326822916666
16.428824869791665
16.4566015625
16.477867838541666
16.443131510416666
16.421878255208334
16.414456380208332
16.398349609375
16.406380208333335
16.41769856770833
16.507174479166668
16.498684895833332
16.489055989583335
16.485035807291666
16.481334635416665
16.47955403645833
16.488662109375
16.46734375
16.438987630208334
16.385358072916667
16.342760416666668
16.38111328125
16.355872395833334
16.38126953125
16.37328125
16.366360677083332
16.382483723958334
16.363177083333333
16.320533854166666
16.299658203125
16.29916015625
16.315413411458334
16.33224609375
16.356526692708332
16.393743489583333
16.386077473958334
16.382044270833333
16.384469401041667
15.637552083333333
15.631943359375
15.62228515625
15.574527994791667
15.504261067708333
15.507412109375
15.539899088541667
15.533795572916667
15.550201822916666
15.589098307291666
15.586741536458334
15.579466145833333
15.55263671875
15.540240885416667
15.530784505208333
15.541432291666666
15.519104817708333
15.513430989583334
15.531959635416667
15.546022135416667
15.560530598958334
15.577340494791667
15.5661328125
15.548072916666667
15.5082421875
15.425927734375
15.416276041666666
15.423759765625
15.420638020833334
15.422451171875
15.415003255208333
15.423759765625
15.400338541666667
15.383352864583333
15.384739583333333
15.389599609375
15.386871744791666
15.411832682291667
15.43009765625
15.400882161458334
15.362311197916666
15.333909505208334
15.304495442708333
15.31966796875
15.332298177083333
15.303723958333334
15.2631640625
15.153098958333333
15.082174479166667
15.117861328125
15.157213541666666
15.193414713541667
15.246044921875
15.276689453125
15.5302734375
15.544830729166666
15.563014322916667
15.580172526041666
15.599173177083333
15.632018229166667
15.652962239583333
15.646012369791666
15.6112890625
15.624111328125
15.639690755208333
15.636497395833333
15.624075520833333
15.626529947916667
15.607737630208334
15.592057291666666
15.515055338541666
15.399869791666667
15.381861979166667
15.385354817708333
15.349124348958334
15.35283203125
15.366507161458333
15.372434895833333
15.355895182291667
15.390094401041667
15.408616536458334
15.375143229166667
15.353955078125
15.341806640625
15.341845703125
15.331572265625
15.298291015625
15.284580078125
15.2671484375
15.249016927083334
15.2102734375
15.183610026041666
15.149990234375
15.109108072916667
14.998372395833334
14.866002604166667
14.820276692708333
14.79095703125
14.762044270833334
15.874235026041667
15.90587890625
15.929931640625
13.072415364583334
13.080081380208334
13.078079427083333
14.826891276041666
14.814697265625
14.749462890625
14.681930338541667
14.643177083333333
14.661692708333334
14.658489583333333
14.65744140625
14.644049479166666
14.643427734375
14.703092447916667
14.717265625
14.697942708333333
14.614680989583333
14.565501302083334
14.574361979166667
15.6909375
15.740423177083333
13.907744140625
12.924580078125
12.927708333333333
12.919638671875
12.923440755208333
12.9325390625
14.703258463541667
14.725423177083334
14.716061197916666
14.698994140625
14.7191015625
14.74716796875
14.765944010416666
14.782470703125
14.772666015625
14.765862630208334
14.721246744791667
14.60962890625
14.586673177083334
14.644912109375
15.757740885416666
15.774847005208333
15.794114583333334
15.801829427083334
12.966227213541666
12.963483072916667
12.963756510416667
14.740250651041666
14.746233723958333
14.7584765625
14.786494140625
14.792854817708333
14.791236979166667
14.769049479166666
14.745872395833333
14.715074869791666
14.691360677083333
14.62935546875
14.524664713541666
14.505738932291667
15.66080078125
15.737044270833334
13.900068359375
13.92134765625
13.94130859375
13.933798828125
13.950208333333334
12.941829427083333
12.885963541666667
12.83884765625
12.838141276041666
14.571764322916666
14.613238932291667
14.612392578125
14.677119140625
14.693190104166666
14.6888671875
14.674440104166667
14.651907552083333
14.594622395833333
14.476647135416666
14.438740234375
14.449674479166667
15.542037760416667
15.566852213541667
15.562477213541667
13.749244791666667
13.769645182291667
13.768642578125
12.762213541666666
12.793880208333333
12.79130859375
14.506012369791666
14.517086588541666
14.5280078125
14.571806640625
14.586669921875
14.574951171875
14.580061848958334
14.60390625
14.6321875
14.644485677083333
14.636826171875
14.6217578125
14.57080078125
14.595989583333333
14.646207682291667
15.756136067708333
15.740423177083333
15.736429036458333
13.970703125
13.985999348958334
13.973362630208333
13.914765625
12.934059244791667
12.94046875
12.958821614583334
12.951497395833334
12.92619140625
14.686412760416667
14.703577473958333
14.699404296875
14.686409505208333
14.696513671875
14.711686197916666
14.701640625
14.700882161458333
14.688720703125
14.608610026041667
14.495364583333334
14.486715494791667
15.599212239583334
15.60556640625
15.185670572916667
13.410804036458334
13.817750651041667
13.80638671875
13.717825520833333
13.723811848958333
13.736002604166666
13.777672526041666
13.798268229166666
13.8089453125
13.84509765625
13.873011067708333
13.895983072916666
13.885276692708333
13.890530598958334
13.909820963541666
13.906044921875
13.907389322916666
13.892620442708333
13.822815755208333
13.705930989583333
13.655810546875
13.673238932291667
13.759348958333334
13.363785807291666
13.364075520833333
13.38388671875
13.813404947916666
13.787607421875
13.785908203125
13.781695963541667
13.785764973958333
13.809228515625
13.827555338541666
13.824436848958333
13.81693359375
13.815677083333334
13.816272786458333
13.8419921875
13.86357421875
13.863313802083333
13.846272786458334
13.797643229166667
13.708740234375
13.712903645833334
13.736354166666667
13.754254557291667
13.349173177083333
13.377652994791667
13.369684244791667
13.358470052083334
13.343043619791667
13.753818359375
13.760836588541666
13.759580078125
13.760013020833334
13.347395833333334
13.353668619791666
13.770872395833333
13.78482421875
13.799329427083334
13.79740234375
13.805087890625
13.804140625
13.727190755208333
13.655846354166666
13.6784765625
13.708489583333334
13.309847005208333
13.327268880208333
13.339788411458333
13.356998697916667
13.36015625
13.389690755208333
13.385712890625
13.397897135416667
13.392490234375
13.380680338541667
13.810716145833334
13.8728515625
13.874469401041667
13.851360677083333
13.856959635416667
13.863294270833334
13.858548177083334
13.880852864583334
13.876897786458333
13.787890625
13.722620442708333
13.767652994791666
13.805455729166667
13.40484375
13.424368489583333
13.447320963541667
13.472701822916667
13.491803385416667
13.500797526041667
13.49052734375
13.921162109375
13.968958333333333
14.00470703125
13.586731770833333
13.594117838541667
14.033072916666667
14.033095703125
14.030970052083333
14.032639973958334
14.02763671875
14.006276041666666
13.994850260416667
13.971588541666666
13.860869140625
13.7821875
13.786901041666667
13.821884765625
13.427272135416667
13.387467447916666
13.399212239583333
13.396920572916667
13.362054036458334
13.354798177083333
13.337965494791666
13.311223958333333
13.333642578125
13.34884765625
13.346438802083334
13.364697265625
13.350501302083334
13.32611328125
13.336927083333334
13.355126953125
13.359986979166667
13.344684244791667
13.302125651041667
13.26462890625
13.241591796875
13.334248046875
13.397024739583333
13.373740234375
13.349521484375
13.245361328125
12.848645833333334
11.951005859375
10.94001953125
10.378649088541666
10.245279947916666
10.797486979166667
10.396901041666666
7.84908203125
8.489889322916667
8.351432291666667
8.306106770833333
8.284088541666666
8.210016276041667
5.436402994791667
5.127890625
4.738720703125
4.467412109375
5.042464192708334
5.022106119791666
4.503069661458333
5.162379557291667
5.172093098958333
5.116539713541667
5.0193098958333335
4.920546875
2.7606510416666667
2.7266471354166666
2.722561848958333
2.6997200520833333
2.662125651041667
2.602330729166667
2.552705078125
2.4984505208333334
2.4302278645833333
1.9456184895833333
1.8333821614583334
1.5259733072916666
0.5823470052083334
0.50369140625
0.6803841145833334
0.8189225260416667
0.7746940104166666
0.9988704427083334
0.1331640625
0.11650716145833333
0.10521484375
0.04057291666666667
0.03483723958333333
0.033216145833333335
0.03273763020833333
0.031025390625
0.029967447916666667
0.026188151041666666
0.023505859375
0.021959635416666668
0.019573567708333333
0.016796875
0.016324869791666665
0.006725260416666667
6.868489583333334E-4
1.6276041666666666E-5
0.0
2.63671875E-4
2.9296875E-4
0.0
0.0
0.0
