63.1979296875
63.19578450520833
63.08265950520833
63.155582682291666
106.80552408854167
101.90708333333333
122.880322265625
121.659560546875
119.47985677083334
119.37033203125
121.63090169270833
121.64697916666667
120.44197916666667
120.20585286458333
119.93504231770834
119.96902018229167
120.18335611979167
120.26836588541667
120.434140625
120.614599609375
119.44292317708333
119.4517578125
119.52393229166667
119.53827473958333
119.58526692708334
119.61676106770834
119.68701497395833
119.78113932291667
119.77648111979167
119.8133203125
119.93809244791667
119.9956640625
119.977080078125
119.98616536458333
120.0009765625
120.00015299479166
120.00595377604166
119.89550130208333
119.70047526041667
119.674453125
119.77221354166667
119.86365559895833
119.94432291666666
119.95921223958334
120.049033203125
120.07309895833333
120.12321614583334
120.10114908854166
120.23044596354167
120.30345377604166
120.38200846354167
120.47476236979166
120.56509114583334
120.63706705729167
120.62400716145834
120.72904947916666
120.74831380208333
120.83884114583333
120.9303125
120.994677734375
121.13392578125
121.145849609375
120.75564127604167
120.46769856770834
120.83144205729167
121.12168619791667
121.23013997395833
121.2362109375
121.27726236979167
121.37757486979167
121.67340169270834
121.949189453125
122.190703125
120.09031901041666
120.36189778645833
120.52521484375
120.80740559895834
121.024306640625
121.232431640625
121.45405924479167
121.60820963541667
121.6225390625
119.401904296875
119.40705729166666
119.58001302083333
119.09780598958334
116.263984375
113.36963541666667
112.80251953125
115.24711588541666
115.89870442708333
118.825654296875
119.508603515625
119.88359375
119.75499348958333
119.25561848958333
119.000625
119.06720703125
119.29927408854167
119.69929361979166
120.104658203125
120.44520833333333
120.765146484375
121.07676432291667
121.36158203125
121.54102213541667
121.7013671875
119.26027994791667
117.43611328125
114.86350911458334
114.20178385416666
117.09634765625
117.96670572916666
120.425986328125
121.04513020833333
121.89880208333334
122.11874674479166
119.32272786458333
118.75144205729167
118.64246744791667
118.954140625
121.56846028645833
121.97281575520833
122.40878580729166
120.635908203125
121.00870768229167
121.2694140625
121.57847005208333
121.51240234375
119.707001953125
114.734716796875
114.10486002604166
114.63368489583333
117.83695638020833
118.12103515625
120.99488606770834
121.60404947916666
122.12380208333333
119.42102864583333
119.0534765625
119.036240234375
119.35027669270833
119.85482747395834
120.27407877604166
120.59999348958333
120.98367838541667
121.24320963541666
121.41672526041667
121.51680989583333
120.22323567708334
117.03068359375
115.49186848958334
115.648974609375
118.57058919270834
118.65082682291667
119.18273111979167
121.69315104166667
121.75902669270833
121.38606770833333
119.51258138020833
119.56880208333334
118.12859375
118.31003255208333
118.53638020833333
120.62939127604167
121.15268880208333
121.70025065104167
121.86771158854167
121.96395182291667
119.558125
117.68388997395833
115.04955403645833
114.37003255208333
116.94584635416666
117.100546875
119.47828776041666
119.89501627604167
120.24356770833333
120.25162434895833
118.135849609375
117.92656575520833
118.18087890625
118.50484700520833
118.94160807291667
119.31605794270833
119.64145833333333
119.904697265625
118.1813671875
118.37302083333333
118.678291015625
119.109248046875
120.36209635416667
117.74547526041667
115.93972981770834
115.773798828125
118.331455078125
118.28766927083333
116.9679296875
119.613544921875
119.828779296875
119.70554361979167
117.14078776041667
117.61990885416667
116.89799479166666
117.25592122395834
117.65893880208333
118.99588541666667
119.18716471354166
119.423076171875
119.58480794270834
119.73175130208334
119.8761328125
120.08044921875
120.26536458333334
120.31119791666667
118.453955078125
114.0358984375
112.91851888020834
113.30691080729167
115.6812109375
116.007197265625
117.99245768229167
120.528466796875
120.61736328125
118.69411783854167
116.42867513020833
116.670244140625
117.03137044270834
119.68880533854167
120.41057291666667
119.737724609375
117.66355143229167
117.46717122395833
117.60664713541667
117.77582682291667
117.91517252604167
119.09722005208333
119.36006184895834
119.67706380208334
119.94916015625
119.47210286458333
115.00381184895834
113.22150390625
113.34515625
115.728095703125
117.83045572916667
118.11501953125
120.70922200520833
119.2664453125
119.13881184895833
116.72799153645833
115.826787109375
116.14273111979166
116.50835286458333
117.87171549479167
118.20469401041667
118.46765625
118.66970052083333
118.78170247395833
118.89484700520833
119.02636067708333
119.17503580729166
119.43965494791667
119.73734375
120.07821940104166
120.234560546875
116.96799153645833
114.38614583333333
113.61645182291667
117.95742838541666
118.223466796875
118.66676432291666
119.47516927083333
119.85301432291666
119.89418619791667
116.39321614583334
116.318056640625
116.48088216145834
117.84062174479166
118.23902669270834
118.666689453125
119.03976888020833
119.303564453125
119.51407552083333
119.71206705729166
119.85384114583333
120.05999674479166
120.187783203125
118.5061328125
118.82014322916666
120.89966796875
121.02119791666667
120.27669270833333
117.59140299479166
116.69376953125
117.06367838541667
119.22601236979166
119.575478515625
119.90671549479167
118.453583984375
118.42773763020833
118.1116796875
117.98325520833333
118.20425455729166
118.63922200520834
119.09603190104167
119.46331705729166
119.78456380208333
120.153115234375
120.44556640625
120.61836263020834
118.72017252604167
118.96259114583333
119.12029947916666
121.31236979166667
121.915263671875
122.01866861979167
120.72399739583334
118.18553385416666
117.367119140625
117.782041015625
119.94487955729167
120.25057942708334
119.03715169270833
119.42888671875
119.35029296875
118.97787434895834
118.7189453125
118.89927734375
119.30392578125
119.72646809895834
120.11963541666667
120.45256184895834
120.74296549479166
121.00732096354167
119.25478515625
119.37435221354167
119.703984375
121.95980794270834
122.23570638020833
122.42189778645833
121.32915364583333
118.836796875
117.66966145833334
118.007138671875
120.37969401041667
120.46013346354167
120.88680013020833
121.28962890625
121.33711588541667
119.38121744791667
119.14263997395834
119.26144856770833
119.64335611979166
120.06641927083334
120.462587890625
120.81880208333334
121.16939127604167
119.40391276041667
119.77599934895834
119.99604166666667
120.71280924479167
122.63891927083333
122.82261393229167
123.01703450520833
122.64192708333333
120.51024739583333
118.28082682291667
116.3490625
118.90268880208333
118.80211588541667
119.21570963541667
119.61358723958334
119.86533528645833
119.747275390625
119.454951171875
119.39536783854167
119.65908528645834
120.08261393229166
120.48343424479167
120.8287890625
121.19062825520834
121.49599283854167
119.782890625
120.14095703125
120.53172200520834
122.660595703125
122.7958984375
123.00677408854166
123.18840169270834
123.24663736979167
122.10683268229167
117.95263020833333
116.493330078125
116.71950520833333
120.97337890625
120.74161458333333
121.07410481770833
119.701474609375
119.88525390625
119.746904296875
119.56454752604166
119.59538736979167
119.91138020833333
120.248701171875
120.67222981770833
121.04675455729166
121.4127734375
121.73276692708333
119.93362630208334
120.261142578125
120.66650716145833
121.08683919270834
122.93004231770833
123.08637044270833
123.22547200520833
122.75762044270833
120.610615234375
118.37036783854167
118.064931640625
120.610419921875
120.41518229166667
120.78832682291667
123.424375
123.634296875
120.94455078125
118.400234375
118.34470052083333
119.532724609375
119.9207421875
120.34666341145834
120.72920572916667
121.09624674479167
121.35960611979166
121.57533854166667
119.78382486979167
120.14244466145833
121.95318359375
122.18039713541667
122.94597981770833
123.07816731770833
122.87068033854166
120.90435872395834
118.482666015625
117.97867838541667
120.44881510416667
120.26289388020834
120.641611328125
123.29843098958334
121.903720703125
121.85186848958334
119.2558984375
118.16048502604167
118.34990885416667
118.69410807291666
120.07475260416666
120.47417643229167
120.79931640625
121.09345703125
121.339951171875
121.58811197916667
121.86531901041667
120.166181640625
120.38772786458334
120.58157552083334
120.975107421875
121.38273763020834
122.49784830729166
120.35190104166666
118.40505208333333
118.32199869791667
120.87668294270833
120.67696940104166
119.45178059895834
122.15966471354167
122.27456380208334
121.072236328125
118.48253580729167
118.51984375
119.79866861979167
120.244296875
120.69150390625
121.07287434895834
121.44443033854166
121.74647786458333
121.904248046875
119.83263020833333
119.95025390625
121.76412434895833
122.17499348958333
122.07115559895833
120.692392578125
117.22710611979167
115.07291666666667
116.696220703125
116.49183919270833
119.701630859375
118.279111328125
118.50576822916666
118.485517578125
117.87684244791667
117.41405924479167
117.08974609375
117.493955078125
117.88516276041666
118.34498046875
118.86158854166666
119.11994140625
119.25468424479166
119.38590494791667
119.48007161458334
119.52761393229167
119.578623046875
119.23810221354167
117.90681315104166
116.71239908854167
116.54276041666667
117.34283203125
120.12745442708334
120.5420703125
120.86452799479167
116.88811197916667
116.449208984375
116.205087890625
118.19991536458333
118.666953125
119.1255078125
119.61111328125
119.89122395833333
120.169814453125
120.49685872395834
120.68875
118.66048177083333
118.65353841145833
117.28447591145833
114.65213216145834
114.66060221354167
117.44513671875
118.17428059895833
119.22171875
119.99685872395834
120.40276692708333
118.86389322916666
118.74723307291667
116.41896809895833
116.986904296875
117.39023763020833
117.807109375
119.88959635416667
120.54283528645833
120.715283203125
121.01073893229167
121.30818684895833
121.50174153645834
119.37
118.13111653645834
115.66032552083334
114.77554361979166
114.8733984375
117.72340169270834
117.85631184895833
120.17314778645833
120.86237955729166
118.26294270833333
118.272783203125
118.45343098958334
118.526416015625
118.742744140625
119.05058919270833
119.37663411458334
117.51224609375
117.84643229166667
120.36722005208334
120.51269205729167
120.66050130208333
120.89553059895833
121.08990559895834
121.26914388020833
120.73279296875
118.434404296875
113.91789388020834
113.54002278645834
114.19738932291666
116.36104817708333
117.48571614583334
117.72076171875
120.33506510416667
119.82627278645833
119.82688151041667
119.886416015625
118.39037109375
118.47130533854167
118.81597330729167
119.16609700520833
119.6823828125
117.76236002604166
117.8703515625
117.989345703125
118.11537109375
120.23510091145833
120.5145703125
120.70428385416666
120.861396484375
120.87369466145833
117.17372721354167
114.63170572916667
113.433896484375
116.21601236979167
117.7921875
119.87690104166667
120.38909505208333
119.9101171875
120.02573893229167
119.96439778645833
117.98890625
118.2137109375
118.64309244791667
119.05986653645833
119.40776041666666
119.661044921875
117.93033528645833
118.02958658854166
118.209833984375
120.3437109375
120.47705403645833
120.710546875
120.88375
120.9944140625
121.12849283854166
118.93472005208334
119.12577799479166
118.80368815104167
117.9411328125
115.963271484375
115.57097005208334
118.59290364583333
119.147548828125
121.19801106770834
120.95328450520833
121.227373046875
119.26842447916667
117.03609049479167
116.781083984375
117.43922526041666
119.76721354166666
120.12311197916667
120.456259765625
120.70902018229167
120.975234375
121.10597005208334
121.24279622395834
121.36983072916667
119.12356119791667
119.27575520833334
119.35216145833333
119.54089192708334
120.48984375
119.14456380208334
117.2021484375
116.30821614583333
119.07404622395833
119.803046875
118.734404296875
121.38300455729167
122.05866861979166
120.365947265625
118.13627604166666
117.633701171875
119.81900065104166
120.193974609375
120.592470703125
120.90535807291667
121.15436848958333
121.42242838541667
121.54583333333333
119.29627604166667
119.44748697916667
120.48811848958333
120.6125
120.618505859375
119.60189778645834
117.74083658854167
116.749111328125
119.32783203125
120.03019205729167
120.159111328125
121.56233072916666
122.27717122395833
122.69227213541667
118.74064778645834
118.32992513020834
118.42612955729167
120.658369140625
121.0096484375
121.41533528645833
121.59875651041666
121.72712565104166
119.494443359375
119.63137044270833
119.67361002604167
119.73312174479166
120.76716796875
120.85675455729167
120.27432942708333
118.52484375
117.26328450520833
117.24107421875
120.12841145833333
120.584560546875
120.49055013020833
119.93012044270833
120.40916341145834
120.63026041666667
120.51532877604167
120.72048177083333
120.98417643229166
121.33492513020833
121.55809895833333
121.74530924479167
121.85976888020834
119.61971028645833
119.68625
120.6865234375
120.75724283854167
120.81627604166667
120.88680989583334
120.78603190104167
119.61372721354167
117.916162109375
117.04660807291667
119.67510091145833
120.3341796875
120.437685546875
122.73185546875
122.45579427083334
122.81818033854167
120.78366536458333
118.43297200520833
118.605859375
118.86527669270833
121.05905598958333
121.218564453125
121.47327799479167
121.56626302083333
121.65319661458334
121.71682942708334
121.78446940104166
121.79236653645833
121.81529622395833
119.45138671875
119.445732421875
119.02475911458333
118.407236328125
117.03684895833334
119.14435546875
119.660673828125
119.79739583333334
122.06483072916667
121.77436848958334
122.13669270833333
120.27197265625
118.208349609375
117.93399088541666
118.4737890625
120.65902994791666
120.880419921875
121.06989908854166
121.24952473958334
121.49251627604167
121.54763671875
121.62571614583334
121.68243489583334
121.77755533854166
121.87988932291667
122.00831705729166
121.82632486979166
120.41962890625
116.49558919270834
115.89257486979167
117.17171875
120.02908528645834
119.82551106770833
119.261015625
121.858857421875
122.70300130208334
120.7350390625
118.7394140625
118.952861328125
121.16533528645833
121.37081705729166
121.49494791666666
121.59462239583333
121.71391927083333
121.816630859375
121.89798502604167
122.04790364583333
122.12232096354167
122.19615559895833
122.27707356770833
122.33336263020833
122.2657421875
121.10819661458333
119.50895182291667
118.739794921875
119.084853515625
121.81246744791666
121.74629557291667
122.17487955729166
122.52498046875
120.75032877604167
118.67983072916667
118.46874674479167
120.59863606770833
120.83319986979167
121.02986979166667
121.20990234375
121.34715494791666
121.418935546875
121.53068033854167
121.54442708333333
121.5307421875
121.56202473958334
121.64530598958333
121.71017578125
121.74648763020834
121.81874674479167
121.80756184895833
121.02273111979167
119.59458333333333
118.884306640625
119.08405598958333
121.92555338541666
122.55595703125
120.70741861979167
120.953974609375
119.01983072916667
118.59099283854167
118.88523111979167
118.99536458333333
121.05211263020833
121.21032552083334
121.373779296875
121.56157877604167
121.906953125
122.05912434895833
122.108046875
122.17191080729167
122.270673828125
122.38337565104166
122.44015299479166
122.440224609375
120.20853190104167
120.35876953125
119.88896484375
119.24064778645834
118.349775390625
120.53054361979167
121.04337565104167
121.580400390625
123.62170247395834
123.28521158854167
123.69603841145833
121.7303515625
119.37861979166667
119.46818033854167
119.69235026041666
121.68830403645833
121.944130859375
122.0655078125
122.09509114583334
122.17091145833334
122.21030924479167
122.242880859375
122.36858072916667
122.41554361979166
122.454501953125
122.55033854166666
122.58434895833334
122.66772786458333
120.25139322916667
119.15879557291667
118.022421875
117.58898763020834
120.234462890625
122.090458984375
122.25025390625
122.218076171875
121.66305989583333
121.94903645833334
121.86599609375
121.81151692708333
121.931611328125
122.15592122395833
122.29778971354166
122.443916015625
122.589208984375
122.60847005208333
122.70225260416667
122.71527994791667
122.7409375
122.787353515625
122.857177734375
122.91576822916667
123.021220703125
122.856015625
121.714384765625
120.715986328125
120.39741861979167
120.82760091145833
123.61533203125
123.46439778645833
121.90106770833333
119.96121744791667
119.779208984375
121.46397135416667
121.36669921875
121.55909505208334
121.85501302083334
122.04100260416666
122.20365885416666
122.33605143229167
122.434677734375
122.49854166666667
122.49763346354166
122.505693359375
122.5896484375
122.643720703125
122.32510091145834
121.02607747395834
120.00782552083334
119.69983723958333
120.12114583333333
122.828876953125
123.12050130208333
123.509482421875
119.71853515625
119.51431640625
119.28651692708333
121.15177734375
121.37697916666667
121.65024088541666
121.79067708333334
121.93296223958333
122.03635416666667
122.19608072916667
122.28242838541667
122.32443033854166
122.35084635416666
122.34032877604167
122.292431640625
121.18553059895834
119.926640625
119.29537434895833
119.550712890625
122.193984375
122.45039388020834
120.95241861979167
121.23249674479166
121.44105794270833
121.19771484375
118.86748372395833
118.962236328125
121.14273763020833
121.018955078125
121.16763346354166
121.5440234375
121.70469075520833
121.75415364583333
121.711357421875
121.74625651041667
121.85767578125
122.00844075520833
121.52177408854166
120.15489583333333
118.97904947916666
118.72197916666667
121.26873697916666
121.54704752604167
121.86314778645833
122.17842122395834
120.692998046875
120.87366861979167
121.160927734375
121.13328125
121.62301432291666
119.60869791666667
119.40736979166667
119.54343098958333
119.95779296875
121.87406575520833
121.88740885416667
121.98896484375
122.02022135416667
122.12672200520834
122.24353515625
122.24237955729167
121.94413736979166
120.41062174479167
119.05395833333333
118.498056640625
120.88152018229167
121.372109375
121.39536783854167
121.47731119791666
120.03349609375
120.20933268229167
120.26111002604166
120.30656575520834
120.487421875
120.73269856770834
120.95977213541667
121.18746744791666
121.32545247395834
121.428642578125
121.83744466145833
119.678583984375
119.35586588541666
119.734091796875
119.81685872395833
121.67413736979167
121.850283203125
121.94213216145833
121.97736979166666
121.69104817708333
120.21237630208333
118.85573893229167
118.44859375
121.07450846354166
121.35215169270833
121.60873697916666
121.67612955729167
120.25828776041666
120.42467447916667
120.40164388020834
120.47529296875
120.69065104166667
120.95929361979167
121.19625325520833
121.405927734375
121.52769205729167
121.8859375
119.683984375
119.77306966145834
122.00723958333333
122.08322591145833
122.18639322916667
122.254912109375
122.35959635416667
122.50258138020833
122.56635416666667
122.4037890625
121.412216796875
119.9690234375
119.15665364583333
121.66707356770833
121.88779947916667
122.12399088541666
122.36821940104167
120.84080403645834
121.12588216145834
121.06092122395833
120.99932291666667
121.4317578125
121.73240885416666
121.92916015625
122.0605859375
122.17979166666667
120.00234049479167
119.98036783854167
120.05427408854166
121.9463671875
122.05497721354166
122.1162890625
122.18665364583333
122.29185872395833
122.43490559895834
122.49734049479167
122.01566731770833
120.61958984375
119.61465494791666
119.64352864583333
122.294423828125
122.64330729166667
123.067333984375
123.362958984375
121.65525716145834
121.62324869791667
121.84465494791667
119.58932942708333
119.33446614583333
119.44584635416666
121.44069661458333
121.503095703125
121.9171875
121.98639322916667
122.03901041666667
122.04027669270833
122.06270833333333
122.08012044270833
122.149130859375
122.26183919270834
122.31861653645834
121.85962239583333
120.63946614583334
120.140986328125
120.375595703125
123.0598828125
123.28459635416667
123.49093098958333
121.790263671875
122.1416015625
122.13578125
119.81202473958334
120.236025390625
120.38528971354167
122.38713216145834
122.22065755208334
122.337626953125
122.69681640625
122.78134765625
122.83754231770833
122.85247721354166
122.89365234375
122.99430338541667
123.07427734375
122.78399739583334
121.519130859375
120.73830403645833
120.67452799479166
123.40512044270834
123.29713541666666
123.63155924479166
123.8156640625
122.040478515625
119.94986979166667
119.50501302083333
121.76929036458333
121.992138671875
121.831953125
122.24263346354167
122.35933268229167
122.473203125
122.5571875
122.60128580729166
122.63972330729166
122.79669270833334
122.80121419270833
122.16087565104166
120.93628255208333
120.2438671875
120.33479166666666
123.05199869791667
123.3787109375
123.72961588541666
122.15101236979167
122.50175455729166
120.09200520833333
119.60468424479167
119.97337890625
120.17232421875
121.88112955729167
122.3340625
122.469267578125
122.56427734375
122.53917317708333
122.56899088541667
122.63388671875
122.64546875
122.08604817708333
120.73576171875
119.79384765625
119.75249674479167
122.34963541666667
122.64688151041666
123.04299153645833
121.49049479166666
121.64314778645833
121.5806640625
121.42007486979166
121.72482421875
121.96834309895833
122.22375
122.43129231770833
122.51888346354167
122.618818359375
120.42296549479167
120.36626627604167
122.20187825520833
122.25491536458334
122.19602213541667
121.194326171875
119.64194010416666
118.69173177083333
121.00880533854166
121.50359375
121.61082356770834
122.02525065104167
122.33338216145833
122.54053385416667
119.54839192708333
119.58339192708333
119.66240559895833
120.91435872395833
121.224794921875
121.45557291666667
121.707265625
121.83680013020833
121.91665690104166
122.22420247395833
122.294208984375
122.354033203125
122.41085286458333
120.21463541666667
119.552978515625
119.93154296875
118.471357421875
120.20119140625
120.29359375
120.56458333333333
122.85513997395833
121.30206380208334
121.64279947916667
121.71606770833333
120.62606119791667
120.731142578125
121.005849609375
121.36394856770833
121.74119466145834
119.89183919270833
120.31339518229167
120.52101888020833
120.68933268229166
121.78935546875
122.14159830729167
122.24814127604166
122.3666015625
122.45341145833333
122.489287109375
119.2684375
117.01409830729166
115.817626953125
119.797265625
120.1774609375
120.499091796875
120.95657552083334
121.23225260416666
121.44391927083333
120.54830078125
120.42354166666667
120.62598307291667
121.04529947916667
121.40685546875
121.78198567708333
119.92462890625
120.32436848958334
120.49458658854167
121.62103515625
121.70713541666667
121.82908528645834
121.88107747395833
122.23226888020834
122.321533203125
122.4275
122.37728841145834
121.17630208333334
116.95450846354167
115.88945963541667
116.31342122395833
120.60727864583333
121.27741861979166
121.55501953125
120.097939453125
120.238154296875
120.17315755208334
120.28840169270833
120.49039713541667
120.79733072916666
121.09826822916666
121.320185546875
121.45815755208334
121.60838216145834
121.72461588541667
121.82251953125
121.87723307291667
122.23665690104167
122.26896158854167
122.42031901041666
122.53980143229167
122.54317057291667
121.88044270833333
117.785048828125
116.70234049479167
118.65633138020833
120.88262369791667
121.67454752604166
120.2558984375
120.64756510416667
120.96611653645833
120.89999674479166
120.85823567708333
121.03861979166666
121.35625
121.70120442708334
121.94711263020834
122.115595703125
122.29308919270834
122.64560221354166
122.721640625
120.48506510416667
120.22123372395833
122.35362630208333
122.48655598958334
122.51299153645833
121.79141927083333
120.22538736979166
119.15728190104167
119.1862890625
121.65329752604167
122.35970052083333
120.93207682291667
121.402294921875
121.69112955729166
121.49968424479167
121.3298828125
121.42224609375
121.71076497395833
122.07429361979166
122.328408203125
122.44270182291666
122.61353190104167
122.93093424479167
120.606953125
120.601494140625
120.689306640625
122.57942057291666
122.31986653645833
120.78365234375
119.36688151041666
119.063798828125
121.737978515625
122.15837565104167
122.61373372395833
123.092412109375
121.61714192708334
121.52504231770833
121.31135091145833
121.32271809895833
121.66394856770833
121.99979166666667
122.2315625
122.36973958333333
122.46553059895834
122.83853515625
122.949384765625
120.71267578125
120.74718424479167
120.79031901041667
120.60685546875
121.20460611979166
119.73744466145833
119.06521158854167
121.52999348958333
121.82543294270833
122.29733723958333
120.75874674479167
121.115986328125
121.24587565104167
121.28537434895833
121.11447591145833
121.2637109375
121.55083984375
121.81453125
122.00623697916667
122.14026041666666
122.25791666666667
122.64314453125
122.75847330729167
122.76843098958334
122.84430013020834
120.61394856770833
120.672197265625
120.417109375
121.154814453125
119.37108723958333
118.8675390625
121.46623372395834
121.67127278645833
122.002734375
122.62662434895833
123.01397786458334
123.10210286458333
120.013916015625
120.04522786458334
120.232548828125
121.49451497395833
121.78816080729166
121.989765625
122.18018880208334
122.29518880208333
122.3939453125
122.78463541666666
122.79880533854167
122.84277669270833
122.93091796875
123.009541015625
122.9325
119.25565104166667
117.632998046875
116.865224609375
120.80519856770833
121.5109765625
121.87472005208333
122.56492838541666
122.88978190104167
123.06316080729167
120.00390950520833
120.01550455729166
120.20450846354167
121.49572591145834
121.76027018229166
122.0310546875
122.19927408854167
122.28446614583333
122.35418294270833
122.72906901041667
122.75501302083333
122.8256640625
122.86863932291666
122.96734049479167
122.94897786458333
122.14075520833333
118.01728841145834
117.43627278645833
117.33361979166666
119.88234375
120.246591796875
120.57005208333334
123.16203776041667
123.30017903645833
122.32389973958334
120.1156640625
120.29244140625
121.56463541666666
121.83284830729167
122.11446940104166
122.25191731770833
122.36901041666667
122.44393880208334
122.781904296875
122.86975260416666
122.9384765625
122.97931640625
123.06043619791667
120.85749348958333
120.10321614583333
118.60822265625
117.740791015625
119.06501627604166
122.129638671875
122.56049153645833
121.09373372395834
121.50347330729167
121.85710611979167
121.77462565104166
121.55555338541667
121.57504231770834
121.83111653645834
122.14600260416667
122.40177408854167
122.57118815104167
122.73078125
123.05486002604167
123.13179036458334
120.90884765625
120.61419270833333
122.39692057291667
122.764921875
122.50476236979166
122.25597981770834
120.7012109375
119.60136067708333
119.58921549479167
122.06679361979167
122.84376302083334
121.42989908854166
121.86255208333333
122.09269205729167
121.84652669270834
121.63554036458333
121.72552408854166
121.97341796875
122.313310546875
122.56060221354167
122.76735677083333
122.94362955729167
123.28974934895834
123.30117838541666
121.05328776041667
121.03109700520834
122.869619140625
122.81151041666666
121.685576171875
120.10779947916667
119.355087890625
121.8370703125
122.29720052083333
122.8781640625
125.37223958333334
123.841474609375
123.8977734375
121.5675
120.46703450520833
120.663603515625
121.00360026041666
122.299765625
122.47153971354167
122.56445638020833
122.67465494791666
123.04890299479166
123.11961588541666
123.17006184895833
123.21283203125
123.25315755208334
120.69489583333333
118.82282877604166
117.71931640625
119.060908203125
121.366943359375
122.100458984375
120.59491861979167
123.1496484375
123.41213541666667
122.43522786458334
120.26745442708334
120.277197265625
121.46187174479167
121.77593098958333
122.03769205729166
122.235537109375
122.38277994791666
122.48890625
122.51368489583334
122.59418294270833
122.90767252604167
122.95594075520833
123.020244140625
122.97450520833333
121.969208984375
120.26996744791667
119.29283528645833
119.45199869791666
121.89897135416666
122.20220052083333
121.47298502604167
121.86898111979167
122.071357421875
121.92311197916666
119.66463216145833
119.99713216145834
121.3115234375
121.67714518229167
121.93376627604167
122.14427734375
122.32814127604166
122.4327734375
122.502978515625
122.59537434895833
122.91267903645833
123.01208333333334
123.074443359375
123.1242578125
122.946923828125
121.57251302083333
119.96600911458333
119.25166666666667
119.646875
122.105576171875
122.3637890625
122.67486328125
123.00540364583334
122.10482096354167
119.83218424479166
120.014765625
120.189150390625
120.50577473958333
120.79759440104166
122.06009765625
122.1940625
122.330595703125
122.40285481770833
122.46761067708333
122.525830078125
122.6021484375
122.97317708333334
123.07268880208333
123.13694986979166
122.80428385416667
121.24965169270833
119.81939127604167
119.44081380208333
119.90566080729167
122.33084309895834
122.6319140625
123.07920572916667
122.36964518229166
122.25875651041666
120.10900065104167
120.19754557291667
120.50607421875
120.820947265625
122.07356770833333
122.281865234375
122.39228515625
122.44208984375
122.50932942708333
122.57634114583334
122.94284505208333
122.73658854166666
123.04097330729167
123.102333984375
123.16184895833334
122.96173828125
121.71884440104166
120.36790364583334
119.87579427083334
120.28890950520834
122.760615234375
123.16236653645834
123.49356119791666
123.73488606770833
121.49048177083333
120.37262044270834
120.34052083333333
120.587958984375
121.88965494791667
122.17012369791667
122.36005859375
122.46383463541666
122.54043294270834
122.55006510416666
122.609921875
122.69414388020833
123.047421875
123.09964192708334
123.270654296875
123.168896484375
121.82600911458333
120.35928059895834
119.75596028645833
120.02431315104167
122.45062825520833
122.74927083333333
121.908154296875
122.26553385416666
120.09098307291667
120.23503255208334
120.278818359375
120.51608723958333
121.839609375
122.13762044270834
122.32537109375
122.516767578125
122.73508463541667
122.80033854166666
122.70865885416667
122.90658528645834
123.06698567708334
123.11388346354167
123.05005208333333
121.774580078125
120.547587890625
120.15464192708333
120.48949544270833
122.99766276041667
123.58425130208333
124.102626953125
123.27091471354167
120.86748372395833
120.76568684895834
121.66541666666667
121.83758138020833
121.9427734375
121.997587890625
121.91779947916666
121.60867513020834
121.446708984375
121.40984375
121.54092122395834
121.83709635416666
122.0982421875
121.85766927083333
120.45134114583334
118.81578125
118.08695638020833
118.61317708333333
121.52517903645834
122.27535807291666
121.858173828125
122.260380859375
120.35856119791667
120.4623046875
120.34551106770833
120.47974609375
121.61108072916667
121.80494791666666
121.888759765625
121.94744140625
122.071181640625
122.16806315104166
122.19415690104167
122.14521809895834
122.02000325520834
121.86487630208333
120.946796875
119.29841145833333
117.70377278645833
117.17294921875
119.51583333333333
119.59267578125
119.62079427083333
122.40346354166667
121.69779296875
121.84056640625
119.85109700520833
118.286279296875
118.55498697916667
118.92227864583333
121.15156901041667
121.55218424479166
121.82899088541667
122.0976953125
122.21493489583334
122.29056966145833
120.252841796875
120.54764973958333
120.41664713541667
120.301103515625
118.7286328125
117.59218098958333
119.64677083333333
119.89062174479167
120.15957682291666
121.408310546875
121.65249674479166
122.04802408854167
117.82907877604167
117.8401171875
118.00352864583333
119.98917317708333
120.28008138020833
120.58292643229167
120.88757161458334
121.18244791666666
121.34945638020834
121.50153971354166
121.66420572916667
121.772197265625
121.92619791666667
121.98460286458334
121.26746419270833
119.70129557291666
118.43669921875
118.19017252604166
118.48362630208334
121.23808919270833
121.274423828125
119.76248697916667
119.94586263020834
120.24743489583334
117.82104817708333
117.94515299479167
118.198916015625
120.25201497395834
120.525234375
120.81394856770834
121.02083984375
121.172177734375
121.31563151041667
121.483037109375
121.57659505208333
121.65722981770833
121.70052083333333
121.71822265625
121.0468359375
119.47478190104167
118.20898111979167
118.05685872395833
120.85446614583333
121.191259765625
121.33180013020834
119.88544270833333
120.09065104166666
120.42344075520833
118.06061848958333
118.12837890625
118.39275390625
120.445595703125
120.634990234375
120.83715169270833
121.01799153645834
121.18345377604167
121.28831380208334
121.44306315104167
121.509521484375
121.58167317708333
121.60760416666666
120.841962890625
119.37378580729167
118.24521484375
118.28294270833334
120.990673828125
121.37320963541667
121.42171223958333
121.70348307291667
119.98821614583333
120.16581705729166
117.74478190104166
117.82057942708333
118.03424479166667
118.35977864583333
120.47768880208334
120.64071940104166
120.814697265625
120.9196875
121.046435546875
121.13674153645833
121.32193033854166
121.26916666666666
120.29927734375
118.62200520833333
117.540009765625
117.66714518229166
120.406337890625
120.4973046875
120.64969075520834
119.14484375
119.441337890625
119.30560872395833
119.5787109375
119.75930013020833
119.99121744791667
120.24975260416667
120.570087890625
120.86891276041666
118.72854817708334
118.85969075520833
118.99369140625
120.952275390625
121.05262369791667
120.973837890625
119.98439778645833
118.321728515625
117.19964192708333
117.38978190104167
120.10152994791666
120.17012369791667
118.43173502604166
118.75498046875
119.11684244791667
118.96645182291667
118.90137044270833
119.33629557291667
119.60750651041667
119.634970703125
119.96424153645833
120.26243489583334
120.80121419270833
118.695419921875
118.89140950520833
118.99474934895834
119.07642252604167
120.99787109375
120.802236328125
119.45945963541666
117.58427083333333
116.85697591145833
119.353564453125
119.758349609375
119.53607096354166
119.826650390625
118.32044270833333
118.36540690104167
118.47560872395833
118.42400065104167
118.59820963541667
118.95248372395834
119.306904296875
119.63029622395834
119.9113671875
120.170615234375
120.694921875
118.597236328125
118.75615559895833
118.906318359375
119.04275716145834
120.80550130208333
119.85546223958333
117.84137369791667
116.448134765625
116.57714192708333
119.31959309895834
119.05931315104166
119.33548177083334
119.64859700520833
118.00322265625
118.01877278645833
117.93624348958333
118.28149088541667
118.56813802083333
118.900634765625
119.23060221354167
119.54149739583333
119.78465494791666
120.00767903645833
120.54467447916667
120.75928059895833
118.58076171875
118.735126953125
118.853349609375
120.79481770833333
120.87047526041667
120.20563802083333
118.29865559895833
116.40899739583334
116.29064127604167
119.03935221354166
119.092421875
119.0951953125
119.80530598958333
120.03121744791666
119.9997265625
116.96544921875
117.298525390625
117.565537109375
118.670498046875
118.74696940104167
119.28395833333333
119.54441080729167
119.7705078125
119.97037760416667
120.50204427083334
120.681103515625
118.44109049479167
118.592060546875
118.75781575520833
118.817568359375
120.11021158854167
118.42079427083333
116.54144205729166
116.28060872395834
119.0091796875
119.06837890625
117.38360677083334
119.90561197916666
120.09279296875
119.33172200520833
117.11256510416666
117.38727213541667
118.36991861979166
118.69591796875
119.000439453125
119.29445638020833
119.55787434895834
119.81525716145833
120.009091796875
120.45396158854167
118.24836588541666
118.31659505208333
118.46794596354167
118.577138671875
120.50752604166667
120.36606119791666
119.05240885416667
117.30208658854167
116.469169921875
119.02628580729167
119.09048502604166
119.16535481770833
121.69248372395833
120.16180989583333
120.23318033854167
117.94107096354166
117.2001171875
117.594658203125
117.86713216145833
118.936337890625
119.27614908854167
119.56467122395833
119.8157421875
119.965908203125
120.45785807291666
120.57728515625
118.30702473958333
118.40252278645833
118.46306315104167
118.59923177083333
118.50177408854167
119.18533854166667
117.57164713541667
116.63020833333333
119.10623046875
119.24659505208334
119.39293619791667
120.13640299479167
120.48745768229166
120.61353515625
117.56712239583334
117.77415364583334
117.953642578125
118.95649739583334
119.30025716145833
119.616103515625
119.8633203125
120.07943684895834
120.53634114583333
120.63875651041667
118.411142578125
118.50845052083334
120.329375
120.442294921875
120.63389322916667
120.45206380208333
119.31919596354167
118.11726888020833
117.51351888020834
120.072255859375
120.15970703125
118.5652734375
118.95340494791667
119.23802734375
119.54693033854167
119.46102864583334
119.80767903645834
119.999150390625
120.19497721354166
120.38251953125
120.547919921875
120.67705078125
118.39487630208333
118.49530598958333
118.56767578125
118.619423828125
120.47616536458334
120.54525065104167
120.48811848958333
119.78221028645834
118.63442708333334
117.91503255208333
120.22634114583333
120.57097330729167
120.645712890625
118.99301432291666
119.2634375
119.58595703125
119.51914388020833
119.431162109375
119.846064453125
120.03293294270833
120.22629231770833
120.38465169270833
120.42326822916667
120.46662434895833
120.55244140625
118.21289713541667
118.281259765625
118.34936848958333
120.17094401041666
119.633125
118.38117838541666
117.462646484375
119.57720703125
119.891923828125
119.95986653645834
122.24088216145833
122.48144856770833
119.991142578125
117.78898763020834
118.01434244791666
118.02320963541666
118.22293294270834
118.45770833333333
119.45687174479167
119.65518229166666
119.761328125
119.76468424479167
120.11007161458333
120.18701171875
120.23578125
120.17134440104167
119.36033854166666
117.90247721354167
116.80888020833333
116.67629557291667
118.88438802083333
119.04168619791666
119.32681315104166
118.80859049479167
118.91277994791666
118.83709309895833
118.72924153645833
116.65009765625
116.95371419270833
117.95214192708333
118.23547200520834
118.48622395833333
118.66381510416667
119.04181315104167
119.15532552083333
119.30129231770833
119.39459635416667
119.39968424479167
118.638193359375
116.93377604166666
115.86856119791666
115.88275716145833
118.16749674479166
118.24541341145833
118.50972981770833
118.82907877604167
118.963046875
118.111162109375
118.00971028645833
118.134345703125
118.38496744791667
118.70383463541667
118.97887044270833
119.20345052083333
119.401533203125
117.39089518229167
117.57810872395834
117.72876302083333
118.10581380208333
118.99088216145833
119.10461588541666
118.65138997395833
116.93222330729166
115.16569010416667
115.01567057291666
117.60173177083334
117.66427083333333
117.777451171875
117.30965169270833
117.68447916666666
117.64352864583333
117.49642252604167
117.5926953125
117.84859375
118.16819986979166
118.40529947916667
118.67723958333333
118.87804361979167
119.07235677083334
119.26555338541667
117.16394205729166
117.34714518229167
117.5255078125
118.515419921875
118.583935546875
118.42677083333334
116.676953125
114.89866536458334
114.77083984375
117.38556966145833
117.44218424479166
117.55499674479167
117.11251627604166
117.49681315104166
117.38667643229167
117.31481119791667
117.44459635416666
117.69834309895833
117.972041015625
118.24756184895833
118.49376302083333
118.67583984375
118.83989583333333
119.0171484375
119.17306966145833
119.30254231770833
117.21630859375
117.40951822916666
117.64079427083334
117.80658854166667
118.23700520833333
116.755888671875
114.87438802083334
114.64246419270833
117.23881510416666
117.378486328125
116.7887890625
117.12363606770833
117.25082356770834
116.882802734375
116.779755859375
116.91592447916666
117.14662434895833
117.44611328125
117.75033203125
118.01075846354166
118.25103841145834
118.42934244791667
118.58906575520834
118.77
116.66933919270834
116.87445638020833
117.06371744791667
117.234814453125
119.05381510416667
118.93759440104166
117.84354817708333
116.06308268229166
115.294501953125
117.81988932291667
118.03091471354166
118.44082356770834
118.58951171875
117.5715234375
117.58147135416667
117.47330078125
117.480546875
117.67646158854167
117.98644856770834
118.26817057291667
118.55698893229167
118.80863606770833
118.983349609375
116.94236002604167
117.16384765625
118.80990234375
119.19379557291667
119.32072265625
119.46821614583334
119.50031901041666
118.78037760416667
117.294697265625
116.24206705729166
116.32013671875
119.036318359375
119.204951171875
119.6598828125
118.70789713541667
118.798212890625
118.52736328125
116.18951822916667
116.341943359375
116.62326171875
120.60425130208333
120.87419270833334
121.08133138020834
117.590986328125
118.02636393229167
118.15692708333333
119.76810546875
119.85499674479166
119.92655924479166
119.50782877604166
118.467685546875
117.33760091145834
117.413837890625
117.91434244791667
120.725595703125
121.2591015625
121.6660546875
119.93361328125
119.29685546875
119.70531575520833
119.65117513020833
119.27578125
119.65103190104166
120.037548828125
121.67249348958333
121.995625
122.2237890625
122.33222981770834
120.23736328125
120.30526041666667
122.518076171875
121.892900390625
120.081591796875
118.36046875
120.06395833333333
120.2781640625
118.522998046875
120.87263997395833
120.86043294270833
120.05188151041666
120.02184244791667
119.91758138020833
120.1753125
120.43546875
120.76661783854166
121.14350911458334
121.445615234375
119.38291015625
119.58486653645834
119.69906901041666
119.69767252604167
120.92845052083334
120.97722981770833
121.07283528645833
120.81400716145833
119.29369140625
117.74513346354166
117.248720703125
119.672685546875
119.60474934895834
118.45191731770834
118.82473958333334
119.157734375
119.287294921875
119.5469140625
119.642080078125
119.78142578125
119.93208984375
120.08285807291666
120.59587239583334
120.75140625
118.59507161458333
118.75590169270833
118.83856119791666
118.92556315104167
120.29235677083334
120.43701497395833
120.49984375
120.18902018229167
118.70477864583333
117.16590494791667
116.78767903645833
119.4896484375
119.57939453125
118.41338541666667
118.70455729166666
118.9466015625
119.19509440104167
119.1308984375
119.195498046875
119.446328125
119.72066080729167
119.95947916666667
120.21424153645833
120.44694010416667
120.83967447916666
118.593017578125
118.646279296875
118.71405598958333
119.98261067708333
120.04532552083333
120.14947265625
120.33111002604167
120.46158528645833
120.20442708333333
118.91542643229167
117.458564453125
117.00230143229167
119.92004557291666
120.29469401041666
120.35622395833333
119.08368489583333
118.81489583333334
118.44791015625
118.12307291666667
118.183828125
118.38056315104167
118.54320638020833
118.45989908854166
119.160419921875
119.42319661458333
119.42
119.58282552083334
119.882451171875
120.329033203125
120.26765950520833
120.51256510416667
120.77830729166666
120.65253580729167
117.97521809895834
117.05124348958333
115.98936197916667
116.63526041666667
119.12708984375
119.100654296875
118.06513671875
118.18706705729167
117.95113606770833
117.719853515625
117.86193033854167
117.86391927083334
118.061220703125
118.33196614583333
118.26502278645833
118.339599609375
118.59112630208334
118.55410807291666
118.77740234375
119.08913736979167
119.24319986979167
119.37072265625
119.17549153645834
118.15071614583333
116.41360026041667
115.26773763020833
115.59507486979167
118.08593098958333
118.71310221354166
119.13037434895833
117.84082682291667
117.895810546875
115.72991536458333
115.64321940104166
115.76212239583333
115.95604166666666
117.59972330729167
117.796015625
118.08721028645833
118.43002278645834
118.81506184895834
118.885107421875
119.04730143229166
119.16980794270833
118.36314127604167
116.546611328125
114.76373697916667
114.529599609375
116.98111979166667
117.38612630208333
117.86065104166667
117.22847005208334
118.00179361979167
118.09698567708334
118.16112955729167
116.13342122395834
116.51137044270833
118.398291015625
118.843173828125
119.15333658854166
119.615107421875
119.82799153645833
120.08979817708334
120.41376953125
118.19734049479166
118.32008138020834
119.37783203125
118.265068359375
116.69935546875
115.99652994791667
118.61883463541666
118.71093424479167
117.49875651041667
119.95560872395833
120.1575
118.79644205729167
116.58931315104167
116.62242838541667
116.79694986979166
116.89831705729166
117.03127278645833
118.565244140625
118.649990234375
118.74857421875
118.794072265625
118.901640625
118.98358072916666
118.86004557291666
118.96920247395833
119.12131510416667
118.78965494791667
117.56115234375
116.84557942708334
116.82695963541667
117.08279947916667
119.2225390625
119.378984375
119.65283854166667
119.85780598958333
118.33005859375
115.99557942708333
116.04754557291666
117.636201171875
117.81254557291666
117.92424479166667
118.029677734375
118.07812825520833
118.15213541666667
118.47087890625
118.55796875
118.645048828125
118.765361328125
118.781796875
118.35630208333333
117.133359375
116.36486002604167
116.32419921875
118.908994140625
118.94658854166667
119.18753255208334
117.97818359375
118.06802408854166
118.04966796875
118.07046223958334
115.94462239583333
116.12521484375
116.32831705729167
116.510009765625
116.68359049479167
118.26264322916667
118.31181315104166
118.32208984375
118.59622395833334
118.64799479166666
118.71396158854166
118.71114583333333
118.50592122395834
117.49101236979166
116.58284830729167
116.24119466145834
118.70099283854167
118.751181640625
118.964111328125
119.18486002604166
117.79425455729167
117.79491536458333
117.67145833333333
117.640830078125
117.69414713541667
117.93210286458333
118.19287760416667
118.3665234375
118.49678059895834
116.36484375
116.50191731770833
116.71484049479167
118.28269205729167
118.30722981770833
118.35311848958334
118.352197265625
117.35013671875
116.44367838541666
116.163798828125
118.61008463541667
118.60054036458334
117.281220703125
117.50948893229166
117.65077473958333
117.63726888020834
117.67698893229166
117.77602864583334
117.92197591145833
118.06256184895834
118.177216796875
118.315810546875
116.23810872395833
116.36197591145833
117.93348958333333
117.995283203125
117.986865234375
117.94180989583333
117.95669596354166
117.34023763020834
116.11089518229167
115.61856770833333
115.76784505208333
118.36016927083334
118.61098307291667
118.846650390625
117.53037760416667
117.55922200520833
117.42048502604166
117.41328125
117.599462890625
117.83517578125
118.02336263020834
118.18480143229166
118.35210286458333
116.25733723958334
116.37554361979167
116.46657552083333
117.94806640625
117.978984375
118.01742838541666
117.39769205729166
116.10231119791666
115.459189453125
115.55563802083333
118.22596354166667
118.52680013020833
117.273505859375
117.48521809895833
117.51191731770834
117.41528645833333
117.41532552083333
117.58399088541667
117.81600260416667
118.00217122395833
118.13901692708333
118.26661458333334
118.3780859375
116.27974283854167
116.36557942708333
116.36621744791667
116.336611328125
117.70371419270833
117.49688151041667
116.5605859375
115.15819661458333
114.65696940104166
116.91179361979167
117.16719075520834
117.37097005208334
117.36
116.17548828125
116.10686848958333
115.87167317708334
115.68166015625
115.77857747395834
115.93463216145834
116.03782877604166
116.09886067708334
116.08728190104166
116.17045572916666
116.23357096354167
116.26628580729167
116.34933268229166
116.49293294270834
116.59888997395834
116.67345052083333
116.71008138020834
116.32645833333333
115.13845052083333
114.45623372395833
114.353251953125
116.74923502604166
116.87674479166667
117.11064778645833
115.65228515625
115.75499348958333
115.718564453125
113.79117838541667
113.93039713541667
114.17890625
116.06319010416667
116.23453125
116.29967447916667
116.44299153645834
116.57886067708333
116.596181640625
116.73201497395833
117.08148763020833
117.58114908854166
118.11572916666667
118.639033203125
119.02611653645833
116.58434244791667
115.170263671875
114.01435221354167
114.9534765625
117.12363606770833
117.53885416666667
117.72916341145833
120.1281640625
120.4941015625
117.859892578125
115.86083984375
115.94767252604167
117.7391015625
118.00416666666666
118.20392903645833
118.456611328125
118.72892903645834
118.91112955729167
119.05875325520833
117.00726236979166
117.23468424479167
118.827900390625
118.962919921875
119.18965169270834
119.63480143229167
119.76616536458333
119.41810546875
118.34645833333333
117.543857421875
117.46718424479167
120.073125
120.128154296875
120.36024088541667
119.18105143229167
119.437177734375
119.47823567708333
117.13530924479167
117.19402669270833
117.43004557291667
119.10703776041667
119.24892903645834
119.44399088541667
119.56277669270834
119.90902994791666
119.98732747395833
120.10674153645833
120.23978515625
120.34672526041666
120.46385091145834
120.55055013020834
120.64787109375
120.59198567708333
120.112255859375
118.94654622395834
118.325771484375
118.365087890625
118.36807942708333
120.64219401041667
120.86532552083334
121.0755859375
117.4601953125
117.44228841145834
117.40576497395833
118.958955078125
119.34035481770833
119.258583984375
119.40191731770834
119.71587890625
119.854677734375
119.9691015625
120.05248697916667
120.12147786458333
120.168544921875
120.212734375
120.35290364583334
120.426142578125
120.55433268229167
120.250087890625
119.255087890625
118.70383138020833
118.88783528645833
118.83998372395833
119.01886067708334
121.52915364583333
121.69171549479167
121.76516927083334
119.458681640625
118.29204752604167
118.409951171875
118.54374674479166
120.08942057291667
120.22081705729167
120.37309244791666
120.493212890625
120.57966796875
120.64643880208334
120.72505533854167
120.7576953125
121.090517578125
121.1272265625
121.166455078125
120.74204427083333
119.73591145833333
119.28408854166666
119.21986979166667
119.205302734375
119.24364908854167
119.34544596354166
119.520859375
119.5844921875
119.744150390625
119.68557291666667
119.75040364583333
119.85225911458333
119.97755533854166
120.15954752604166
120.24033203125
120.324462890625
120.37117513020833
120.44043294270833
120.50298177083333
120.526396484375
120.52728515625
120.54778645833333
120.676708984375
120.72925455729167
120.366796875
119.43720703125
119.440751953125
119.46880533854167
119.44537109375
119.43544921875
119.61634765625
119.72011393229167
119.93961263020833
119.7532421875
119.57823893229167
119.53733723958334
119.61810546875
119.750458984375
119.86220377604167
119.91836588541666
119.902021484375
119.88887369791667
119.77822591145834
119.70112630208334
119.70390950520833
119.69517252604167
119.793388671875
119.869482421875
119.942109375
120.03572265625
119.99038736979166
119.46435872395833
118.626005859375
118.39651041666667
118.46479817708334
118.60153971354167
118.42514322916666
118.47240885416667
118.516669921875
118.47406575520833
118.38985677083333
118.38618489583334
118.44910481770833
118.527275390625
118.59127604166666
118.62116861979166
118.60738606770833
118.566748046875
118.49770182291667
118.481611328125
118.53055338541667
118.53089192708333
118.51957356770833
118.5283984375
118.60042317708333
118.65307942708333
118.76280924479167
118.63900390625
117.903662109375
116.66471354166667
116.44208658854167
119.02872721354167
119.152041015625
119.36851236979167
117.99759765625
118.21685221354167
118.250966796875
118.20865234375
118.18180338541667
118.219560546875
118.29264973958334
118.42354166666667
118.415927734375
118.53246744791667
118.71179036458334
118.75721028645833
116.38689127604167
116.35744140625
116.38890950520833
117.70664388020833
117.47634114583333
117.286904296875
117.16642903645834
119.50769205729166
119.44572591145834
117.47153971354167
116.57034505208334
116.29222005208334
116.46694661458334
116.67677734375
116.977265625
117.27289388020833
117.5916015625
117.71847981770833
117.57402018229166
117.59129557291666
117.773369140625
117.85041341145833
117.89795572916667
117.97077799479166
118.140126953125
118.39572265625
118.62157552083333
118.67338541666666
118.7364453125
116.641201171875
116.71734375
116.72529947916667
116.74078776041667
118.16217122395834
118.13847005208333
117.775869140625
116.76506510416667
116.088916015625
116.01777669270834
118.28069661458333
118.26252604166666
118.27947265625
117.04796875
117.10228190104166
116.93287760416666
116.88448893229166
117.03669270833333
117.181328125
117.054345703125
116.91648763020834
117.12748372395833
117.44741536458334
117.637939453125
117.80552408854167
117.77493815104167
117.89398111979166
117.98720052083333
118.0211328125
117.97500325520834
117.28356770833334
116.11729166666667
115.59841471354167
115.55384765625
115.57604166666667
115.29435546875
114.88206705729166
114.68097005208334
114.50564453125
113.94533854166667
116.07221354166667
116.23570963541667
116.45478515625
115.10006184895833
115.17321614583334
115.259365234375
115.41851236979167
115.46593098958333
115.5741796875
115.806083984375
115.99284505208334
116.034677734375
113.74248046875
112.4729296875
111.46611979166667
112.778134765625
115.04592122395833
115.06824544270833
114.92341145833333
115.175126953125
115.399150390625
113.86784830729167
113.68551106770833
113.844921875
113.87981119791667
114.14449544270833
114.29705078125
113.99509440104167
114.23507486979166
114.22285481770834
114.24265625
114.26347981770833
114.282744140625
114.42329427083334
114.60980794270833
114.649111328125
114.079072265625
112.41129557291667
111.0641796875
110.35049479166666
112.63263671875
112.560322265625
110.11177734375
110.21664713541666
110.47740559895833
110.497802734375
110.43572591145833
110.343876953125
110.60047200520833
110.81394856770834
110.89702473958333
111.08119140625
111.3997265625
111.61786458333333
111.89607747395833
111.92653971354167
111.93923177083333
109.68068359375
109.72629557291667
109.93779622395833
112.40614908854167
111.71368815104167
110.05116536458333
108.68470703125
110.40140299479167
110.536162109375
110.50111328125
112.82026692708334
112.75038736979167
108.77507161458334
108.82149739583333
106.51094401041667
106.64075846354167
106.797236328125
110.998681640625
111.028642578125
111.21933919270833
107.36307942708333
107.51348307291667
107.70807942708333
109.62256510416667
109.68962890625
109.780263671875
109.91891927083333
110.08496744791667
110.17369466145833
109.160517578125
107.50946940104167
106.25509114583333
106.00652018229167
108.27686848958334
108.63791666666667
108.87202799479167
109.17368815104167
109.316865234375
107.52823567708333
107.562158203125
107.73269856770834
108.03875325520833
108.42953776041666
108.76690755208334
106.8978125
107.29252604166666
107.57784830729166
109.51181966145833
109.63052083333334
109.77575846354166
109.9173046875
110.07278645833334
110.24623697916667
110.504189453125
110.66532877604166
110.20574544270833
108.58918619791666
107.234326171875
106.73273111979167
106.99392578125
109.53794270833333
109.83547200520833
108.39847330729167
108.736357421875
108.87010091145834
108.78583658854167
106.6480859375
106.91835611979167
107.40005208333334
107.74592447916666
107.994345703125
109.951083984375
110.11749674479167
110.25890950520834
110.46702473958334
110.61468098958333
110.78689127604167
110.94802408854167
111.30047526041666
111.47109375
111.57072916666667
111.09790364583333
107.56368489583333
106.54039388020833
106.39061197916666
108.84450520833333
111.36552408854166
111.50808268229167
111.73838216145833
109.37827473958333
109.31149739583333
109.25770833333333
109.38880208333333
109.7432421875
110.16998046875
110.62247721354167
111.01973307291667
111.433671875
111.78083333333333
112.30259114583333
110.47625325520833
110.63977864583333
110.86611002604167
110.93975911458334
113.382314453125
113.48919270833333
112.48865885416667
111.57412760416666
111.47952473958334
111.522802734375
113.83894856770833
113.77707356770833
113.92611328125
111.847265625
111.79640299479166
109.31290690104167
109.163203125
109.285751953125
111.70740885416667
114.52231119791666
114.76822916666667
112.69504557291667
110.26239908854167
110.281513671875
110.27561197916667
112.82158854166667
113.10833984375
113.4339453125
113.58005208333333
112.75103515625
111.24002278645834
110.79648763020833
110.75770182291667
112.836796875
112.76602213541666
112.96767252604167
113.16913736979167
110.88316080729167
110.95254231770834
110.75690755208333
110.71521484375
110.868447265625
111.07568033854167
111.24702473958334
111.387138671875
109.3614453125
109.71980143229166
109.89750651041666
110.205712890625
112.774169921875
112.83033203125
112.8757421875
112.91461588541667
112.37111002604166
111.02873372395834
110.01548828125
109.65839518229167
111.91920572916666
111.94346354166667
111.99230794270834
112.141435546875
109.65964192708333
109.501845703125
109.31693359375
109.24483723958333
109.29343098958333
109.37708333333333
109.55522786458333
109.70321614583334
109.828310546875
109.922763671875
109.99167643229167
110.02420247395834
110.11013997395834
110.3306640625
110.46505208333333
110.68621419270833
110.85568359375
110.56379557291666
109.30064453125
108.38637044270833
107.956865234375
107.96933919270833
110.30602864583334
110.23147786458334
110.43440104166666
110.58359049479166
108.31389322916667
106.82446614583333
106.96697265625
107.14686197916667
109.14680989583333
109.32572265625
109.54601236979167
109.76894205729167
109.86599934895834
110.001064453125
110.075126953125
110.12268229166666
110.13462890625
110.249345703125
110.38529947916666
110.5205859375
110.655390625
110.24724934895833
108.80570963541666
107.71521484375
107.347607421875
107.52483723958333
109.79375
109.57212565104167
109.61782877604166
107.85050130208333
107.89171223958333
107.922314453125
108.01398763020833
108.12944986979167
108.42733723958334
108.61711588541667
106.600576171875
106.98427083333333
107.32236002604166
107.44994140625
107.451962890625
109.33531901041667
109.61959635416666
109.831728515625
109.97821614583333
110.12552083333334
110.30033528645833
110.10755533854167
108.978828125
107.82154296875
107.50565755208333
107.83499674479167
110.263828125
110.52397135416666
110.82806315104166
110.95638020833333
106.848583984375
106.80474934895834
106.921142578125
108.80597005208334
108.95504231770833
109.20397135416667
109.42393229166667
109.69588216145833
109.78238606770833
109.85934244791666
110.038359375
110.21304036458334
110.34078450520833
110.503310546875
110.703974609375
110.65597981770833
109.93527669270833
108.61509765625
108.11539388020833
108.13782552083333
110.66516276041666
110.70430989583333
110.91259114583333
108.84142903645834
107.18984700520834
107.0884765625
107.03911783854167
108.857705078125
109.06001627604167
109.30184244791667
109.45996744791667
109.53162760416667
109.56485677083333
109.7244921875
109.78010091145833
109.86233072916667
109.98201497395833
110.11568359375
110.29302083333333
110.24565104166666
109.36889973958333
107.993955078125
107.53890950520834
107.75095052083333
110.21033528645833
110.25751627604167
110.46650716145834
110.63800455729167
106.622802734375
106.69585286458333
106.56542643229167
108.39164713541666
108.51512369791666
108.65747395833333
108.89331380208333
109.08790364583334
109.20864583333334
109.352978515625
109.4355078125
109.50122395833333
109.58190104166667
109.63451171875
109.68697916666666
109.666044921875
108.99082682291667
107.56103515625
106.88806966145833
106.92608072916667
109.41347330729167
109.66860026041667
109.8022265625
109.97571614583333
108.2197265625
108.00614583333333
107.78394856770834
107.86192708333333
108.179697265625
108.44092447916667
108.57068033854166
108.72106119791667
108.92302083333334
106.895654296875
107.01655924479167
107.03010091145833
108.9386328125
108.98280598958333
109.050146484375
109.14194661458333
109.2348046875
108.63804361979167
107.14906901041667
106.17141927083334
106.027470703125
108.51966796875
108.70631510416666
108.682900390625
107.08765625
107.459189453125
107.42876953125
107.33147786458333
107.323603515625
107.48403645833334
107.69460611979167
107.780009765625
107.86944986979167
107.94801106770834
108.100869140625
106.04548828125
106.29853841145834
106.476953125
106.73147786458334
108.60640299479167
108.61515950520834
108.758818359375
108.88108723958334
108.44527018229167
106.9403125
105.96168294270834
105.73195963541667
108.20644856770834
108.59261393229167
108.47630208333334
108.43341796875
107.25030924479167
107.2060546875
107.08032877604167
107.05745768229167
107.15474283854167
107.30287760416667
107.48212890625
107.62217122395833
107.75454427083334
107.83189127604167
107.95042643229166
107.995263671875
108.04880533854167
108.16416015625
108.27352864583334
108.4062890625
108.54352864583333
108.61439778645833
106.43816731770833
105.5608203125
103.878779296875
104.84023111979167
107.04003580729167
107.25716145833333
105.32719401041666
107.5267578125
107.63162109375
106.69462239583333
104.647919921875
104.62888346354167
106.0101171875
106.1448828125
106.39761393229166
106.63326822916666
106.811767578125
106.94884114583333
107.0372265625
107.18587239583333
107.33330729166667
107.49050455729167
107.614814453125
107.74356770833333
107.84022135416667
107.92354817708333
105.858720703125
105.95099609375
105.02727213541667
103.58030924479166
106.96365559895834
106.96626302083334
107.29026041666667
107.3188671875
107.40878580729166
107.73551432291667
104.50388346354167
104.34638671875
104.26716145833333
105.74288411458333
105.94271484375
106.177841796875
106.33876627604167
106.55060221354167
106.720078125
106.842578125
106.96919596354167
107.10201171875
107.21258463541666
107.33945638020833
107.47900390625
107.69517578125
107.78935872395833
107.87212565104167
105.64511393229166
104.80204427083333
103.409169921875
104.771787109375
107.15431315104166
107.35744466145833
107.10577473958334
107.130517578125
107.30767252604167
105.96656575520834
105.881708984375
105.867744140625
105.91914713541667
106.13576822916667
106.33623372395833
106.51113606770834
106.67244466145833
106.82541341145833
106.946455078125
107.03892578125
107.04277994791667
107.07710611979167
107.15760416666667
107.18784830729167
107.20937174479167
107.21598958333334
106.62712239583334
105.28811848958334
104.59433268229166
104.73273111979167
105.11803385416667
107.2238671875
107.31258463541667
107.5887890625
106.012822265625
105.90349609375
105.831552734375
105.94697591145834
106.165126953125
106.46044921875
106.74169921875
107.0423046875
107.24198893229166
107.378701171875
107.52460611979167
107.64434895833334
107.74609049479167
107.93102213541667
108.07568033854167
105.609267578125
104.67170247395833
105.511162109375
105.47957356770833
107.93265625
108.09877604166667
107.91467122395834
108.18994466145833
106.94630859375
106.8740234375
106.833017578125
106.96737955729166
107.21872395833333
107.48140950520833
107.743427734375
107.99096028645833
108.17480143229167
106.16899739583333
106.5133203125
106.68175130208333
108.67689453125
108.84618489583333
108.93839518229167
108.89828450520834
107.972294921875
106.92581380208334
106.67233723958333
109.13562825520833
109.21136393229166
107.58882486979167
107.78638020833333
107.885087890625
107.79215169270833
107.637158203125
107.59701171875
107.70515299479166
107.91142578125
108.11073567708333
108.23465494791667
108.27281575520833
106.15319010416667
106.36609375
106.489248046875
106.53579427083334
108.31914713541667
108.31015950520833
108.39635416666667
107.910673828125
106.52185872395833
105.58511067708334
107.587568359375
107.60774739583