-24.398069661458333
-24.5468359375
-16.500361328125
-15.58375
-38.832197265625
-32.42182291666666
-28.671442057291667
-29.083072916666666
-26.083444010416667
-24.918642578125
-25.030276692708334
-24.475712890625
-22.29759765625
-22.544401041666667
-20.789807942708332
-20.56735677083333
-20.250123697916667
-20.2033984375
-20.2921875
-20.366630859375
-20.430543619791667
-20.50541015625
-20.506363932291666
-20.481155598958335
-20.444036458333333
-20.4905078125
-20.557936197916668
-20.630315755208333
-20.681878255208332
-20.741126302083334
-20.80002278645833
-20.834016927083333
-20.86587890625
-20.910797526041666
-20.93541015625
-20.982301432291667
-21.030045572916666
-21.075120442708332
-21.100595703125
-20.830283203125
-20.518131510416666
-20.420501302083334
-20.47578125
-20.551656901041667
-20.615432942708335
-20.727815755208333
-20.68349609375
-20.640218098958332
-20.67364583333333
-20.7309375
-20.798411458333334
-20.857587890625
-20.906930338541667
-20.969661458333334
-21.011416015625
-21.044541015625
-21.082692057291666
-21.118772786458333
-21.162939453125
-21.17900390625
-21.230963541666668
-21.280289713541666
-21.170188802083334
-20.76916015625
-20.532027994791665
-20.516608072916668
-20.595895182291667
-20.679850260416668
-20.75052734375
-20.806451822916667
-20.772630208333332
-20.721761067708332
-20.701884765625
-20.73556966145833
-20.791305338541665
-20.864615885416665
-20.913785807291667
-20.987376302083334
-21.04005859375
-21.094111328125
-21.118463541666667
-21.1269140625
-21.141311848958335
-21.178782552083334
-21.220113932291667
-21.110491536458333
-20.712483723958332
-20.449378255208334
-20.443186848958334
-20.527958984375
-20.58689453125
-20.687744140625
-20.770947265625
-20.7479296875
-20.680927734375
-20.653001302083332
-20.715100911458332
-20.785458984375
-20.853587239583334
-20.900130208333334
-20.969879557291666
-21.027643229166667
-21.069404296875
-21.1021484375
-21.131995442708334
-21.1629296875
-21.19205078125
-21.09447265625
-20.650009765625
-20.348440755208333
-20.310143229166666
-20.391012369791667
-20.46720703125
-20.621240234375
-20.613352864583334
-20.569791666666667
-20.552096354166668
-20.582115885416666
-20.659817708333332
-20.728336588541666
-20.79283203125
-20.854420572916666
-20.906796875
-20.954934895833333
-20.9781640625
-21.026572265625
-21.053919270833333
-21.0937109375
-21.136761067708335
-21.016676432291668
-20.585641276041667
-20.306998697916665
-20.307548828125
-20.3963671875
-20.474518229166666
-20.551233723958333
-20.617027994791666
-20.604303385416667
-20.54690104166667
-20.532135416666666
-20.576826171875
-20.661940104166668
-20.732451171875
-20.760498046875
-20.832447916666666
-20.880328776041665
-20.922887369791667
-20.958763020833334
-20.989645182291667
-21.024586588541666
-21.065035807291668
-21.121002604166666
-21.128518880208333
-20.80201171875
-20.455055338541666
-20.339791666666667
-20.437102864583334
-20.534635416666667
-20.602203776041666
-20.67990559895833
-20.695302734375
-20.651722005208335
-20.614137369791667
-20.65427734375
-20.71314453125
-20.78583984375
-20.856741536458333
-20.905696614583334
-20.958268229166666
-21.01255859375
-21.049104817708333
-21.087626953125
-21.124778645833334
-21.161487630208335
-21.209104817708333
-21.258756510416667
-21.229407552083334
-20.855810546875
-20.57474609375
-20.55849609375
-20.64904296875
-20.715185546875
-20.803255208333333
-20.867708333333333
-20.85240234375
-20.797727864583333
-20.78436197916667
-20.81466796875
-20.882708333333333
-20.942542317708334
-21.001650390625
-21.057132161458334
-21.15376953125
-21.177646484375
-21.197581380208334
-21.217701822916666
-21.250250651041668
-21.295361328125
-21.138206380208334
-20.770543619791667
-20.622386067708334
-20.668317057291667
-20.757939453125
-20.825852864583332
-20.905071614583335
-20.95611328125
-20.91208984375
-20.855833333333333
-20.847174479166668
-20.915133463541668
-20.974986979166665
-21.037692057291668
-21.08947265625
-21.141666666666666
-21.1853125
-21.215123697916667
-21.238756510416668
-21.25021484375
-21.277923177083334
-21.325699869791666
-21.246627604166665
-20.841357421875
-20.561907552083333
-20.52691731770833
-20.60900390625
-20.66925130208333
-20.724485677083333
-20.765289713541666
-20.760345052083334
-20.69478515625
-20.675325520833333
-20.70654296875
-20.77125
-20.83140625
-20.880670572916667
-20.93125
-20.975540364583335
-21.00265625
-21.04751953125
-21.0696875
-21.09404296875
-21.126852213541667
-21.163824869791668
-21.211233723958333
-21.036572265625
-20.610006510416667
-20.39341796875
-20.466764322916667
-20.5729296875
-20.620947265625
-20.571858723958332
-20.567337239583335
-20.609915364583333
-20.687425130208332
-20.749453125
-20.807340494791667
-20.852926432291667
-20.89736328125
-20.9309765625
-20.9629296875
-21.005465494791668
-21.034977213541666
-21.07272786458333
-21.116175130208333
-21.157913411458335
-21.212008463541668
-21.131194661458334
-20.696549479166666
-20.3975
-20.378863932291665
-20.475764973958334
-20.538460286458335
-20.599973958333333
-20.6777734375
-20.675397135416667
-20.627587890625
-20.607444661458334
-20.657027994791665
-20.731861979166666
-20.799287109375
-20.850862630208333
-20.911614583333332
-20.977932942708332
-21.013990885416668
-21.047805989583335
-21.07908203125
-21.11626953125
-21.159580078125
-21.19130859375
-21.244049479166666
-21.287194010416666
-21.102200520833332
-20.671363932291666
-20.495211588541668
-20.531637369791667
-20.62458984375
-20.686038411458334
-20.764664713541666
-20.823902994791666
-20.779169921875
-20.736995442708334
-20.732737630208334
-20.76671875
-20.825667317708334
-20.887434895833334
-20.959381510416666
-21.010970052083334
-21.054830729166667
-21.091647135416668
-21.117744140625
-21.156028645833334
-21.186448567708332
-21.21457356770833
-21.276057942708334
-21.311526692708334
-21.063349609375
-20.668880208333334
-20.517747395833332
-20.546790364583334
-20.62628255208333
-20.698238932291666
-20.78521484375
-20.819436848958333
-20.785087890625
-20.732620442708335
-20.738603515625
-20.78126953125
-20.8513671875
-20.902848307291666
-20.980045572916666
-21.043196614583334
-21.086559244791665
-21.120872395833334
-21.15884765625
-21.202975260416668
-21.234788411458332
-21.271813151041666
-21.323746744791666
-21.377298177083333
-21.259381510416667
-20.81134765625
-20.528434244791665
-20.492994791666668
-20.549801432291666
-20.632294921875
-20.68521484375
-20.753929036458334
-20.760166015625
-20.69896484375
-20.685061848958334
-20.71506184895833
-20.775924479166665
-20.848287760416667
-20.909075520833333
-20.965625
-21.01540690104167
-21.060208333333332
-21.094339192708333
-21.132431640625
-21.173323567708334
-21.20763671875
-21.243343098958334
-21.284280598958333
-21.32849609375
-21.084150390625
-20.613636067708335
-20.393977864583334
-20.407386067708334
-20.487561848958332
-20.543671875
-20.625927734375
-20.691552734375
-20.677685546875
-20.622721354166668
-20.610725911458335
-20.661458333333332
-20.724651692708335
-20.793570963541665
-20.856666666666666
-20.922666015625
-20.976920572916665
-21.022457682291666
-21.054332682291665
-21.082815755208333
-21.120921223958334
-21.167112630208333
-21.203014322916665
-21.262763671875
-20.713551432291666
-20.387542317708334
-20.342268880208334
-20.414150390625
-20.482125651041667
-20.571276041666668
-20.658424479166666
-20.656142578125
-20.589765625
-20.55462890625
-20.577532552083333
-20.643121744791667
-20.711181640625
-20.7706640625
-20.834420572916667
-20.889117838541665
-20.93568359375
-20.957122395833334
-20.973821614583333
-21.019342447916667
-21.029541015625
-21.085289713541666
-21.077171223958334
-20.709830729166665
-20.326653645833332
-20.209928385416667
-20.270930989583334
-20.361162109375
-20.438352864583333
-20.539410807291667
-20.567496744791665
-20.500940755208333
-20.45404296875
-20.464755859375
-20.522145182291666
-20.607154947916666
-20.672685546875
-20.720436197916666
-20.779661458333333
-20.827825520833333
-20.849453125
-20.872060546875
-20.8914453125
-20.908365885416668
-20.95662109375
-20.935400390625
-20.561754557291668
-20.122731119791666
-20.049388020833334
-20.12564453125
-20.73453125
-20.6778125
-21.219586588541667
-20.921376953125
-20.736363932291667
-20.751276041666667
-20.804934895833334
-20.876383463541668
-20.958968098958334
-21.03234375
-21.084635416666668
-21.138684895833332
-21.185458984375
-21.205625
-21.23513671875
-21.311090494791667
-21.345074869791667
-21.123375651041666
-20.60955729166667
-20.31744466145833
-20.317233072916668
-20.391735026041665
-20.463694661458334
-20.542194010416665
-20.621848958333334
-20.615149739583334
-20.536419270833335
-20.5238671875
-20.57635416666667
-20.65228190104167
-20.729134114583335
-20.798395182291667
-20.86400390625
-20.918313802083333
-20.965823567708334
-20.993284505208333
-21.02001953125
-21.057805989583333
-21.0920703125
-21.157529296875
-21.080768229166665
-20.602330729166667
-20.198111979166665
-20.11697265625
-20.18650390625
-20.27736979166667
-20.355113932291665
-20.460690104166666
-20.468274739583332
-20.384680989583334
-20.356380208333334
-20.375625
-20.446038411458332
-20.531360677083335
-20.599306640625
-20.661435546875
-20.718756510416668
-20.762955729166666
-20.792151692708334
-20.815149739583333
-20.82107421875
-20.85466796875
-20.899407552083332
-20.927936197916665
-20.584749348958333
-20.101419270833333
-19.904039713541668
-19.97384765625
-20.067311197916666
-20.1569921875
-20.262119140625
-20.304026692708334
-20.24334635416667
-20.176533203125
-20.178020833333335
-20.2397265625
-20.325940755208332
-20.411233723958333
-20.46509765625
-20.521673177083333
-20.5730859375
-20.602903645833333
-20.628264973958334
-20.648138020833333
-20.678121744791667
-20.728499348958334
-20.250628255208333
-19.675299479166668
-19.747705078125
-19.82863932291667
-20.488759765625
-20.411936848958334
-20.998154296875
-20.865143229166666
-20.958619791666667
-20.979202473958335
-21.0544921875
-21.136884765625
-21.219049479166667
-21.289342447916667
-21.350699869791665
-21.408863932291666
-21.436728515625
-21.49060546875
-21.557705078125
-21.8667578125
-22.070026041666665
-22.175823567708335
-21.74818359375
-21.24176106770833
-21.0021484375
-21.013170572916668
-21.065882161458333
-21.179873046875
-21.326448567708333
-21.416624348958333
-21.42746419270833
-21.436044921875
-21.492936197916666
-21.596139322916667
-21.654280598958334
-21.711604817708334
-21.775680338541665
-21.902138671875
-21.988828125
-22.04337890625
-22.106643880208335
-22.132679036458335
-22.199241536458334
-22.258870442708332
-22.329873046875
-22.394485677083335
-22.12138671875
-21.62720703125
-21.414462890625
-21.45548828125
-21.526575520833333
-21.662652994791667
-21.760696614583335
-21.825859375
-21.819853515625
-21.758486328125
-21.769456380208332
-21.803453776041668
-21.886070963541666
-22.009765625
-22.11065755208333
-22.163326822916666
-22.217913411458333
-22.282841796875
-22.308518880208332
-22.363160807291667
-22.415823567708333
-22.471764322916666
-22.547259114583333
-22.612552083333334
-22.116031901041666
-22.137522786458334
-21.08427734375
-20.9233984375
-20.902854817708334
-20.99849609375
-21.086458333333333
-21.175006510416665
-21.260618489583333
-21.262906901041667
-21.201279296875
-21.203870442708332
-21.258828125
-21.34439453125
-21.424580078125
-21.485771484375
-21.5664453125
-21.623050130208334
-21.651569010416665
-21.692659505208333
-21.72294921875
-21.76423828125
-21.838619791666666
-21.901285807291668
-21.879632161458332
-21.469638671875
-21.109947916666666
-20.98459309895833
-21.039742838541667
-21.10341796875
-21.200436197916666
-21.289117838541667
-21.337682291666667
-21.289664713541665
-21.246354166666666
-21.25046875
-21.310478515625
-21.381663411458334
-21.466575520833334
-21.527102864583334
-21.59665364583333
-21.655426432291666
-21.699671223958333
-21.738313802083333
-21.783216145833332
-21.820647786458334
-21.890758463541665
-21.948736979166668
-22.008525390625
-22.033714192708334
-21.684879557291666
-21.238548177083334
-21.01787109375
-21.013844401041666
-21.085208333333334
-21.159069010416665
-21.245501302083333
-21.292848307291667
-21.268912760416665
-21.219619140625
-21.197496744791668
-21.248590494791667
-21.319212239583333
-21.410960286458334
-21.483828125
-21.547415364583333
-21.659095052083334
-21.684033203125
-21.740244140625
-21.783870442708334
-21.826370442708335
-21.874710286458335
-21.934326171875
-21.998141276041668
-21.994069010416666
-21.595533854166668
-21.144606119791668
-20.958216145833333
-20.993365885416665
-21.074739583333333
-21.180709635416665
-21.296624348958332
-21.371298828125
-21.34755859375
-21.273564453125
-21.253294270833333
-21.321708984375
-21.386149088541668
-21.475185546875
-21.596354166666668
-21.673776041666667
-21.717864583333334
-21.756442057291668
-21.773486328125
-21.809925130208335
-21.835377604166666
-21.855514322916665
-21.893125
-21.98017578125
-22.05486328125
-22.060559895833332
-21.690452473958334
-21.256940104166667
-21.057845052083334
-21.067874348958334
-21.178291015625
-21.293404947916667
-21.384951171875
-21.44009765625
-21.405416666666667
-21.363502604166666
-21.3608203125
-21.41018229166667
-21.498541666666668
-21.571848958333334
-21.662737630208333
-21.725074869791666
-21.810595703125
-21.869713541666666
-21.914091796875
-21.975908203125
-22.01202473958333
-22.06193359375
-22.110872395833333
-22.177454427083333
-22.16912109375
-21.753626302083333
-21.343349609375
-21.218440755208334
-21.25658203125
-21.33474283854167
-21.425432942708333
-21.5470703125
-21.58254557291667
-21.542138671875
-21.487259114583335
-21.480703125
-21.560533854166668
-21.643863932291666
-21.719596354166665
-21.794462890625
-21.884449869791666
-21.95022135416667
-22.0141015625
-22.04009765625
-22.079205729166667
-22.119700520833334
-22.157301432291668
-22.224524739583334
-22.099860026041668
-21.61033203125
-21.254475911458332
-21.166735026041668
-21.22219401041667
-21.309928385416665
-21.390361328125
-21.480543619791668
-21.505647786458333
-21.450309244791665
-21.408792317708333
-21.426497395833334
-21.500680338541667
-21.598408203125
-21.678779296875
-21.760504557291668
-21.83181315104167
-21.892239583333332
-21.943245442708335
-21.982418619791666
-22.028509114583333
-22.071617838541666
-22.120732421875
-22.170065104166667
-22.210432942708334
-21.865100911458335
-21.360944010416667
-21.096272786458332
-21.080745442708334
-21.153037109375
-21.223880208333334
-21.303020833333335
-21.394879557291667
-21.380234375
-21.332096354166666
-21.296145833333334
-21.355100911458333
-21.44646484375
-21.515569661458333
-21.59743815104167
-21.652112630208332
-21.7078125
-21.7590234375
-21.808147786458335
-21.828372395833334
-21.8803515625
-21.926477864583333
-21.979479166666668
-22.0548828125
-22.087122395833333
-21.724820963541667
-21.268414713541667
-21.010638020833333
-21.016998697916666
-21.094684244791665
-21.174407552083334
-21.266927083333332
-21.3355859375
-21.250667317708334
-21.256116536458332
-21.298961588541665
-21.391637369791667
-21.474397786458333
-21.543776041666668
-21.615999348958333
-21.6591015625
-21.707255859375
-21.729833984375
-21.770865885416665
-21.81353515625
-21.873128255208332
-21.935947265625
-22.000589192708333
-22.063203125
-22.114287109375
-21.8729296875
-21.357535807291665
-21.066220703125
-21.040618489583334
-21.120319010416665
-21.231565755208333
-21.325234375
-21.396875
-21.38922200520833
-21.325807291666667
-21.297718098958335
-21.348665364583333
-21.415260416666666
-21.490670572916667
-21.57029296875
-21.638714192708335
-21.697428385416668
-21.747838541666667
-21.79294921875
-21.823499348958332
-21.858343098958333
-21.899065755208333
-21.974251302083335
-22.041061197916665
-21.847737630208332
-21.387154947916667
-21.099091796875
-21.067194010416667
-21.139059244791667
-21.219811197916666
-21.320159505208334
-21.40546875
-21.394270833333334
-21.329791666666665
-21.300377604166666
-21.344059244791666
-21.419938151041666
-21.496207682291665
-21.583681640625
-21.650537109375
-21.700693359375
-21.755139973958332
-21.799208984375
-21.818671875
-21.854225260416666
-21.894534505208334
-21.958310546875
-21.744173177083333
-21.253160807291668
-20.896341145833333
-20.847275390625
-20.911331380208335
-20.988151041666665
-21.0501171875
-21.120286458333332
-21.125458984375
-21.078434244791666
-21.055641276041666
-21.090970052083332
-21.169498697916666
-21.269202473958334
-21.333232421875
-21.408489583333335
-21.47271809895833
-21.513479817708333
-21.55171875
-21.576334635416668
-21.598072916666666
-21.620061848958333
-21.693600260416666
-21.729039713541667
-21.466012369791667
-20.93923502604167
-20.620618489583332
-20.58896484375
-20.656819661458332
-20.728388671875
-20.803001302083334
-20.886083984375
-20.874583333333334
-20.834928385416667
-20.809576822916668
-20.853030598958334
-20.946116536458334
-21.034443359375
-21.11920247395833
-21.197721354166667
-21.249671223958334
-21.3044921875
-21.337083333333332
-21.388655598958334
-21.422672526041666
-21.467418619791665
-21.512190755208334
-21.5892578125
-21.635817057291668
-21.336272786458334
-20.774742838541666
-20.491858723958334
-20.478570963541667
-20.571943359375
-20.643125
-20.746484375
-20.822626953125
-20.819075520833334
-20.772093098958333
-20.753225911458333
-20.8148828125
-20.899736328125
-21.000595703125
-21.08001627604167
-21.155224609375
-21.220270182291667
-21.281402994791666
-21.333551432291667
-21.381695963541667
-21.434254557291666
-21.488287760416668
-21.55208984375
-21.626315104166668
-21.549609375
-21.050657552083333
-20.690572916666667
-20.635748697916668
-20.724609375
-20.818059895833333
-20.90734375
-20.999466145833335
-20.997451171875
-20.94189453125
-20.917477213541666
-20.957047526041666
-21.02609700520833
-21.102291666666666
-21.203792317708334
-21.287740885416667
-21.369563802083334
-21.420279947916665
-21.45806640625
-21.485358072916668
-21.501842447916665
-21.555485026041666
-21.612083333333334
-21.643229166666668
-21.3925
-20.95365234375
-20.740374348958333
-20.757057291666666
-20.84634765625
-20.940852864583334
-21.055403645833334
-21.112353515625
-21.092080078125
-21.0416796875
-21.044143880208335
-21.098209635416666
-21.171438802083333
-21.25072265625
-21.322705078125
-21.394514973958334
-21.452161458333332
-21.49474609375
-21.530550130208333
-21.576865234375
-21.620270182291666
-21.675279947916668
-21.640680338541667
-21.246975911458332
-20.861448567708333
-20.725240885416667
-20.765738932291665
-20.829046223958333
-20.89739908854167
-20.976276041666665
-21.013050130208335
-20.982845052083334
-20.934345703125
-20.949814453125
-21.0148046875
-21.097568359375
-21.162705078125
-21.22537109375
-21.294420572916668
-21.345068359375
-21.388255208333334
-21.422962239583335
-21.47505859375
-21.502884114583335
-21.550699869791668
-21.582643229166667
-21.297932942708332
-20.852503255208333
-20.633098958333335
-20.623629557291668
-20.695677083333333
-20.753671875
-20.831822916666667
-20.88482421875
-20.87380859375
-20.837262369791667
-20.847835286458334
-20.897314453125
-20.971767578125
-21.051455078125
-21.125022786458334
-21.189228515625
-21.243704427083333
-21.292646484375
-21.332942708333334
-21.357294921875
-21.40341796875
-21.44552734375
-21.492578125
-21.445390625
-21.030569661458333
-20.649957682291667
-20.56076171875
-20.62173828125
-20.698411458333332
-20.773544921875
-20.878597005208334
-20.930315755208333
-20.886959635416666
-20.865257161458334
-20.894427083333333
-20.974729817708333
-21.0551953125
-21.14478515625
-21.209524739583333
-21.281451822916665
-21.331448567708332
-21.383375651041668
-21.418723958333334
-21.465631510416667
-21.51359375
-21.562835286458334
-21.628590494791666
-21.671438802083333
-21.432861328125
-20.9708984375
-20.73928385416667
-20.750237630208332
-20.837796223958332
-20.92840494791667
-21.027220052083333
-21.09332356770833
-21.064850260416666
-21.007802734375
-20.999283854166666
-21.055065104166665
-21.118974609375
-21.189453125
-21.270393880208335
-21.334684244791667
-21.381702473958335
-21.4330078125
-21.461689453125
-21.5000390625
-21.532021484375
-21.580716145833332
-21.536009114583333
-21.132672526041667
-20.759326171875
-20.655149739583333
-20.715947265625
-20.78693359375
-20.902568359375
-21.025794270833334
-21.05232421875
-21.005270182291667
-20.980192057291667
-21.000966796875
-21.080511067708333
-21.169059244791665
-21.250032552083333
-21.312659505208334
-21.38765625
-21.43578125
-21.475869140625
-21.495849609375
-21.542490234375
-21.586292317708335
-21.653518880208335
-21.472620442708333
-20.99103515625
-20.67746419270833
-20.659088541666666
-20.746201171875
-20.821051432291668
-20.903649088541666
-20.999951171875
-21.003974609375
-20.944300130208333
-20.973291015625
-21.057044270833334
-21.139485677083332
-21.22205078125
-21.277916666666666
-21.347841796875
-21.40142903645833
-21.446774088541666
-21.474912109375
-21.503011067708332
-21.557141927083332
-21.612041015625
-21.636572265625
-21.281097005208334
-20.793811848958335
-20.603255208333334
-20.649267578125
-20.739658203125
-20.799651692708334
-20.885029296875
-20.962379557291666
-20.924765625
-20.894697265625
-20.894319661458333
-20.960745442708333
-21.0435546875
-21.13083333333333
-21.210003255208335
-21.2658984375
-21.32724609375
-21.373802083333334
-21.413473307291667
-21.450224609375
-21.495768229166668
-21.546207682291666
-21.611048177083333
-21.665270182291668
-21.503733723958334
-20.979361979166665
-20.658831380208333
-20.635908203125
-20.732018229166666
-20.8134765625
-20.927685546875
-21.03259765625
-21.032666015625
-20.976315104166666
-20.957994791666668
-21.007682291666665
-21.09197265625
-21.19455403645833
-21.297796223958333
-21.400784505208332
-21.475172526041668
-21.518929036458335
-21.565872395833335
-21.577506510416665
-21.579677734375
-21.633092447916667
-21.694124348958333
-21.75150390625
-21.53781575520833
-21.028736979166666
-20.743743489583334
-20.706484375
-20.7505859375
-20.8282421875
-20.927330729166666
-21.032317708333334
-21.013349609375
-20.960100911458333
-20.964762369791668
-21.024833984375
-21.126722005208332
-21.233893229166668
-21.34009765625
-21.417415364583334
-21.492164713541666
-21.548128255208333
-21.581865234375
-21.614534505208333
-21.664986979166667
-21.7183203125
-21.777711588541667
-21.821979166666665
-21.444417317708332
-20.949095052083333
-20.69306640625
-20.715807291666668
-20.803268229166665
-20.884609375
-20.971246744791667
-21.049287109375
-21.0285546875
-20.954928385416668
-20.949912109375
-21.014856770833333
-21.108782552083333
-21.186722005208335
-21.277001953125
-21.349508463541667
-21.405296223958334
-21.446884765625
-21.49119140625
-21.5233203125
-21.61599283854167
-21.674309895833332
-21.70929036458333
-21.38947265625
-20.853294270833334
-20.613850911458332
-20.615084635416668
-20.711848958333334
-20.78255859375
-20.878522135416667
-20.948115234375
-20.930045572916665
-20.881139322916667
-20.85784830729167
-20.928763020833333
-21.011337890625
-21.099690755208332
-21.173317057291666
-21.251087239583335
-21.313610026041665
-21.358258463541667
-21.394098307291667
-21.452288411458333
-21.495904947916667
-21.5403515625
-21.595257161458335
-21.653518880208335
-21.634397786458333
-21.185830078125
-20.704853515625
-20.538294270833333
-20.601875
-20.678157552083334
-20.761695963541666
-20.8507421875
-20.884375
-20.834150390625
-20.782662760416667
-20.76734375
-20.833131510416667
-20.921175130208333
-20.99296875
-21.068206380208334
-21.118961588541666
-21.165732421875
-21.208291015625
-21.235029296875
-21.271630859375
-21.315843098958332
-21.365302734375
-21.409368489583333
-21.475198567708333
-21.525123697916666
-21.27052734375
-20.745569661458333
-20.502939453125
-20.524322916666666
-20.628951822916665
-20.692102864583333
-20.781393229166667
-20.832760416666666
-20.791923828125
-20.731354166666666
-20.711442057291666
-20.753001302083334
-20.813095703125
-20.880771484375
-21.023834635416666
-21.064664713541667
-21.094518229166667
-21.113346354166666
-21.149033203125
-21.183961588541667
-21.2165625
-21.2773046875
-21.341826171875
-21.149417317708334
-20.665546875
-20.389599609375
-20.387718098958334
-20.47009765625
-20.541337890625
-20.620745442708333
-20.701702473958335
-20.670693359375
-20.6300390625
-20.60078125
-20.649280598958335
-20.716110026041665
-20.795315755208332
-20.885543619791665
-20.94509765625
-21.00830078125
-21.057291666666668
-21.098515625
-21.13779296875
-21.171123046875
-21.21628255208333
-21.263330078125
-21.301139322916665
-21.036097005208333
-20.555579427083334
-20.30654296875
-20.302548828125
-20.384046223958332
-20.451223958333333
-20.517112630208334
-20.5977734375
-20.574632161458332
-20.531624348958335
-20.527014973958334
-20.575725911458335
-20.650530598958333
-20.726826171875
-20.802858072916667
-20.859905598958335
-20.918623046875
-20.970458984375
-21.004573567708334
-21.06064453125
-21.129921875
-21.199365234375
-21.23669921875
-21.311943359375
-21.29890625
-20.90036458333333
-20.464443359375
-20.314462890625
-20.365999348958333
-20.459378255208332
-20.531435546875
-20.600227864583335
-20.652809244791666
-20.61486328125
-20.579052734375
-20.588313802083334
-20.650419921875
-20.724244791666667
-20.80984375
-20.888043619791667
-20.93829427083333
-21.009329427083333
-21.050579427083335
-21.098395182291668
-21.13720703125
-21.166399739583333
-21.208623046875
-21.266044921875
-21.340035807291667
-21.274173177083334
-20.81029296875
-20.455859375
-20.371448567708335
-20.449947916666666
-20.524212239583335
-20.599033203125
-20.683557942708333
-20.7162109375
-20.6724609375
-20.621715494791665
-20.649905598958334
-20.718619791666665
-20.8024609375
-20.89727864583333
-20.967307942708334
-21.01498046875
-21.063909505208333
-21.106748046875
-21.112584635416667
-21.143053385416668
-21.194114583333334
-21.24966796875
-21.292252604166666
-21.070572916666666
-20.606829427083333
-20.380403645833333
-20.397815755208335
-20.473001302083333
-20.559111328125
-20.650732421875
-20.711787109375
-20.67458658854167
-20.622421875
-20.600771484375
-20.635784505208335
-20.72116536458333
-20.81015625
-20.877535807291668
-20.9446875
-20.997464192708332
-21.0333203125
-21.068024088541666
-21.10044921875
-21.12923828125
-21.175250651041665
-21.226673177083335
-21.009661458333333
-20.514274088541665
-20.222568359375
-20.196246744791665
-20.272392578125
-20.323421223958334
-20.400953776041668
-20.461569010416667
-20.466461588541666
-20.412897135416667
-20.4009765625
-20.435950520833334
-20.51345703125
-20.591337890625
-20.670787760416665
-20.734749348958335
-20.78591471354167
-20.825432942708332
-20.865472005208332
-20.893014322916667
-20.935107421875
-20.983619791666666
-21.04315104166667
-21.08395833333333
-20.761031901041665
-20.25970703125
-20.032503255208333
-20.044205729166666
-20.13678059895833
-20.752330729166665
-20.675830078125
-21.290530598958334
-21.025052083333332
-20.850823567708332
-20.8483984375
-20.906057942708333
-20.991884765625
-21.09796875
-21.189449869791666
-21.257154947916668
-21.316302083333333
-21.365130208333333
-21.41237955729167
-21.463626302083334
-21.505911458333333
-21.54685546875
-21.62322265625
-21.667467447916668
-20.921158854166666
-20.613876953125
-20.602578125
-20.686057942708334
-20.762223307291666
-20.831350911458333
-20.927001953125
-20.939039713541668
-20.894547526041666
-20.890393880208332
-20.954189453125
-21.036298828125
-21.119111328125
-21.22990234375
-21.341162109375
-21.413271484375
-21.477014973958333
-21.536123046875
-21.579475911458335
-21.623349609375
-21.682861328125
-21.747063802083332
-21.805810546875
-21.877457682291666
-21.73142578125
-21.22390299479167
-20.865198567708333
-20.81985026041667
-20.909768880208333
-20.99880533854167
-21.103889973958335
-21.199625651041668
-21.208059895833333
-21.168017578125
-21.12416015625
-21.17071614583333
-21.2581640625
-21.347233072916666
-21.435048828125
-21.50417643229167
-21.560797526041668
-21.624020182291666
-21.660556640625
-21.687672526041666
-21.724261067708333
-21.785856119791667
-21.850543619791665
-21.8795703125
-21.539729817708334
-21.07689453125
-20.886100260416665
-20.930872395833333
-21.033046875
-21.134280598958334
-21.253977864583334
-21.324371744791666
-21.28384765625
-21.23232421875
-21.216917317708333
-21.27712890625
-21.373616536458332
-21.462731119791666
-21.522493489583333
-21.604000651041666
-21.6633203125
-21.707431640625
-21.745777994791666
-21.778580729166666
-21.801686197916666
-21.855029296875
-21.91927734375
-21.759000651041667
-21.250380859375
-20.889680989583333
-20.849866536458332
-20.933981119791667
-21.026380208333332
-21.09768229166667
-21.189303385416668
-21.208763020833334
-21.15041666666667
-21.114072265625
-21.148212890625
-21.229586588541668
-21.329290364583333
-21.415419921875
-21.47390299479167
-21.567679036458333
-21.617233072916665
-21.658492838541665
-21.695924479166667
-21.73169921875
-21.788961588541667
-21.845149739583334
-21.9187890625
-21.862942708333332
-21.39623046875
-20.941018880208333
-20.790237630208335
-20.851767578125
-20.936158854166667
-21.026256510416665
-21.11785807291667
-21.1692578125
-21.129296875
-21.093876953125
-21.104306640625
-21.17345703125
-21.274026692708333
-21.362194010416665
-21.446028645833334
-21.516422526041666
-21.5775390625
-21.623466796875
-21.658017578125
-21.705133463541667
-21.751516927083333
-21.87455078125
-21.932955729166668
-21.707210286458334
-21.181181640625
-20.870305989583333
-20.856373697916666
-20.94708333333333
-21.044638671875
-21.14609375
-21.2315234375
-21.225628255208335
-21.157513020833335
-21.153333333333332
-21.19724609375
-21.26515625
-21.3599609375
-21.457288411458332
-21.529267578125
-21.591396484375
-21.62863606770833
-21.656018880208332
-21.709514973958335
-21.743525390625
-21.7737890625
-21.856477864583333
-21.8365625
-21.42009765625
-20.982750651041666
-20.838170572916667
-20.888115234375
-21.002932942708334
-21.107109375
-21.228623046875
-21.261324869791668
-21.233763020833333
-21.187884114583333
-21.192884114583332
-21.28189453125
-21.368059895833333
-21.457998046875
-21.546370442708334
-21.621884765625
-21.675634765625
-21.724765625
-21.759612630208334
-21.793818359375
-21.841389973958332
-21.903024088541667
-21.9008203125
-21.515647786458334
-21.04775390625
-20.849248046875
-20.884700520833334
-20.991438802083334
-21.074228515625
-21.176090494791666
-21.241953125
-21.233151041666666
-21.17701171875
-21.192135416666666
-21.249482421875
-21.340992838541666
-21.437431640625
-21.5203515625
-21.606393229166667
-21.666744791666666
-21.719576822916668
-21.760846354166667
-21.81123046875
-21.850895182291666
-21.910133463541666
-21.969820963541668
-22.055654296875
-21.88392578125
-21.369427083333335
-21.024088541666668
-20.97345703125
-21.057350260416666
-21.143177083333335
-21.24091796875
-21.353766276041668
-21.371331380208332
-21.334482421875
-21.327034505208335
-21.366529947916668
-21.434866536458333
-21.5191015625
-21.603606770833334
-21.691770833333333
-21.779371744791668
-21.854905598958332
-21.91529296875
-21.95111328125
-21.992135416666667
-22.041070963541667
-22.102923177083333
-22.15939453125
-22.228694661458334
-22.212506510416667
-21.2504296875
-21.055061848958335
-20.444837239583332
-20.572076822916667
-20.521559244791668
-20.58986979166667
-20.683759765625
-20.726298828125
-20.692425130208335
-20.6471875
-20.66173828125
-20.72232421875
-20.809329427083334
-20.883824869791667
-20.966321614583332
-21.02982421875
-21.083551432291667
-21.133098958333335
-21.181429036458333
-21.209215494791668
-21.250963541666668
-21.30446940104167
-21.359459635416666
-21.421995442708333
-21.373414713541667
-20.93794921875
-20.578216145833334
-20.498668619791665
-20.567158203125
-20.664039713541666
-20.74689453125
-20.83615234375
-20.8525390625
-20.797610677083334
-20.75845703125
-20.825986328125
-20.903841145833333
-20.983082682291666
-21.051311848958335
-21.106669921875
-21.162428385416668
-21.203505859375
-21.229388020833333
-21.262132161458332
-21.304602864583334
-21.36135416666667
-21.384944661458334
-21.040843098958334
-20.614833984375
-20.449134114583334
-20.484430338541667
-20.571389973958333
-20.643434244791667
-20.745768229166668
-20.793134765625
-20.758509114583333
-20.696520182291668
-20.694996744791666
-20.753694661458333
-20.836595052083332
-20.900755208333333
-20.972766927083335
-21.035989583333333
-21.088343098958333
-21.129319661458332
-21.159254557291668
-21.195299479166668
-21.242672526041666
-21.28611328125
-21.2216015625
-20.765869140625
-20.380400390625
-20.269700520833332
-20.322805989583333
-20.403287760416667
-20.459951171875
-20.54142578125
-20.5620703125
-20.525286458333333
-20.489739583333332
-20.502721354166667
-20.57044921875
-20.6394921875
-20.712766927083333
-20.784527994791667
-20.82384765625
-20.871471354166665
-20.919348958333334
-20.94513671875
-20.969534505208333
-21.009889322916667
-21.069775390625
-21.01071614583333
-20.568238932291667
-20.191123046875
-20.082805989583335
-20.142434895833333
-20.209108072916667
-20.279886067708333
-20.350794270833333
-20.371168619791668
-20.3358984375
-20.313336588541667
-20.424973958333332
-20.50686197916667
-20.579033203125
-20.643629557291668
-20.71335286458333
-20.755784505208332
-20.802102864583333
-20.887861328125
-20.954059244791665
-21.027965494791665
-20.998818359375
-20.613209635416666
-20.23251953125
-20.140908203125
-20.204892578125
-20.294046223958333
-20.36969075520833
-20.448307291666666
-20.476402994791666
-20.452584635416667
-20.427203776041665
-20.458834635416668
-20.531393229166667
-20.61721354166667
-20.68722981770833
-20.759189453125
-20.816852213541665
-20.898232421875
-20.9202734375
-20.970465494791668
-21.023912760416668
-21.044322916666665
-20.766435546875
-20.397545572916666
-20.2737109375
-20.32867513020833
-20.425686848958332
-20.496546223958333
-20.584104817708333
-20.631155598958333
-20.59703125
-20.566682942708333
-20.596803385416667
-20.667965494791666
-20.751097005208333
-20.835068359375
-20.881490885416667
-20.9397265625
-20.9853515625
-21.037106119791666
-21.068352864583332
-21.101341145833334
-21.176494140625
-21.193984375
-20.923323567708334
-20.5744140625
-20.450380859375
-20.494518229166665
-20.5612890625
-20.603551432291667
-20.669462890625
-20.722138671875
-20.707425130208332
-20.684436848958335
-20.70334309895833
-20.757708333333333
-20.832776692708332
-20.916695963541667
-20.973942057291666
-21.033245442708335
-21.092233072916667
-21.135042317708333
-21.176640625
-21.270006510416668
-21.323951822916666
-21.340205078125
-21.039016927083335
-20.686038411458334
-20.55861328125
-20.599368489583334
-20.663004557291668
-20.704762369791666
-20.766227213541665
-20.811090494791667
-20.79404296875
-20.762216796875
-20.798362630208334
-20.847428385416666
-20.921474609375
-20.997421875
-21.060732421875
-21.120113932291666
-21.16550130208333
-21.212125651041667
-21.250224609375
-21.295563151041666
-21.33685221354167
-21.388356119791666
-21.436432291666666
-21.483391927083332
-20.882434895833335
-20.66091471354167
-20.667350260416665
-20.749794921875
-20.80939453125
-20.854547526041667
-20.922174479166667
-20.912760416666668
-20.884150390625
-20.879781901041667
-20.929446614583334
-21.007955729166667
-21.085654296875
-21.152913411458332
-21.215146484375
-21.265872395833334
-21.311432291666666
-21.369300130208334
-21.40859375
-21.433069661458333
-21.48223958333333
-21.552874348958333
-21.612057291666666
-21.572041015625
-21.180641276041666
-20.840934244791665
-20.76826171875
-20.842998046875
-20.9236328125
-21.006344401041666
-21.106412760416667
-21.099684244791668
-21.048684895833333
-21.013115234375
-21.045328776041668
-21.110198567708334
-21.18996744791667
-21.2521875
-21.32659830729167
-21.382490234375
-21.418610026041666
-21.470436197916666
-21.500729166666666
-21.53693359375
-21.580126953125
-21.634228515625
-21.542630208333332
-21.115768229166665
-20.787574869791666
-20.74607421875
-20.802314453125
-20.889371744791667
-20.962509765625
-21.052652994791668
-21.059710286458333
-21.00853515625
-20.978896484375
-21.019029947916668
-21.094195963541665
-21.174163411458334
-21.244296875
-21.3168359375
-21.38078125
-21.414567057291666
-21.473336588541667
-21.504300130208332
-21.53771484375
-21.58509765625
-21.63943033854167
-21.43525390625
-20.950970052083335
-20.68427734375
-20.712291666666665
-20.800888671875
-20.87923828125
-20.946116536458334
-20.935748697916665
-20.898170572916666
-20.87548828125
-20.934098307291666
-21.006682942708334
-21.086647135416666
-21.153909505208333
-21.228564453125
-21.289563802083332
-21.345735677083333
-21.393893229166668
-21.4274609375
-21.469375
-21.506959635416667
-21.565201822916666
-21.505602213541668
-21.034225260416665
-20.621673177083334
-20.530638020833333
-20.585305989583333
-20.68171875
-20.7412890625
-20.859134114583334
-20.90712890625
-20.8534375
-20.821627604166668
-20.841705729166666
-20.91462890625
-20.992347005208334
-21.076158854166668
-21.1491796875
-21.212600911458335
-21.263349609375
-21.311129557291668
-21.34470703125
-21.386595052083333
-21.42166015625
-21.465703125
-21.494658203125
-21.121575520833332
-20.658199869791666
-20.478343098958334
-20.523919270833332
-20.617604166666666
-20.700576171875
-20.802926432291667
-20.847210286458335
-20.79423828125
-20.742672526041666
-20.755061848958334
-20.825680338541666
-20.893294270833334
-20.979811197916668
-21.048509114583332
-21.107125651041667
-21.170052083333335
-21.213131510416666
-21.230130208333332
-21.317024739583335
-21.29738932291667
-20.89767578125
-20.358701171875
-20.419876302083335
-20.6117578125
-20.725104166666668
-20.671350911458333
-20.641256510416667
-20.712122395833333
-20.797158203125
-20.879182942708333
-20.94478515625
-20.999368489583333
-21.0565234375
-21.077884114583334
-21.105598958333335
-21.217936197916668
-21.001705729166666
-20.47634765625
-20.149918619791666
-20.230830078125
-20.293759765625
-20.373707682291666
-20.449912109375
-20.417783203125
-20.362825520833333
-20.392682291666667
-20.557275390625
-20.62390625
-20.731041666666666
-20.770494791666668
-20.799270833333335
-20.87802734375
-20.910791015625
-20.596604817708332
-20.101259765625
-19.871038411458333
-19.907057291666668
-19.988610026041666
-20.05181966145833
-20.132164713541666
-20.166692708333333
-20.125537109375
-20.15041015625
-20.206533203125
-20.291263020833334
-20.360387369791667
-20.489130859375
-20.531744791666668
-20.572848307291668
-20.603180338541666
-20.633873697916666
-20.764140625
-20.7384765625
-20.32647786458333
-19.911490885416665
-19.844537760416667
-20.007516276041667
-20.657298177083334
-20.586800130208335
-20.576588541666666
-20.600797526041667
-20.677203776041665
-20.762805989583335
-20.8313671875
-20.8871484375
-20.93703125
-20.983079427083332
-21.033893229166665
-21.068336588541666
-21.115436197916665
-21.176868489583335
-21.243932291666667
-21.008557942708332
-20.597112630208333
-20.429609375
-20.48724283854167
-20.663740234375
-20.777985026041666
-20.776318359375
-20.75217122395833
-20.871041666666667
-20.950618489583334
-21.009599609375
-21.162854817708332
-21.203743489583335
-21.237939453125
-21.312395833333333
-21.391608072916668
-21.403763020833335
-20.741044921875
-20.628984375
-20.707880859375
-20.780071614583335
-20.836171875
-20.927001953125
-20.968753255208334
-20.93818359375
-20.927858072916667
-20.963082682291667
-21.034602864583334
-21.20587239583333
-21.2677734375
-21.31646484375
-21.413551432291666
-21.471318359375
-21.525270182291667
-21.573746744791666
-21.633756510416667
-21.66091796875
-21.371627604166665
-20.944300130208333
-21.006435546875
-21.074563802083333
-21.133974609375
-21.21966471354167
-21.256360677083332
-21.235146484375
-21.359326171875
-21.421471354166666
-21.568317057291665
-21.620406901041665
-21.718098958333332
-21.75623046875
-21.806949869791666
-21.859293619791668
-21.988948567708334
-21.991539713541666
-21.647981770833333
-21.349397786458333
-21.27646484375
-21.354664713541666
-21.437457682291665
-21.58025390625
-21.598447265625
-21.568440755208332
-21.545608723958335
-21.56287109375
-21.62638671875
-21.767841796875
-21.83209309895833
-21.878072916666667
-21.96015625
-22.017229817708333
-22.06720052083333
-22.112184244791667
-21.892216796875
-21.528121744791665
-21.383948567708334
-21.414661458333335
-21.571181640625
-21.648880208333335
-21.683792317708335
-21.65753255208333
-21.626614583333332
-21.681416015625
-21.747317708333334
-21.86138671875
-21.91763671875
-21.977649739583335
-22.063528645833333
-22.085315755208335
-22.1819921875
-22.14499348958333
-21.765218098958332
-20.824111328125
-20.85720377604167
-20.926067708333335
-21.054371744791666
-21.136888020833332
-21.155670572916666
-21.121552734375
-21.111061197916666
-21.166923828125
-21.24542317708333
-21.314378255208332
-21.43087890625
-21.463030598958333
-21.52125
-21.569241536458332
-21.655921223958334
-21.694658203125
-21.754384765625
-21.184905598958334
-20.895524088541666
-20.971611328125
-21.030852864583334
-21.185234375
-21.127639973958335
-21.1177734375
-21.162936197916668
-21.232317708333333
-21.382880859375
-21.451236979166666
-21.55146484375
-21.588629557291668
-21.630481770833335
-21.6691015625
-21.70017578125
-21.751022135416665
-21.740152994791668
-21.004593098958335
-20.944856770833333
-21.111370442708335
-21.174208984375
-21.265094401041665
-21.227493489583335
-21.215598958333334
-21.236350911458334
-21.296529947916667
-21.367255859375
-21.429436848958332
-21.487646484375
-21.604505208333332
-21.6352734375
-21.68408203125
-21.7178515625
-21.659947916666667
-21.248704427083332
-20.962965494791668
-21.030891927083335
-21.110559895833333
-21.189280598958334
-21.292239583333334
-21.27265625
-21.218544921875
-21.18306640625
-21.298541666666665
-21.360751953125
-21.426276041666668
-21.552447916666665
-21.59072265625
-21.636243489583332
-21.662021484375
-21.692080078125
-21.708948567708333
-21.407975260416666
-20.941360677083335
-20.745071614583335
-20.769733072916665
-20.935279947916666
-21.007796223958334
-21.061839192708334
-21.039638671875
-20.995071614583335
-20.9840625
-21.027177734375
-21.084397786458332
-21.165074869791667
-21.246337890625
-21.315048828125
-21.412897135416667
-21.443645833333335
-21.490865885416667
-21.53757161458333
-21.40939453125
-20.938388671875
-20.601227213541666
-20.547975260416667
-20.639749348958333
-20.728190104166668
-20.804254557291667
-20.897027994791667
-20.9053125
-20.856712239583334
-20.820179036458335
-20.877386067708333
-20.941988932291668
-21.015725911458333
-21.092060546875
-21.166572265625
-21.216686197916665
-21.284703776041667
-21.341373697916666
-21.359212239583332
-21.419869791666667
-21.472086588541668
-21.378268229166668
-20.872952473958332
-20.501484375
-20.448411458333332
-20.555143229166667
-20.632639973958334
-20.726057942708334
-20.80521484375
-20.818151041666667
-20.759964192708335
-20.749020182291666
-20.785442708333335
-20.854944661458333
-20.938375651041667
-21.0088671875
-21.075751953125
-21.130169270833335
-21.193258463541667
-21.228430989583334
-21.262568359375
-21.30181966145833
-21.34836263020833
-21.153909505208333
-20.650068359375
-20.399645182291668
-20.412434895833332
-20.515240885416667
-20.625048828125
-20.723382161458332
-20.800794270833332
-20.768219401041666
-20.708717447916666
-20.689739583333335
-20.748372395833332
-20.828072916666667
-20.900139973958332
-20.980279947916667
-21.054397786458335
-21.107242838541666
-21.153447265625
-21.204208984375
-21.234404296875
-21.27810221354167
-21.067073567708334
-20.534319661458333
-20.227779947916666
-20.246744791666668
-20.339375
-20.428746744791667
-20.522008463541667
-20.60052734375
-20.589583333333334
-20.542200520833333
-20.556888020833334
-20.657763671875
-20.751181640625
-20.817060546875
-20.882496744791666
-21.000771484375
-21.040494791666667
-21.077965494791666
-21.167180989583333
-20.83267578125
-20.310250651041667
-20.097679036458334
-20.155634765625
-20.335445963541666
-20.420804036458332
-20.484990234375
-20.456126302083334
-20.42333984375
-20.49069661458333
-20.719430338541667
-20.805634765625
-20.869436848958333
-20.932080078125
-21.01711588541667
-21.066149088541668
-21.134977213541667
-21.109964192708333
-20.26693359375
-20.311904296875
-20.402584635416666
-20.47512369791667
-20.56751953125
-20.589954427083335
-20.500481770833332
-20.60865234375
-20.69318359375
-20.777532552083333
-20.841015625
-20.945325520833332
-20.98994140625
-21.025455729166666
-21.065094401041666
-20.93623046875
-20.45642578125
-20.2178515625
-20.374580078125
-20.463658854166667
-20.577444661458333
-20.539876302083332
-20.53879231770833
-20.586744791666668
-20.759036458333334
-20.882763671875
-20.9395703125
-20.991569010416665
-21.063697916666666
-20.930869140625
-20.4825390625
-20.272233072916666
-20.430172526041666
-20.51712890625
-20.68670572916667
-20.638391927083333
-20.576295572916667
-20.57482421875
-20.63828125
-20.796197916666667
-20.86203450520833
-20.908151041666667
-21.0166796875
-21.058548177083335
-20.880205078125
-20.24289388020833
-20.386201171875
-20.465491536458334
-20.55535807291667
-20.608206380208333
-20.535973307291666
-20.54091796875
-20.585732421875
-20.670904947916668
-20.74904947916667
-20.815888671875
-20.937923177083334
-20.979075520833334
-21.071611328125
-20.767135416666665
-20.367037760416668
-20.256266276041668
-20.407272135416665
-20.47454752604167
-20.606533203125
-20.58640625
-20.548968098958333
-20.658343098958333
-20.747662760416667
-20.883626302083332
-20.949788411458332
-21.055885416666666
-21.147483723958334
-21.2004296875
-21.101197916666667
-20.659856770833333
-20.434700520833335
-20.474977213541667
-20.634508463541668
-20.704169921875
-20.7708203125
-20.739749348958334
-20.760006510416666
-20.895963541666667
-20.953802083333333
-21.035419921875
-21.14119140625
-21.202333984375
-21.294176432291668
-21.341624348958334
-21.399599609375
-21.458251953125
-20.875813802083332
-20.67230143229167
-20.713948567708332
-20.887057291666668
-21.032565104166668
-21.012037760416668
-20.987858072916666
-21.07440104166667
-21.126057942708332
-21.278642578125
-21.389156901041666
-21.431432291666667
-21.47003255208333
-21.495208333333334
-21.536015625
-21.6180859375
-21.286103515625
-20.934505208333334
-20.96611328125
-21.044625651041667
-21.127760416666668
-21.24841796875
-21.235491536458333
-21.199921875
-21.210498046875
-21.270299479166667
-21.347972005208334
-21.466630859375
-21.51330078125
-21.608059895833332
-21.66607421875
-21.695872395833334
-21.55087890625
-21.127854817708332
-20.861012369791666
-20.973160807291666
-21.054814453125
-21.118108723958333
-21.191142578125
-21.177434895833333
-21.115361328125
-21.163014322916666
-21.22841796875
-21.311409505208335
-21.422242838541667
-21.479820963541666
-21.524381510416667
-21.560169270833335
-21.589482421875
-21.664908854166665
-21.544137369791667
-21.089130859375
-20.781090494791666
-20.765397135416666
-20.910302734375
-20.977763671875
-21.06673828125
-21.055377604166665
-21.006891276041667
-21.021884765625
-21.093463541666665
-21.246575520833332
-21.300699869791668
-21.420146484375
-21.487395833333334
-21.580563151041666
-21.613658854166665
-20.880358072916668
-20.626477864583332
-20.655589192708334
-20.820777994791666
-20.924602864583335
-20.987643229166668
-20.92859375
-20.977249348958335
-21.059290364583333
-21.127496744791667
-21.210296223958334
-21.325755208333334
-21.38478515625
-21.430719401041667
-21.473040364583333
-21.529388020833334
-21.546070963541666
-20.679733072916665
-20.611695963541667
-20.708486328125
-20.802086588541666
-21.011959635416666
-21.022932942708334
-20.947848307291668
-20.965817057291666
-21.006998697916668
-21.1726171875
-21.244466145833332
-21.304407552083333
-21.393541666666668
-21.50510091145833
-21.383720703125
-20.917177734375
-20.607529296875
-20.707353515625
-20.80861328125
-20.925543619791668
-21.00162109375
-20.925608723958334
-20.895849609375
-20.920970052083334
-20.995953776041667
-21.153518880208335
-21.193854166666668
-21.26544921875
-21.325123697916666
-21.37822265625
-20.662770182291666
-20.453235677083335
-20.556949869791666
-20.643470052083334
-20.837073567708334
-20.801256510416668
-20.735514322916668
-20.722018229166668
-20.857044270833335
-20.929069010416665
-20.99658203125
-21.085797526041667
-21.12908854166667
-21.167854817708335
-20.777470703125
-20.343844401041668
-20.259606119791666
-20.361399739583334
-20.42873697916667
-20.523518880208332
-20.533098958333333
-20.486845703125
-20.503828125
-20.646796875
-20.719596354166665
-20.783779296875
-20.853229166666665
-20.918131510416668
-20.963095703125
-20.99359375
-20.763411458333334
-20.075286458333334
-20.130439453125
-20.221487630208333
-20.264371744791667
-20.408248697916665
-20.393287760416666
-20.375530598958335
-20.400475260416666
-20.529827473958335
-20.648440755208334
-20.707542317708334
-20.771357421875
-20.809947916666665
-20.858509114583335
-20.952705078125
-21.012981770833335
-21.04709309895833
-20.716129557291666
-20.197386067708333
-20.263369140625
-20.355628255208334
-20.492744140625
-20.532516276041665
-20.514287109375
-20.508916015625
-20.577858072916666
-20.67160481770833
-20.800035807291668
-20.868206380208335
-20.909169921875
-20.953434244791666
-21.001259765625
-21.045237630208334
-21.10703125
-21.208245442708332
-20.578014322916665
-20.442662760416667
-20.522428385416667
-20.597464192708333
-20.744182942708335
-20.79208984375
-20.77580078125
-20.761865234375
-20.829228515625
-20.895296223958333
-21.032490234375
-21.089586588541668
-21.197561848958333
-21.235764973958332
-21.337978515625
-21.384231770833335
-21.378460286458335
-20.986334635416668
-20.710013020833333
-20.775218098958334
-20.853115234375
-21.005563151041667
-21.008678385416665
-20.9635546875
-20.962666015625
-21.027916666666666
-21.152197265625
-21.196800130208334
-21.259694010416666
-21.319296875
-21.341263020833335
-21.412789713541667
-21.451689453125
-21.505524088541666
-21.33595703125
-20.919248046875
-20.761930338541667
-20.863375651041668
-20.932991536458335
-21.074358723958333
-21.048763020833334
-20.980247395833334
-20.964319661458333
-21.001953125
-21.077594401041665
-21.177506510416666
-21.24685546875
-21.352766927083334
-21.373645833333335
-21.407373046875
-21.483639322916666
-21.303766276041667
-20.85968098958333
-20.660924479166667
-20.6797265625
-20.862552083333334
-20.965104166666666
-20.971044921875
-20.920791015625
-20.952923177083335
-21.010283203125
-21.076790364583335
-21.137122395833334
-21.248883463541667
-21.281214192708333
-21.344931640625
-21.364322916666666
-20.560989583333335
-20.4609375
-20.601865234375
-20.670345052083334
-20.775078125
-20.804150390625
-20.750022786458334
-20.721725260416665
-20.78291015625
-20.914983723958333
-20.96078125
-21.017770182291667
-21.134521484375
-21.155263671875
-21.199417317708335
-21.084134114583332
-20.599215494791668
-20.304251302083333
-20.292646484375
-20.386754557291667
-20.458310546875
-20.608792317708332
-20.598421223958333
-20.555791015625
-20.575582682291667
-20.635276692708334
-20.733938802083333
-20.85529296875
-20.914150390625
-20.998785807291668
-21.039527994791666
-21.070836588541667
-21.108147786458332
-21.135826822916666
-20.823639322916666
-20.363216145833334
-20.216712239583334
-20.312008463541666
-20.3889453125
-20.457408854166665
-20.492805989583335
-20.45880208333333
-20.4660546875
-20.513307291666667
-20.664713541666668
-20.743141276041666
-20.802451171875
-20.859215494791666
-20.937063802083333
-20.990598958333333
-21.020384114583333
-21.115983072916666
-20.78111328125
-20.335166015625
-20.254485677083334
-20.342281901041666
-20.431038411458335
-20.573841145833335
-20.540279947916666
-20.491018880208333
-20.511178385416667
-20.65537109375
-20.726181640625
-20.808268229166668
-20.872320963541668
-20.933544921875
-21.027415364583334
-21.066529947916667
-21.1101953125
-21.133958333333332
-20.713883463541666
-20.341077473958332
-20.254596354166665
-20.35583984375
-20.560244140625
-20.650439453125
-20.6847265625
-20.643414713541667
-20.606416015625
-20.616901041666665
-20.691461588541667
-20.774371744791665
-20.849267578125
-20.927327473958332
-20.988170572916665
-21.038206380208333
-21.083828125
-21.127307942708335
-21.155240885416667
-21.199638671875
-21.258987630208335
-21.152184244791666
-20.692522786458333
-20.391637369791667
-20.40032877604167
-20.5134765625
-20.616276041666666
-20.711448567708334
-20.813089192708333
-20.787096354166668
-20.713020833333335
-20.68458984375
-20.717408854166667
-20.794267578125
-20.864182942708332
-20.9353125
-20.994658203125
-21.043089192708333
-21.094814453125
-21.12570638020833
-21.161735026041665
-21.214283854166666
-21.036585286458333
-20.566028645833335
-20.317776692708332
-20.3334765625
-20.448255208333332
-20.542239583333334
-20.647093098958333
-20.722154947916668
-20.6895703125
-20.631266276041668
-20.623199869791666
-20.683141276041667
-20.764733072916666
-20.8562109375
-20.921067708333332
-20.965029296875
-21.038541666666667
-21.08171875
-21.121598307291666
-21.165791015625
-21.204905598958334
-21.059215494791665
-20.578912760416667
-20.303824869791665
-20.304658203125
-20.42864908854167
-20.513287760416667
-20.584798177083332
-20.661038411458332
-20.666031901041666
-20.626383463541668
-20.600162760416666
-20.647255859375
-20.721494140625
-20.801998697916666
-20.87658203125
-20.9513671875
-21.000992838541666
-21.054762369791668
-21.087643229166666
-21.120592447916668
-21.1820703125
-21.223098958333335
-20.99880859375
-20.571979166666665
-20.400185546875
-20.447275390625
-20.562545572916665
-20.633675130208335
-20.715944010416667
-20.772828776041667
-20.751126302083332
-20.708053385416665
-20.734205729166668
-20.787496744791667
-20.8625
-20.92596354166667
-21.005680338541666
-21.059768880208335
-21.120218098958333
-21.165804036458333
-21.21158203125
-21.260400390625
-21.319104817708332
-21.375384114583333
-21.262223307291666
-20.87625
-20.66421875
-20.70330729166667
-20.804742838541667
-20.874501953125
-20.957470703125
-21.03486328125
-21.028759765625
-20.9973046875
-20.999612630208333
-21.062135416666667
-21.135247395833332
-21.19908203125
-21.282874348958334
-21.345218098958334
-21.3802734375
-21.431282552083335
-21.480524088541667
-21.579925130208334
-21.613916015625
-21.101735026041666
-20.99455078125
-21.061725260416665
-21.16490234375
-21.24455078125
-21.329847005208332
-21.360576171875
-21.327054036458332
-21.299794921875
-21.324384765625
-21.380999348958333
-21.440904947916668
-21.502646484375
-21.562005208333332
-21.60671549479167
-21.661451822916668
-21.682698567708332
-21.713720703125
-21.749895833333333
-21.781022135416666
-21.575455729166666
-21.241930338541668
-21.095244140625
-21.145335286458334
-21.216083984375
-21.281123046875
-21.34615234375
-21.38541015625
-21.359309895833334
-21.318238932291667
-21.3706640625
-21.498154296875
-21.565641276041667
-21.605888671875
-21.67559895833333
-21.71095703125
-21.7480078125
-21.782392578125
-21.600862630208333
-21.204274088541666
-20.986936848958333
-21.079456380208335
-21.124248046875
-21.18279947916667
-21.244817708333333
-21.196539713541668
-21.195758463541665
-21.251184895833333
-21.322578125
-21.380205078125
-21.495706380208333
-21.541572265625
-21.59030598958333
-21.623284505208332
-21.690029296875
-21.735397135416665
-21.708486328125
-21.027236328125
-20.96930013020833
-21.047998046875
-21.102796223958332
-21.2265625
-21.248147786458333
-21.217119140625
-21.212405598958334
-21.2452734375
-21.302578125
-21.435748697916665
-21.492314453125
-21.543590494791665
-21.6289453125
-21.662613932291666
-21.705774739583333
-21.745882161458333
-21.789716796875
-21.843369140625
-21.378287760416665
-21.097858072916665
-21.070872395833334
-21.14345703125
-21.211070963541665
-21.277373046875
-21.354908854166666
-21.345843098958333
-21.3097265625
-21.364615885416665
-21.41826171875
-21.5484375
-21.663082682291666
-21.753971354166666
-21.795651041666666
-21.833411458333334
-21.866412760416665
-21.979908854166666
-21.910035807291667
-21.516455078125
-21.247099609375
-21.2339453125
-21.318209635416668
-21.475325520833334
-21.559404296875
-21.56421875
-21.507939453125
-21.490592447916665
-21.527275390625
-21.6422265625
-21.70095377604167
-21.753310546875
-21.79296875
-21.836393229166667
-21.85716796875
-21.869264322916667
-21.907828776041665
-21.969720052083332
-21.962242838541666
-21.363489583333333
-21.281878255208333
-21.327288411458333
-21.40826497395833
-21.487513020833333
-21.57646484375
-21.597177734375
-21.548020833333332
-21.50628580729167
-21.50714192708333
-21.60310546875
-21.658271484375
-21.709938151041666
-21.8015625
-21.827067057291668
-21.8644921875
-21.937001953125
-21.63091796875
-21.257203776041667
-21.106666666666666
-21.1387890625
-21.290166015625
-21.34677734375
-21.403460286458333
-21.310738932291667
-21.312809244791666
-21.371171875
-21.448248697916668
-21.528385416666666
-21.58123046875
-21.678541666666668
-21.733033854166667
-21.76736002604167
-21.79443359375
-21.547451171875
-20.912096354166668
-20.923616536458333
-21.002620442708334
-21.125830078125
-21.195885416666666
-21.168248697916667
-21.114811197916666
-21.16037109375
-21.3002734375
-21.362298177083332
-21.416455078125
-21.515611979166668
-21.546614583333334
-21.586057942708333
-21.643544921875
-21.40216796875
-20.953707682291668
-20.803046875
-20.889560546875
-20.956878255208334
-21.035279947916667
-21.0701171875
-21.041500651041666
-21.087815755208332
-21.161988932291667
-21.222434895833334
-21.283193359375
-21.339876302083333
-21.394287109375
-21.429554036458335
-21.513723958333333
-21.538125
-21.598997395833333
-21.222906901041668
-20.83236328125
-20.754417317708334
-20.839791666666667
-21.00544921875
-21.097190755208334
-21.11353515625
-21.016246744791665
-21.042858072916665
-21.108154296875
-21.183798828125
-21.254892578125
-21.348697916666666
-21.414690755208333
-21.451845703125
-21.506676432291666
-21.541223958333333
-21.300358072916666
-20.77796875
-20.826484375
-20.921214192708334
-21.153274739583335
-21.180335286458334
-21.097701822916665
-21.026634114583334
-21.103356119791666
-21.1925
-21.246207682291665
-21.28119140625
-21.337083333333332
-21.38986653645833
-21.481634114583333
-21.511067708333332
-21.26880859375
-20.864602864583333
-20.762041015625
-20.880843098958334
-20.967177734375
-21.072301432291667
-21.054837239583332
-21.02126953125
-21.10041015625
-21.216168619791667
-21.331634114583334
-21.379905598958334
-21.232356770833334
-20.805055338541667
-20.613147786458335
-20.6740234375
-20.724921875
-20.78669921875
-20.892568359375
-20.8388671875
-20.822776692708334
-20.821927083333332
-20.932884114583334
-21.01212890625
-21.101145833333334
-21.171471354166666
-21.198922526041667
-21.160061848958332
-20.839749348958332
-20.505719401041667
-20.423785807291665
-20.521318359375
-20.587467447916666
-20.73533203125
-20.731813151041667
-20.72103515625
-20.76001953125
-20.836946614583333
-20.920003255208332
-21.10107421875
-21.118444010416667
-21.087985026041668
-20.700074869791667
-20.372057291666668
-20.322897135416667
-20.47259440104167
-20.522939453125
-20.5898046875
-20.638141276041665
-20.645208333333333
-20.632568359375
-20.713880208333332
-20.778512369791667
-20.859495442708333
-20.930875651041667
-21.070794270833332
-21.112555338541668
-20.727958984375
-20.363958333333333
-20.428841145833335
-20.497731119791666
-20.628072916666667
-20.68767578125
-20.692259114583333
-20.73565755208333
-20.909573567708332
-21.028190104166665
-21.079306640625
-21.163766276041667
-21.252555338541665
-21.322985026041668
-21.438186848958335
-21.470751953125
-21.299964192708334
-20.967529296875
-20.878795572916665
-20.925657552083333
-20.995859375
-21.052438151041667
-21.178333333333335
-21.189619140625
-21.181246744791668
-21.177141927083333
-21.230218098958332
-21.350182291666666
-21.41349609375
-21.515787760416668
-21.573274739583333
-21.638782552083335
-21.68521484375
