-28.319143880208333
-28.214375
-20.780276692708334
-20.790794270833334
-41.347509765625
-49.535302734375
-49.578111979166664
-37.300732421875
-34.425869140625
-33.450966796875
-34.55301106770833
-31.535110677083335
-31.841461588541666
-29.555452473958333
-29.44669921875
-29.489166666666666
-29.522259114583335
-29.555182291666668
-29.591240234375
-29.632877604166666
-29.727151692708333
-29.802962239583334
-29.595354817708333
-29.127542317708333
-29.121790364583333
-29.140647786458334
-29.15873046875
-29.178968098958332
-29.207718098958335
-29.195100911458333
-29.168229166666666
-29.15896158854167
-29.178977864583334
-29.224817708333333
-29.274869791666667
-29.332613932291668
-29.376995442708335
-29.424869791666666
-29.469423828125
-29.506243489583333
-29.53860026041667
-29.57703125
-29.614462890625
-29.643043619791666
-29.707972005208333
-29.759228515625
-29.812763671875
-29.754954427083334
-29.435699869791666
-29.178336588541665
-29.108131510416666
-29.126318359375
-29.152086588541668
-29.190445963541666
-29.236839192708334
-29.246158854166666
-29.220550130208334
-29.197649739583333
-29.184469401041667
-29.231162109375
-29.281272786458334
-29.338932291666666
-29.373362630208334
-29.4686328125
-29.495654296875
-29.527890625
-29.553170572916667
-29.598059895833334
-29.650257161458335
-29.669638671875
-29.477747395833333
-29.173538411458335
-29.017154947916666
-29.018525390625
-29.05603515625
-29.100244140625
-29.162194010416666
-29.20611653645833
-29.20477213541667
-29.163577473958334
-29.140481770833333
-29.159195963541666
-29.215628255208333
-29.268518880208333
-29.308199869791668
-29.369348958333333
-29.421077473958334
-29.453873697916666
-29.500100911458333
-29.325146484375
-28.996175130208332
-28.805188802083332
-28.787001953125
-28.8087109375
-29.427734375
-29.362220052083334
-29.420338541666666
-29.425403645833335
-29.364462890625
-29.387613932291668
-29.434427083333333
-29.497522786458333
-29.562265625
-29.621253255208334
-29.674287109375
-29.724488932291667
-29.753919270833332
-29.813404947916666
-29.86302734375
-29.721764322916666
-29.336826171875
-29.086663411458332
-29.004817708333334
-29.014990234375
-29.043522135416666
-29.059446614583333
-29.101956380208332
-29.124794921875
-29.117932942708332
-29.09616536458333
-29.104505208333332
-29.149309895833333
-29.208004557291666
-29.2701953125
-29.325875651041667
-29.376985677083333
-29.449251302083333
-29.4878515625
-29.51104817708333
-29.556888020833334
-29.608938802083333
-29.618196614583333
-29.32748046875
-28.983981119791668
-28.837216796875
-28.835439453125
-28.856344401041667
-29.52166666666667
-29.443388671875
-29.472711588541667
-29.473251953125
-29.475670572916666
-29.471826171875
-29.51412109375
-29.554765625
-29.625970052083332
-29.6887109375
-29.75796875
-29.819729817708332
-29.860003255208333
-29.909498697916668
-29.950693359375
-30.000634765625
-30.040006510416667
-30.112626953125
-30.176077473958333
-30.033056640625
-29.659296875
-29.444700520833333
-29.392373046875
-29.402268880208332
-29.432646484375
-29.471569010416665
-29.509384765625
-29.536956380208334
-29.516715494791665
-29.500478515625
-29.52888671875
-29.59130859375
-29.640830078125
-29.6919140625
-29.764521484375
-29.816110026041667
-29.87578125
-29.926389973958333
-29.96724609375
-30.002913411458334
-30.060061848958334
-30.152718098958335
-30.22703125
-30.305865885416665
-30.387001953125
-30.449228515625
-30.332115885416666
-30.031959635416666
-29.875146484375
-29.859397786458334
-29.920556640625
-30.013111979166666
-30.073277994791667
-30.110631510416667
-30.105071614583334
-30.105192057291667
-30.105654296875
-30.12654296875
-30.15087890625
-30.20865234375
-30.268522135416667
-30.314036458333334
-30.356357421875
-30.380986328125
-30.397783203125
-30.446044921875
-30.482154947916666
-30.528616536458333
-30.560537109375
-30.593258463541666
-30.634378255208333
-30.04720703125
-30.013893229166666
-29.643889973958334
-29.398815104166665
-29.323795572916666
-29.35330078125
-29.404055989583334
-29.460602213541666
-29.509736328125
-29.50134765625
-29.4624609375
-29.424501953125
-29.43806640625
-29.481608072916668
-29.551803385416665
-29.607698567708333
-29.675494791666665
-29.733196614583335
-29.779388020833334
-29.827008463541667
-29.858958333333334
-29.894147135416667
-29.9361328125
-29.980224609375
-29.8735546875
-29.260686848958333
-29.16955078125
-29.191949869791667
-29.261666666666667
-29.310849609375
-29.319075520833334
-29.288525390625
-29.26291015625
-29.26419921875
-29.324186197916667
-29.39190755208333
-29.443079427083333
-29.49208984375
-29.552565104166668
-29.619814453125
-29.648889973958333
-29.70060546875
-29.732376302083335
-29.800852864583334
-29.848238932291668
-29.676227213541665
-29.268001302083334
-28.987268880208333
-28.889228515625
-28.893297526041668
-28.907939453125
-29.585400390625
-29.507307942708334
-29.524095052083332
-29.497386067708334
-29.480445963541666
-29.49270182291667
-29.540540364583332
-29.615511067708333
-29.678323567708333
-29.748697916666668
-29.82080078125
-29.868509114583333
-29.960908203125
-30.002213541666666
-30.0484375
-30.095289713541668
-30.156637369791667
-30.098385416666666
-29.715455729166667
-29.353805338541665
-29.192942708333334
-29.181510416666665
-29.19699544270833
-29.2166015625
-29.252825520833333
-29.292412109375
-29.281848958333335
-29.24537109375
-29.247379557291666
-29.293095703125
-29.360244140625
-29.422431640625
-29.48638997395833
-29.535126953125
-29.600888671875
-29.652532552083333
-29.6951953125
-29.743776041666667
-29.793037109375
-29.848987630208335
-29.905348307291668
-29.97251953125
-29.644436848958332
-29.258024088541667
-29.07980794270833
-29.058499348958332
-29.086214192708333
-29.113072916666667
-29.16265950520833
-29.203349609375
-29.201168619791666
-29.163401692708334
-29.190302734375
-29.233567708333332
-29.289059244791666
-29.359729817708335
-29.423154296875
-29.502477213541667
-29.558251953125
-29.610963541666667
-29.652054036458335
-29.699108072916665
-29.746673177083334
-29.798356119791666
-29.86651692708333
-29.927998046875
-29.818336588541666
-29.477867838541666
-29.203115234375
-29.127581380208333
-29.157630208333334
-29.2221484375
-29.282373046875
-29.342721354166667
-29.353479817708333
-29.31880859375
-29.307776692708334
-29.322373046875
-29.381272786458332
-29.448929036458335
-29.5201953125
-29.586031901041668
-29.645032552083332
-29.702529296875
-29.740169270833334
-29.77154296875
-29.828434244791666
-29.9366015625
-29.728219401041667
-29.375084635416666
-29.1548046875
-29.109638671875
-29.154501953125
-29.1947265625
-29.243121744791665
-29.293668619791667
-29.292242838541668
-29.266328125
-29.272317708333333
-29.305276692708333
-29.36941080729167
-29.440953776041667
-29.51802734375
-29.584879557291668
-29.649915364583332
-29.7112890625
-29.750413411458332
-29.79318684895833
-29.842477213541667
-29.899716796875
-29.957666015625
-29.761119791666665
-29.379440104166665
-29.155797526041667
-29.096529947916668
-29.113291015625
-29.12652669270833
-29.135094401041666
-29.195205078125
-29.21438151041667
-29.202080078125
-29.192903645833333
-29.235667317708334
-29.283759765625
-29.361048177083333
-29.425188802083333
-29.478951822916667
-29.541617838541665
-29.60275716145833
-29.648736979166667
-29.697718098958333
-29.746376953125
-29.793134765625
-29.862877604166666
-29.915289713541668
-29.731800130208335
-29.352486979166667
-29.11032552083333
-29.054430338541668
-29.070455729166667
-29.081090494791667
-29.108697916666667
-29.160592447916667
-29.18783203125
-29.164322916666666
-29.165110677083334
-29.2021484375
-29.259742838541666
-29.341539713541668
-29.395514322916668
-29.46607421875
-29.523567708333335
-29.580696614583335
-29.632233072916666
-29.66818684895833
-29.792115885416667
-29.84421223958333
-29.904485677083333
-29.976142578125
-29.956966145833334
-29.638544921875
-29.313401692708332
-29.169309895833333
-29.169059244791665
-29.203408203125
-29.245257161458333
-29.303860677083332
-29.328740234375
-29.318082682291667
-29.28888020833333
-29.299596354166667
-29.411673177083333
-29.468033854166666
-29.543050130208332
-29.609475911458333
-29.672418619791667
-29.707939453125
-29.745413411458333
-29.789401041666668
-29.83369140625
-29.891861979166666
-29.955546875
-29.896695963541667
-29.569514973958334
-29.308382161458333
-29.22181640625
-29.252389322916667
-29.296695963541666
-29.357320963541667
-29.410013020833333
-29.421302083333334
-29.413893229166668
-29.400641276041668
-29.417102864583335
-29.467757161458334
-29.52505859375
-29.607985026041668
-29.6694140625
-29.728642578125
-29.766396484375
-29.825374348958334
-29.869755859375
-29.903717447916666
-29.954241536458333
-30.005862630208334
-29.865771484375
-29.496783854166665
-29.232526041666667
-29.145716145833333
-29.13674479166667
-29.1625
-29.17875
-29.222314453125
-29.241780598958332
-29.236328125
-29.223577473958333
-29.250143229166667
-29.307233072916667
-29.369173177083333
-29.437958984375
-29.509124348958334
-29.569088541666666
-29.624742838541668
-29.676302083333333
-29.721559244791667
-29.772379557291668
-29.82810546875
-29.890146484375
-29.949602864583333
-29.845836588541665
-29.442268880208335
-29.118538411458335
-29.009420572916667
-29.015579427083335
-29.0388671875
-29.0541796875
-29.714410807291667
-29.61810546875
-29.621988932291668
-29.606744791666667
-29.633359375
-29.684313151041668
-29.754807942708332
-29.84564453125
-29.918040364583334
-29.981051432291668
-30.023385416666667
-30.072591145833332
-30.12734375
-30.188645833333332
-30.23130859375
-30.285266927083335
-30.35495442708333
-30.418968098958334
-30.31583984375
-29.938082682291668
-29.63443359375
-29.56154947916667
-29.578115234375
-29.623196614583332
-29.653974609375
-29.715673828125
-29.746689453125
-29.717877604166667
-29.689088541666667
-29.70611328125
-29.771884765625
-29.841910807291665
-29.908720703125
-29.98283203125
-30.031927083333333
-30.093743489583332
-30.149814453125
-30.195074869791668
-30.224049479166666
-30.270833333333332
-30.33355794270833
-30.364886067708333
-30.16351236979167
-29.800472005208334
-29.606669921875
-29.600598958333332
-29.667132161458333
-29.718336588541668
-29.774290364583333
-29.829397786458333
-29.764410807291668
-29.777154947916667
-29.818746744791667
-29.8848046875
-29.952093098958333
-30.031220703125
-30.102887369791667
-30.15326171875
-30.194944661458333
-30.245888671875
-30.271936848958333
-30.31978515625
-30.3736328125
-30.255244140625
-29.88654296875
-29.6063671875
-29.519072265625
-29.536009114583333
-29.56552734375
-29.580198567708333
-29.631956380208333
-29.63937825520833
-29.620348307291668
-29.615693359375
-29.62717122395833
-29.677314453125
-29.752067057291665
-29.890328776041667
-29.977294921875
-30.032369791666667
-30.075690104166668
-30.118011067708334
-30.161048177083334
-30.247180989583335
-29.97353515625
-29.594036458333335
-29.393333333333334
-29.35052408854167
-29.370983072916665
-29.388030598958334
-29.417646484375
-29.44619140625
-29.46943359375
-29.465572916666666
-29.468447265625
-29.501184895833333
-29.561243489583333
-29.638271484375
-29.697763671875
-29.775413411458334
-29.838343098958333
-29.8805859375
-29.945475260416668
-29.984212239583332
-30.02487630208333
-30.090807291666668
-30.153854166666665
-30.216461588541666
-30.230289713541666
-29.926256510416668
-29.535885416666666
-29.367047526041667
-29.367972005208333
-29.40623046875
-29.42986328125
-29.471650390625
-29.50783854166667
-29.488170572916665
-29.460888671875
-29.459772135416667
-29.506780598958333
-29.570891927083334
-29.645364583333333
-29.702395833333334
-29.76348958333333
-29.81976236979167
-29.854915364583334
-29.906516927083334
-29.939313151041667
-29.987890625
-30.034983723958334
-30.018199869791665
-29.742819010416667
-29.429153645833335
-29.29703125
-29.297327473958333
-29.338271484375
-29.375677083333333
-29.438072916666666
-29.46232421875
-29.444977213541666
-29.412958984375
-29.413977864583334
-29.453580729166667
-29.52978515625
-29.586005859375
-29.65627604166667
-29.73260416666667
-29.767955729166665
-29.809957682291667
-29.841539713541668
-29.889609375
-29.945670572916665
-29.85365234375
-29.492548828125
-29.168470052083332
-29.025791015625
-29.018046875
-29.032467447916666
-29.054563802083333
-29.119622395833332
-29.129339192708333
-29.110524088541666
-29.090875651041667
-29.114381510416667
-29.168570963541665
-29.23486328125
-29.292366536458335
-29.374290364583334
-29.435807291666666
-29.487965494791666
-29.52956705729167
-29.562545572916665
-29.600296223958335
-29.6580078125
-29.730003255208334
-29.670830078125
-29.296292317708332
-28.924580078125
-28.737669270833333
-28.732135416666665
-29.286080729166667
-29.19329752604167
-29.239918619791666
-29.284069010416665
-29.284947916666667
-29.251803385416668
-29.27435546875
-29.325856119791666
-29.399016927083334
-29.477789713541668
-29.55501953125
-29.61873046875
-29.6859765625
-29.74421875
-29.78466796875
-29.844768880208335
-29.906429036458334
-29.97931640625
-30.042916666666667
-30.004498697916667
-29.635335286458332
-29.26458984375
-29.10615234375
-29.105891927083334
-29.138857421875
-29.17912109375
-29.231702473958332
-29.284166666666668
-29.295009765625
-29.27585286458333
-29.283430989583334
-29.354866536458335
-29.425589192708333
-29.502698567708332
-29.581549479166668
-29.648763020833332
-29.705979817708332
-29.753190104166666
-29.808528645833334
-29.86583984375
-29.916829427083332
-29.983987630208333
-29.990758463541667
-29.643880208333332
-29.350589192708334
-29.266028645833334
-29.288551432291666
-29.345690104166668
-29.409212239583333
-29.49134765625
-29.500227864583334
-29.47439127604167
-29.469931640625
-29.49099609375
-29.548684895833333
-29.641959635416665
-29.71205078125
-29.791097005208332
-29.84927734375
-29.904632161458334
-29.940598958333332
-29.980074869791668
-30.032854817708333
-30.101116536458335
-30.10373046875
-29.860423177083334
-29.552044270833335
-29.421731770833333
-29.42755208333333
-29.47939453125
-29.533186848958334
-29.618268229166667
-29.66086263020833
-29.64654296875
-29.618147786458334
-29.64134765625
-29.68810546875
-29.767021484375
-29.84271158854167
-29.918190104166666
-29.99514322916667
-30.045846354166667
-30.095162760416667
-30.13039713541667
-30.18033203125
-30.236051432291667
-30.124967447916667
-29.794036458333334
-29.543479817708334
-29.460794270833333
-29.481233723958333
-29.504173177083334
-29.530973307291667
-29.6095703125
-29.654274088541666
-29.649075520833332
-29.6339453125
-29.65029296875
-29.697311197916665
-29.773317057291667
-29.850807291666666
-29.920319010416666
-29.985667317708334
-30.059710286458333
-30.113076171875
-30.162278645833332
-30.226510416666667
-30.28029296875
-30.131539713541667
-29.825817057291665
-29.587548828125
-29.627291666666668
-29.7169140625
-29.780045572916666
-29.81474609375
-29.796666666666667
-29.798170572916668
-29.904342447916665
-29.980670572916665
-30.130149739583334
-30.184010416666666
-30.285895182291668
-30.33517578125
-30.255286458333334
-29.974189453125
-29.815625
-29.798466796875
-29.839856770833332
-29.887652994791665
-29.945016276041667
-30.055465494791665
-30.0505078125
-30.056829427083333
-30.163486328125
-30.229482421875
-30.3001171875
-30.353404947916665
-30.453889973958333
-30.501689453125
-30.613229166666667
-30.599381510416666
-29.81306640625
-29.5804296875
-29.607125651041667
-29.687486979166668
-29.767034505208333
-29.768902994791667
-29.776507161458333
-29.796419270833333
-29.83912109375
-29.9690234375
-30.021201171875
-30.08493489583333
-30.1500390625
-30.180104166666666
-30.245341796875
-30.28978515625
-30.322255859375
-29.970817057291665
-29.772060546875
-29.741194661458334
-29.795143229166666
-29.810432942708335
-29.8551171875
-29.8779296875
-29.897864583333334
-29.921682942708333
-30.032679036458333
-30.0883203125
-30.14490234375
-30.234817708333335
-30.317314453125
-30.376953125
-30.406630859375
-30.451328125
-30.55779947916667
-30.362421875
-29.930374348958335
-29.92998046875
-29.952750651041665
-29.96603841145833
-30.027001953125
-30.03724609375
-30.018720703125
-30.023277994791666
-30.050071614583334
-30.145221354166665
-30.201796875
-30.28865234375
-30.323138020833333
-30.39133138020833
-30.428072916666668
-30.474544270833334
-30.560250651041667
-30.651764322916666
-29.6071875
-29.534791666666667
-29.50368815104167
-29.561888020833333
-29.56939778645833
-29.617542317708335
-29.602314453125
-29.585501302083333
-29.644388020833333
-29.687763671875
-29.730257161458333
-29.770745442708332
-29.816350911458333
-29.892024739583334
-29.921728515625
-29.950188802083332
-30.00984375
-30.047477213541665
-30.101393229166668
-30.12106770833333
-29.58404296875
-29.462532552083335
-29.43974609375
-29.479235026041668
-29.512314453125
-29.538831380208332
-29.581559244791666
-29.530345052083334
-29.503883463541666
-29.524117838541667
-29.608238932291666
-29.655914713541666
-29.697067057291665
-29.748665364583335
-29.778938802083335
-29.809075520833332
-29.867972005208333
-29.904345703125
-29.894986979166667
-29.64035481770833
-29.37575846354167
-29.271735026041668
-29.343557942708333
-29.390472005208334
-29.46603841145833
-29.433092447916668
-29.373551432291666
-29.403343098958334
-29.447490234375
-29.54986653645833
-29.595563151041667
-29.687262369791668
-29.656419270833332
-29.339733072916665
-29.073779296875
-28.992102864583334
-29.03353515625
-29.643014322916667
-29.584108072916667
-29.604111328125
-29.542584635416667
-29.523531901041668
-29.560944010416666
-29.669934895833332
-29.719462890625
-29.784222005208335
-29.829641927083333
-29.8646875
-29.90407877604167
-29.80556640625
-29.1975
-29.108069661458334
-29.116520182291666
-29.169596354166668
-29.2231640625
-29.218098958333332
-29.203388671875
-29.239749348958334
-29.343229166666667
-29.409287109375
-29.466617838541666
-29.510084635416668
-29.5499609375
-29.632083333333334
-29.6659375
-29.522438151041666
-28.944241536458332
-28.877770182291666
-29.456129557291668
-29.36745768229167
-29.40509114583333
-29.418815104166665
-29.408977864583335
-29.420032552083335
-29.481051432291668
-29.602607421875
-29.66169921875
-29.709150390625
-29.769873046875
-29.862952473958334
-29.918206380208332
-29.962750651041667
-30.084524739583333
-30.057314453125
-29.742021484375
-29.4733203125
-29.389322916666668
-29.391865234375
-29.442552083333332
-29.500924479166667
-29.538499348958332
-29.543053385416666
-29.580032552083335
-29.634677734375
-29.759345703125
-29.8259375
-29.967405598958333
-30.013902994791668
-30.125289713541665
-30.186614583333334
-30.311767578125
-30.367604166666666
-30.421907552083333
-30.489850260416667
-30.063141276041666
-29.86673828125
-29.946536458333334
-29.996923828125
-30.064228515625
-30.053125
-30.05905598958333
-30.136051432291666
-30.206927083333333
-30.244417317708333
-30.299417317708333
-30.364847005208333
-30.420237630208334
-30.468974609375
-30.515546875
-30.568623046875
-30.619361979166666
-30.1840234375
-30.34173502604167
-30.413235677083332
-30.2569921875
-29.962887369791666
-29.822923177083332
-29.837747395833333
-29.887197265625
-29.98044270833333
-29.979908854166666
-29.959296875
-29.974456380208334
-29.992473958333335
-30.035201822916665
-30.1596875
-30.215654296875
-30.303707682291666
-30.382434895833335
-30.420725911458334
-30.466279296875
-30.52228515625
-30.49591145833333
-30.265143229166668
-30.029482421875
-29.950335286458333
-30.024986979166666
-30.139612630208333
-30.161513671875
-30.147942708333332
-30.110198567708334
-30.14767578125
-30.199876302083332
-30.253307291666665
-30.308880208333335
-30.411490885416665
-30.442568359375
-30.477711588541666
-30.478639322916667
-30.26312174479167
-29.82734375
-29.859189453125
-29.960888671875
-29.994684244791667
-29.9809375
-29.938056640625
-29.961595052083332
-30.075849609375
-30.1404296875
-30.202392578125
-30.243248697916666
-30.29171875
-30.333079427083334
-30.10994140625
-29.556442057291665
-29.526529947916668
-29.527985026041666
-29.544537760416667
-29.564856770833334
-29.613304036458334
-29.588548177083332
-29.583971354166668
-29.605777994791666
-29.65847330729167
-29.718411458333332
-29.786171875
-29.902854817708334
-29.954332682291668
-29.992109375
-30.068225911458335
-30.119964192708334
-30.02056966145833
-29.43572916666667
-29.361959635416667
-29.365078125
-29.360087890625
-29.398102213541666
-29.438772786458333
-29.4577734375
-29.493951822916667
-29.538668619791668
-29.596881510416665
-29.654446614583332
-29.775514322916667
-29.824283854166666
-29.89211588541667
-29.940582682291666
-29.989329427083334
-30.041969401041666
-30.109309895833334
-30.143994140625
-29.659720052083333
-29.469280598958335
-29.43967122395833
-29.46173828125
-29.478098958333334
-29.494762369791665
-29.592041015625
-29.592314453125
-29.614860026041665
-29.643326822916666
-29.762138671875
-29.835091145833335
-29.89263671875
-30.014860026041667
-30.07900390625
-30.121565755208334
-30.228841145833332
-30.284534505208335
-30.345511067708333
-30.371103515625
-30.116181640625
-29.892197265625
-29.840390625
-29.865921223958335
-29.899345703125
-29.926116536458334
-29.975305989583333
-30.007132161458333
-30.018216145833332
-30.048274739583334
-30.099436848958334
-30.149075520833332
-30.255706380208334
-30.298369140625
-30.385706380208333
-30.446774088541666
-30.492229817708335
-30.54529296875
-30.592565104166667
-30.437412109375
-29.599899088541665
-29.593990885416666
-29.612425130208333
-29.650406901041666
-29.682213541666666
-29.731302083333333
-29.76516276041667
-29.727467447916666
-29.741162109375
-29.776702473958334
-29.83212890625
-29.8890625
-29.979117838541665
-30.024817708333334
-30.081311848958332
-30.111220703125
-30.166650390625
-30.184892578125
-30.049749348958333
-29.621826171875
-29.599768880208334
-29.631793619791665
-29.6530078125
-29.721936848958332
-29.716848958333333
-29.683522135416666
-29.710872395833334
-29.768990885416667
-29.819547526041667
-29.881315104166667
-29.968658854166666
-30.011923828125
-30.071233723958333
-30.160400390625
-30.158642578125
-29.933092447916668
-29.62839192708333
-29.494173177083333
-29.510244140625
-29.514508463541667
-29.535852864583333
-29.580003255208332
-29.57306640625
-29.575543619791667
-29.601848958333335
-29.66107421875
-29.728206380208334
-29.78375
-29.883193359375
-29.930553385416665
-29.971744791666666
-30.008642578125
-30.03567057291667
-30.074563802083333
-30.125338541666668
-30.190494791666666
-29.977288411458332
-29.642701822916667
-29.458736979166666
-29.482783203125
-29.522600911458333
-29.56609375
-29.590104166666666
-29.584404296875
-29.5858203125
-29.673274739583334
-29.73537109375
-29.78518229166667
-29.842542317708332
-29.901751302083333
-29.984563802083333
-30.0240234375
-30.06986328125
-30.115914713541667
-30.163264973958334
-30.259762369791666
-30.31453125
-30.22130859375
-29.874108072916666
-29.610162760416667
-29.540123697916666
-29.555810546875
-29.61826171875
-29.660475260416668
-29.676236979166667
-29.669853515625
-29.646100260416667
-29.71453776041667
-29.772666015625
-29.843274739583332
-29.904954427083332
-29.971350911458334
-30.006070963541667
-30.101106770833333
-30.140061848958332
-30.184593098958334
-30.283811848958333
-30.325563151041667
-30.32794921875
-29.99880533854167
-29.718089192708334
-29.64765625
-29.702861328125
-29.752942708333332
-29.80640625
-29.813665364583333
-29.777223307291667
-29.808111979166668
-29.859736328125
-29.966083984375
-30.074046223958334
-30.11208984375
-30.1248828125
-30.153092447916666
-30.243951822916667
-29.99529296875
-29.677571614583332
-29.521533203125
-29.547786458333334
-29.590374348958335
-29.697252604166668
-29.68025390625
-29.639684244791667
-29.623678385416667
-29.653232421875
-29.716630859375
-29.780289713541666
-29.902320963541666
-29.958147786458333
-30.003616536458335
-30.066897786458334
-30.115211588541666
-30.131350911458334
-29.513997395833332
-29.247447916666665
-29.25018229166667
-29.278255208333334
-29.3435546875
-29.347669270833332
-29.31121744791667
-29.319892578125
-29.36908203125
-29.50091471354167
-29.57598958333333
-29.6259765625
-29.687047526041667
-29.750979817708334
-29.79927734375
-29.8238671875
-29.584886067708332
-29.198587239583333
-28.939524739583334
-28.955934244791667
-29.578538411458332
-29.479749348958332
-29.525387369791666
-29.5045703125
-29.4998046875
-29.587174479166666
-29.645660807291666
-29.780869140625
-29.832903645833333
-29.868815104166668
-29.907972005208332
-29.986966145833332
-30.046461588541668
-30.009850260416666
-29.370777994791666
-29.24807291666667
-29.26986328125
-29.308362630208332
-29.358125
-29.380673828125
-29.36526041666667
-29.380354817708334
-29.422014973958333
-29.490319010416666
-29.616145833333334
-29.682252604166667
-29.772802734375
-29.810703125
-29.856790364583333
-29.954225260416667
-29.717184244791667
-29.411409505208333
-29.284508463541666
-29.296559244791666
-29.408203125
-29.467093098958333
-29.497744140625
-29.467532552083334
-29.477262369791667
-29.529703776041668
-29.589326171875
-29.6553515625
-29.71759765625
-29.77751953125
-29.869658203125
-29.952408854166666
-30.012350260416667
-29.943733723958335
-29.661197916666666
-29.357854817708333
-29.3973828125
-29.426845703125
-29.475302734375
-29.538688151041665
-29.570029296875
-29.550026041666666
-29.569860026041667
-29.714134114583334
-29.773753255208334
-29.845266927083333
-29.896959635416668
-29.987545572916666
-30.01876953125
-30.068206380208334
-30.118509114583333
-30.093268229166668
-29.544794921875
-29.434274088541667
-29.4298828125
-29.469098307291667
-29.560309244791668
-29.560787760416666
-29.575478515625
-29.649407552083332
-29.714563802083333
-29.774680989583334
-29.910081380208332
-29.96075520833333
-30.062796223958333
-30.103421223958332
-30.215807291666668
-30.247548828125
-30.081640625
-29.602975260416667
-29.569166666666668
-29.585514322916666
-29.629547526041666
-29.688486328125
-29.710940755208334
-29.716748046875
-29.759635416666665
-29.82498046875
-29.955481770833334
-30.002350260416666
-30.065966796875
-30.128020833333334
-30.200455729166666
-30.240615234375
-30.352457682291668
-30.40462890625
-30.463333333333335
-30.3681640625
-30.054534505208334
-29.82365234375
-29.764573567708332
-29.818619791666666
-29.843238932291666
-29.89044270833333
-29.92361002604167
-29.9131640625
-29.94455403645833
-29.988958333333333
-30.1202734375
-30.176790364583333
-30.228570963541667
-30.270745442708332
-30.312591145833334
-30.413011067708332
-30.449850260416667
-30.511728515625
-30.561943359375
-30.623766276041668
-30.344248046875
-29.481201171875
-29.511949869791668
-29.557776692708334
-29.603408203125
-29.690706380208333
-29.6728125
-29.643889973958334
-29.651106770833334
-29.759127604166668
-29.823089192708334
-29.932584635416667
-29.969368489583335
-29.995296223958334
-30.075436197916666
-30.13043294270833
-29.959186197916665
-29.520680338541666
-29.509111328125
-29.551572265625
-29.586920572916668
-29.62717122395833
-29.664283854166666
-29.662005208333333
-29.638089192708332
-29.666399739583333
-29.80326171875
-29.855283203125
-29.926953125
-29.958831380208334
-30.038795572916666
-30.071826171875
-30.10861653645833
-30.0208203125
-29.686995442708334
-29.384436848958334
-29.395485026041666
-29.428987630208333
-29.475569661458334
-29.482805989583333
-29.475699869791665
-29.495517578125
-29.602005208333335
-29.676559244791665
-29.724124348958334
-29.830660807291668
-29.87189453125
-29.921184895833335
-29.956474609375
-30.058805338541667
-30.01736328125
-29.687613932291665
-29.383154296875
-29.241207682291666
-29.257428385416667
-29.271767578125
-29.2987890625
-29.338414713541667
-29.327177734375
-29.38447265625
-29.441979166666666
-29.507379557291667
-29.569817708333332
-29.630367838541666
-29.725302734375
-29.76605143229167
-29.861728515625
-29.913177083333334
-29.959811197916668
-29.457119140625
-29.225983072916666
-29.188277994791665
-29.214736328125
-29.231722005208333
-29.281572265625
-29.29519205729167
-29.283860677083332
-29.316669921875
-29.431962890625
-29.492399088541667
-29.565172526041668
-29.615654296875
-29.691578776041666
-29.741536458333332
-29.789407552083333
-29.899811197916666
-29.856930338541666
-29.559479166666666
-29.199840494791665
-29.220686848958334
-29.268258463541667
-29.374905598958332
-29.39377278645833
-29.339925130208332
-29.363779296875
-29.40798502604167
-29.542145182291666
-29.59787109375
-29.631982421875
-29.719537760416667
-29.759710286458333
-29.809225260416667
-29.651669921875
-29.329957682291667
-29.145849609375
-29.156627604166665
-29.183564453125
-29.27681640625
-29.249967447916667
-29.254072265625
-29.317659505208333
-29.374140625
-29.494059244791668
-29.554537760416668
-29.626982421875
-29.671735026041667
-29.713232421875
-29.481940104166668
-29.116923828125
-28.914931640625
-28.905319010416665
-29.530309244791667
-29.462076822916668
-29.475
-29.460556640625
-29.49486328125
-29.552473958333334
-29.616910807291667
-29.74865234375
-29.804690755208334
-29.840830078125
-29.888395182291667
-29.922981770833335
-29.9744140625
-29.975729166666667
-29.315592447916668
-29.230904947916667
-29.251565755208333
-29.293268229166667
-29.329557291666667
-29.34806640625
-29.468606770833333
-29.545504557291668
-29.671923828125
-29.731165364583333
-29.779713541666666
-29.82061848958333
-29.873580729166665
-29.988688151041668
-30.017633463541667
-29.799905598958333
-29.446604817708334
-29.252392578125
-29.295182291666666
-29.369208984375
-29.415143229166667
-29.398580729166667
-29.400550130208334
-29.453811848958335
-29.571142578125
-29.646744791666666
-29.717106119791666
-29.804296875
-29.8419921875
-29.897610677083332
-29.95217447916667
-29.859098307291667
-29.53181640625
-29.356591796875
-29.34763671875
-29.434228515625
-29.4928125
-29.549641927083332
-29.527268880208332
-29.522633463541666
-29.633346354166665
-29.6965234375
-29.77703776041667
-29.895380859375
-29.938365885416665
-29.985885416666665
-30.028899739583334
-30.009176432291667
-29.744739583333335
-29.473544921875
-29.3987890625
-29.454404296875
-29.48607421875
-29.547828776041666
-29.578323567708335
-29.572600911458334
-29.585299479166668
-29.657373046875
-29.7219921875
-29.787428385416668
-29.932594401041666
-29.97674479166667
-30.037688802083334
-30.0641796875
-30.123375651041666
-29.978818359375
-29.657786458333334
-29.469505208333334
-29.4983203125
-29.520361328125
-29.610026041666668
-29.629033203125
-29.631266276041668
-29.69060546875
-29.763024088541666
-29.830852864583335
-29.90744466145833
-29.963509114583335
-30.028636067708334
-30.072457682291667
-30.174889322916666
-30.21795572916667
-30.216331380208334
-29.916484375
-29.681891276041668
-29.61062174479167
-29.626090494791665
-29.685654296875
-29.72953125
-29.780387369791665
-29.792477213541666
-29.831038411458334
-29.943063151041667
-30.023883463541665
-30.08840494791667
-30.203011067708335
-30.25803059895833
-30.294446614583332
-30.341666666666665
-30.46063151041667
-30.409713541666665
-30.12106770833333
-29.89173828125
-29.821119791666668
-29.893971354166666
-29.90618815104167
-29.9562890625
-29.991656901041665
-29.991705729166668
-30.020162760416667
-30.0558203125
-30.19947265625
-30.26141276041667
-30.314098307291665
-30.42068359375
-30.454303385416665
-30.50068359375
-30.599560546875
-30.328557942708333
-29.486761067708333
-29.508912760416667
-29.5787109375
-29.629010416666667
-29.709694010416666
-29.67375
-29.664495442708333
-29.695625
-29.746295572916665
-29.865530598958333
-29.927805989583334
-29.982434895833332
-30.046067708333332
-30.088264973958335
-30.067737630208335
-29.792581380208333
-29.547041015625
-29.465068359375
-29.480354817708335
-29.57638671875
-29.630771484375
-29.656438802083333
-29.616513671875
-29.630511067708333
-29.688460286458334
-29.813753255208333
-29.880882161458334
-29.970709635416668
-30.005104166666666
-30.04205403645833
-30.056731770833334
-29.860856119791666
-29.519752604166666
-29.28005533854167
-29.305325520833332
-29.320908203125
-29.367639973958333
-29.421233723958334
-29.430081380208332
-29.407483723958332
-29.442994791666667
-29.499235026041667
-29.624752604166666
-29.759710286458333
-29.808844401041668
-29.854280598958333
-29.939446614583332
-30.033056640625
-29.2281640625
-29.203541666666666
-29.250986328125
-29.3405859375
-29.368948567708333
-29.339879557291667
-29.392783203125
-29.435462239583334
-29.566416015625
-29.706389973958334
-29.753733723958334
-29.851962890625
-29.896119791666667
-29.94396484375
-30.002174479166666
-30.059886067708334
-29.508369140625
-29.248740234375
-29.196110026041666
-29.214518229166668
-29.240120442708335
-29.274371744791665
-29.33892578125
-29.343046875
-29.33474609375
-29.35279296875
-29.412073567708333
-29.54203125
-29.606617838541666
-29.746975911458332
-29.794427083333332
-29.882828776041666
-29.940511067708332
-29.978072916666665
-30.098567708333334
-29.775725911458334
-29.399010416666666
-29.241171875
-29.238466796875
-29.33439453125
-29.395927734375
-29.4298828125
-29.437405598958332
-29.396097005208333
-29.431451822916667
-29.494547526041668
-29.541536458333333
-29.686920572916666
-29.73528971354167
-29.837314453125
-29.871009114583334
-29.918623046875
-29.953655598958335
-30.02777018229167
-29.747200520833335
-29.387607421875
-29.219990234375
-29.265794270833332
-29.410846354166665
-29.451451822916667
-29.426822916666666
-29.357867838541665
-29.4594140625
-29.523802083333333
-29.5925390625
-29.714641927083335
-29.803154296875
-29.841995442708335
-29.885266927083332
-29.800393880208333
-29.383746744791665
-29.077571614583334
-28.99212565104167
-29.020940755208333
-29.668854166666666
-29.643785807291668
-29.601507161458333
-29.570302734375
-29.603212890625
-29.67380208333333
-29.815963541666665
-29.93998046875
-29.977386067708334
-30.037744140625
-30.106389973958333
-30.1488671875
-30.02767578125
-29.573219401041666
-29.21130859375
-29.067376302083332
-29.092766927083332
-29.113714192708333
-29.192340494791665
-29.1830859375
-29.158333333333335
-29.205107421875
-29.27097005208333
-29.339153645833335
-29.47580403645833
-29.547864583333332
-29.642747395833332
-29.684944661458335
-29.728782552083334
-29.791767578125
-29.5880859375
-29.128317057291667
-28.72067708333333
-29.334137369791666
-29.241083984375
-29.306067708333334
-29.318528645833332
-29.295325520833334
-29.283922526041668
-29.347154947916668
-29.41513671875
-29.49142903645833
-29.569231770833333
-29.688154296875
-29.741686197916668
-29.798600260416666
-29.845602213541667
-29.962893880208334
-30.023102213541666
-29.854016927083332
-29.077333984375
-28.9832421875
-29.001901041666667
-29.05248046875
-29.095856119791666
-29.160478515625
-29.184007161458332
-29.16091796875
-29.157906901041667
-29.217571614583335
-29.281481119791668
-29.369677734375
-29.441409505208334
-29.50750651041667
-29.563317057291666
-29.647874348958332
-29.70309895833333
-29.748636067708333
-29.801761067708334
-29.31179361979167
-28.999583333333334
-28.888427734375
-28.9241796875
-29.68524088541667
-29.637760416666666
-29.658902994791667
-29.606481119791667
-29.57159505208333
-29.639798177083332
-29.696341145833333
-29.872542317708334
-30.00841796875
-30.0974609375
-30.147184244791667
-30.17416015625
-29.51919921875
-29.257825520833332
-29.2087890625
-29.247483723958332
-29.371256510416668
-29.45291015625
-29.41875
-29.397985026041667
-29.441666666666666
-29.584016927083333
-29.659921875
-29.801591796875
-29.858102213541667
-29.89427734375
-29.939990234375
-29.999078776041667
-30.057037760416666
-29.550107421875
-29.00943359375
-29.008645833333333
-29.075416666666666
-29.141959635416665
-29.184625651041667
-29.156705729166667
-29.165716145833333
-29.311487630208333
-29.46046875
-29.5490625
-29.617320963541665
-29.676240234375
-29.732076822916667
-29.828141276041666
-29.978746744791668
-29.958248697916666
-29.578330078125
-29.172073567708335
-28.99652018229167
-28.992975260416667
-29.075026041666668
-29.124873046875
-29.216988932291667
-29.254622395833334
-29.233932291666665
-29.233346354166667
-29.35451822916667
-29.445755208333335
-29.600068359375
-29.673736979166666
-29.73798828125
-29.85650390625
-29.915960286458333
-30.02658203125
-30.106123046875
-30.00925130208333
-29.361337890625
-29.272180989583333
-29.310589192708335
-29.420569661458334
-29.533678385416668
-29.531572265625
-29.514251302083334
-29.561907552083333
-29.629348958333335
-29.726920572916665
-29.800758463541666
-29.95853515625
-30.027141927083335
-30.088434244791667
-30.181689453125
-30.241370442708334
-30.309029947916667
-30.304798177083335
-29.76212890625
-29.679153645833335
-29.7228515625
-29.900240885416668
-29.986481119791666
-30.011233723958334
-29.987952473958334
-30.069033203125
-30.153453776041665
-30.232386067708333
-30.394703776041666
-30.462415364583332
-30.520146484375
-30.570260416666667
-29.965540364583333
-29.804641927083335
-29.572138671875
-29.564322916666665
-29.62408203125
-29.671181640625
-29.76099609375
-29.797320963541665
-29.786360677083334
-29.813369140625
-29.878238932291666
-30.004661458333334
-30.08645182291667
-30.154892578125
-30.200582682291667
-30.255703125
-30.301376953125
-30.243736979166666
-29.760390625
-29.677161458333334
-29.710843098958332
-29.763805338541665
-29.908662109375
-29.955263671875
-29.954947916666665
-29.984326171875
-30.03658203125
-30.116305338541668
-30.1713671875
-30.299527994791667
-30.35552734375
-30.403004557291666
-30.498720703125
-30.475413411458334
-29.948688151041665
-29.846380208333333
-29.855927734375
-29.877799479166665
-29.896513671875
-30.002610677083332
-30.017236328125
-30.006533203125
-30.033893229166665
-30.08958984375
-30.152783203125
-30.281741536458334
-30.34466796875
-30.395179036458334
-30.454645182291667
-30.54509765625
-30.5984765625
-30.655696614583334
-30.009954427083333
-29.820625
-29.6130078125
-29.566682942708333
-29.573597005208335
-29.599039713541668
-29.61876953125
-29.676471354166665
-29.728994140625
-29.732076822916667
-29.765439453125
-29.873795572916666
-29.930546875
-30.037184244791668
-30.102584635416665
-30.142542317708333
-30.187180989583332
-30.22707682291667
-30.329986979166666
-30.437392578125
-30.459169921875
-30.23822265625
-29.789443359375
-29.7706640625
-29.801194661458332
-29.861165364583332
-29.915598958333334
-29.921399739583332
-29.9354296875
-29.987470703125
-30.048092447916666
-30.1467578125
-30.196673177083333
-30.24671875
-30.316500651041668
-30.352083333333333
-30.446966145833333
-30.4897265625
-30.536217447916666
-30.59152669270833
-30.628486328125
-29.559886067708334
-29.453912760416667
-29.412626953125
-29.4417578125
-29.475393880208333
-29.502109375
-29.539287109375
-29.526930338541668
-29.491175130208333
-29.5073046875
-29.603343098958334
-29.662347005208332
-29.742747395833334
-29.78635091145833
-29.8245703125
-29.878310546875
-29.911529947916666
-29.95419921875
-30.005849609375
-30.048395182291667
-29.656702473958333
-29.402766927083334
-29.32351236979167
-29.3325
-29.388971354166667
-29.443639322916667
-29.4898046875
-29.50701822916667
-29.434651692708332
-29.41935546875
-29.456246744791667
-29.563958333333332
-29.618935546875
-29.671009114583335
-29.714449869791668
-29.749427083333334
-29.805244140625
-29.842350260416666
-29.859449869791668
-29.580524088541665
-29.25603515625
-29.100758463541666
-29.115602213541667
-29.154762369791666
-29.262708333333332
-29.246979166666666
-29.206868489583332
-29.22149739583333
-29.274300130208335
-29.401832682291666
-29.471910807291668
-29.534332682291666
-29.580735677083332
-29.662776692708334
-29.698538411458333
-29.745947265625
-29.798089192708332
-29.247526041666667
-28.951988932291666
-28.851598307291667
-29.487350260416665
-29.385970052083334
-29.447955729166665
-29.429212239583332
-29.403977864583332
-29.409085286458332
-29.507320963541666
-29.577506510416665
-29.651536458333332
-29.782887369791666
-29.867666015625
-29.949368489583332
-30.0052734375
-30.041373697916665
-29.882467447916667
-29.146468098958334
-29.04681640625
-29.060882161458334
-29.09474609375
-29.128369140625
-29.198349609375
-29.205924479166665
-29.20220703125
-29.240338541666667
-29.30227213541667
-29.368248697916666
-29.435875651041666
-29.497151692708332
-29.552161458333334
-29.589567057291667
-29.644420572916665
-29.688987630208334
-29.724830729166666
-29.831106770833333
-29.759742838541666
-29.026686197916668
-28.875559895833334
-28.885865885416667
-29.517874348958333
-29.464716796875
-29.489934895833333
-29.423512369791666
-29.41533203125
-29.451682942708334
-29.506790364583335
-29.649700520833335
-29.7046875
-29.765052083333334
-29.847197265625
-29.8908984375
-29.967210286458332
-30.049759114583335
-29.63723307291667
-29.294723307291665
-29.165162760416667
-29.241510416666667
-29.304612630208332
-29.396354166666665
-29.355546875
-29.328929036458334
-29.368704427083333
-29.441145833333334
-29.576253255208332
-29.649723307291666
-29.712835286458333
-29.799156901041666
-29.836692708333334
-29.940276692708334
-29.963483072916667
-29.244235026041668
-29.0166015625
-28.978212890625
-29.014300130208333
-29.052861328125
-29.152473958333335
-29.15208984375
-29.13308268229167
-29.14401692708333
-29.204970703125
-29.289117838541667
-29.34564127604167
-29.4290234375
-29.505221354166668
-29.55169596354167
-29.644202473958334
-29.691487630208332
-29.744013671875
-29.806875
-29.871178385416666
-29.385973307291668
-29.004069010416668
-28.85540690104167
-28.84603515625
-28.889944661458333
-29.466158854166668
-29.511389973958334
-29.47056640625
-29.535986328125
-29.602151692708333
-29.690550130208333
-29.843561197916667
-29.895361328125
-29.994879557291668
-30.03990234375
-30.101611328125
-30.153053385416666
-30.299567057291668
-30.35087890625
-30.154684244791667
-29.386025390625
-29.312828776041666
-29.339830729166668
-29.388577473958332
-29.437454427083335
-29.49904947916667
-29.530485026041667
-29.476038411458333
-29.568544921875
-29.6446875
-29.729690755208335
-29.804401041666665
-29.936458333333334
-29.989612630208335
-30.041302083333335
-30.09552083333333
-30.20876627604167
-30.278720703125
-30.35528645833333
-30.160986328125
-29.703463541666668
-29.387340494791665
-29.531715494791666
-29.600387369791665
-29.67005859375
-29.625198567708335
-29.5997265625
-29.673932291666667
-29.770556640625
-29.848841145833333
-29.935677083333335
-30.074137369791668
-30.120348307291668
-30.198782552083333
-30.2426953125
-30.313932291666667
-30.3527734375
-29.678343098958333
-29.460699869791668
-29.605582682291665
-29.697272135416668
-29.750699869791667
-29.732389322916667
-29.684990234375
-29.67154296875
-29.708684895833333
-29.794996744791668
-29.878486328125
-30.050735677083335
-30.112379557291668
-30.210074869791665
-30.288486328125
-30.353193359375
-30.345680338541666
-29.601272786458335
-29.421533203125
-29.409739583333334
-29.468411458333332
-29.587610677083333
-29.639983723958334
-29.6058984375
-29.562880859375
-29.552887369791666
-29.588889973958334
-29.74200520833333
-29.830035807291665
-29.902242838541667
-29.968466796875
-30.020315755208333
-30.047766927083334
-30.09083984375
-30.144778645833334
-30.197330729166666
-29.719537760416667
-29.192766927083333
-29.202923177083335
-29.268079427083332
-29.32794921875
-29.344635416666666
-29.320794270833332
-29.330234375
-29.384905598958333
-29.4741015625
-29.553776041666666
-29.725543619791665
-29.791070963541667
-29.824498697916667
-29.92
-29.961344401041668
-30.041787109375
-30.067913411458335
-29.288248697916668
-28.977454427083334
-29.024593098958334
-29.039013671875
-29.111930338541665
-29.118115234375
-29.099235026041665
-29.134794921875
-29.233040364583335
-29.32049479166667
-29.419375
-29.510625
-29.576302083333335
-29.654739583333335
-29.713623046875
-29.789947916666666
-29.86044921875
-29.964423828125
-29.967174479166665
-29.430003255208334
-28.93396484375
-28.797317708333335
-28.847825520833332
-28.868024088541667
-29.566442057291667
-29.830595703125
-29.893834635416667
-29.873932291666666
-29.93267903645833
-30.054420572916666
-30.172568359375
-30.28435546875
-30.369069010416666
-30.454619140625
-30.524651692708332
-30.59685546875
-30.671064453125
-30.86119140625
-30.594755859375
-29.737760416666667
-29.728636067708333
-29.761630859375
-29.817399088541666
-29.897985026041667
-29.901513671875
-29.884641927083333
-29.933922526041666
-30.051263020833332
-30.175201822916666
-30.2851171875
-30.377692057291668
-30.463297526041668
-30.5300390625
-30.610869140625
-30.692018229166667
-30.774583333333332
-30.86810546875
-30.984983723958333
-31.023795572916665
-30.53533203125
-30.017470703125
-29.221044921875
-29.100654296875
-29.110465494791665
-29.217161458333333
-29.242825520833332
-29.192867838541666
-29.186783854166666
-29.26474609375
-29.376448567708334
-29.488772786458334
-29.600823567708332
-29.687093098958332
-29.74953776041667
-29.803011067708333
-29.858785807291667
-29.949908854166665
-30.035065104166666
-29.798580729166666
-29.297786458333334
-29.090403645833334
-29.14694661458333
-29.2331640625
-29.340400390625
-29.433753255208334
-29.396044921875
-29.369876302083334
-29.413610026041667
-29.513356119791666
-29.646110026041665
-29.743616536458333
-29.82646484375
-29.9055859375
-29.96921875
-30.012229817708334
-30.090615234375
-30.17119140625
-30.078076171875
-29.532483723958332
-29.202623697916668
-29.180817057291666
-29.246982421875
-29.290524088541666
-29.375875651041667
-29.396650390625
-29.382747395833334
-29.390546875
-29.47837890625
-29.578763020833332
-29.680706380208335
-29.77748046875
-29.862542317708332
-29.931295572916667
-29.979189453125
-30.0336328125
-30.127421875
-30.208642578125
-30.20098958333333
-29.702613932291666
-29.327145182291666
-29.2677734375
-29.31198567708333
-29.360416666666666
-29.44708984375
-29.48944010416667
-29.478391927083333
-29.4799609375
-29.549339192708334
-29.65056640625
-29.752529296875
-29.84722981770833
-29.944739583333334
-30.022724609375
-30.09033203125
-30.172158203125
-30.254443359375
-30.337311197916666
-30.438636067708334
-30.425305989583332
-29.977434895833333
-29.653323567708334
-29.616334635416667
-29.684381510416667
-29.76193684895833
-29.872021484375
-29.868649088541666
-29.875836588541667
-29.95
-30.048453776041665
-30.150559895833332
-30.242008463541666
-30.33306640625
-30.410725911458332
-30.471285807291668
-30.545367838541665
-30.622438151041667
-30.086614583333333
-30.283649088541665
-30.362239583333334
-30.145485026041666
-29.709287109375
-29.56833333333333
-29.612701822916666
-29.70819010416667
-29.798079427083334
-29.86529622395833
-29.826520182291667
-29.79271484375
-29.8360546875
-29.915576171875
-30.016751302083332
-30.095185546875
-30.186637369791665
-30.251318359375
-30.2975
-30.341031901041667
-30.404720052083334
-30.378671875
-29.955309244791668
-29.713681640625
-29.729723307291668
-29.781005859375
-29.867415364583334
-29.951217447916665
-29.93533203125
-29.885201822916667
-29.97186197916667
-30.06716471354167
-30.160436197916667
-30.247600911458335
-30.313186848958335
-30.346354166666668
-30.407278645833333
-30.469827473958333
-30.426448567708334
-29.990797526041668
-29.635130208333333
-29.575032552083332
-29.627701822916666
-29.680387369791667
-29.754537760416667
-29.774635416666666
-29.719651692708332
-29.703323567708335
-29.76852864583333
-29.859244791666665
-29.957529296875
-30.041705729166665
-30.130341796875
-30.163997395833334
-30.201272786458333
-30.247581380208334
-30.181328125
-29.71236328125
-29.379117838541667
-29.378404947916668
-29.410908203125
-29.4847265625
-29.506220703125
-29.472112630208333
-29.4763671875
-29.553212890625
-29.643317057291668
-29.721533203125
-29.819847005208334
-29.885501302083334
-29.93893880208333
-30.053548177083332
-29.798206380208335
-29.311904296875
-29.112350260416665
-29.120979817708335
-29.149482421875
-29.197034505208332
-29.251142578125
-29.24171875
-29.216572265625
-29.244830729166665
-29.40789713541667
-29.597744140625
-29.647874348958332
-29.745234375
-29.770524088541666
-29.418880208333334
-28.977799479166666
-28.809449869791667
-28.829606119791666
-28.846380208333333
-29.508977864583333
-29.425872395833334
-29.43451171875
-29.446103515625
-29.510400390625
-29.588720703125
-29.681005859375
-29.773349609375
-29.857737630208334
-29.932783203125
-29.997408854166668
-30.0656640625
-30.146865234375
-30.112184244791667
-29.623623046875
-29.249026692708334
-29.185009765625
-29.252470703125
-29.319283854166667
-29.367705078125
-29.372047526041666
-29.38644856770833
-29.453916015625
-29.554388020833333
-29.657861328125
-29.768802083333334
-29.84783203125
-29.906653645833334
-29.985973307291665
-30.028151041666668
-30.1153515625
-30.209947916666668
-30.25841796875
-29.898069661458333
-29.484954427083334
-29.384752604166668
-29.424873046875
-29.4619921875
-29.542770182291665
-29.614124348958335
-29.641754557291666
-29.659778645833335
-29.7200390625
-29.926435546875
-30.026087239583333
-30.117333984375
-30.19162434895833
-30.258463541666668
-30.331015625
-30.399534505208333
-30.496546223958333
-30.594407552083332
-30.573883463541666
-29.53984375
-29.375862630208335
-29.372447916666665
-29.423603515625
-29.479905598958332
-29.560211588541666
-29.602093098958335
-29.593203125
-29.630009765625
-29.698616536458335
-29.784482421875
-29.874755859375
-29.950110677083334
-30.02796875
-30.091435546875
-30.14324869791667
-30.27102213541667
-30.337415364583332
-30.115074869791666
-29.764602864583335
-29.645859375
-29.709873046875
-29.792991536458334
-29.875963541666668
-29.930305989583335
-29.911481119791667
-29.89523763020833
-29.9462109375
-30.029342447916665
-30.125094401041668
-30.194114583333334
-30.26087890625
-30.307412109375
-30.357991536458332
-30.409498697916668
-30.48019856770833
-30.313802083333332
-29.947734375
-29.782698567708334
-29.829049479166667
-29.901988932291665
-29.978369140625
-30.0380078125
-30.02834635416667
-30.002272135416668
-30.0443359375
-30.121240234375
-30.210224609375
-30.285227864583334
-30.358538411458333
-30.426790364583333
-30.480660807291667
-30.533108723958332
-30.575384114583333
-30.327848307291667
-29.937532552083333
-29.250849609375
-29.383756510416667
-29.440237630208333
-29.500081380208332
-29.557021484375
-29.557034505208332
-29.540950520833334
-29.587858072916667
-29.669684244791668
-29.7567578125
-29.834599609375
-29.92140625
-29.994658203125
-30.047805989583335
-30.097740885416666
-30.156930338541667
-30.149020182291668
-29.754225260416668
-29.437034505208334
-29.400426432291667
-29.456022135416667
-29.496673177083334
-29.55623046875
-29.6231640625
-29.599837239583334
-29.621946614583333
-29.683470052083333
-29.776653645833335
-29.860927734375
-29.95341796875
-30.025550130208334
-30.07921875
-30.139573567708332
-30.197220052083335
-30.322490234375
-30.058951822916665
-29.636927083333333
-29.508492838541667
-29.53985677083333
-29.590745442708332
-29.624117838541668
-29.7043359375
-29.698580729166668
-29.6926953125
-29.738684895833334
-29.810279947916666
-29.898141276041667
-29.995657552083333
-30.067740885416665
-30.137503255208333
-30.199462890625
-30.266455078125
-30.318307291666667
-30.391897786458333
-30.353512369791666
-29.938798828125
-29.619108072916667
-29.566901041666668
-29.624544270833333
-29.687692057291667
-29.755592447916666
-29.770966796875
-29.741888020833333
-29.756009114583332
-29.803792317708332
-29.879625651041668
-29.977360026041666
-30.055979817708334
-30.128756510416668
-30.178531901041666
-30.230481770833332
-30.271207682291667
-30.34828125
-30.318069661458335
-29.911025390625
-29.597692057291667
-29.58875
-29.659069010416665
-29.755647786458333
-29.847268880208333
-29.823655598958332
-29.772819010416665
-29.774560546875
-29.83349609375
-29.914573567708334
-30.000354817708335
-30.09154296875
-30.197545572916667
-30.230498046875
-30.294944661458334
-30.175478515625
-29.705673828125
-29.423912760416666
-29.416240234375
-29.494283854166667
-29.571520182291668
-29.639169921875
-29.628876953125
-29.580179036458333
-29.583056640625
-29.673981119791666
-29.761624348958332
-29.852897135416665
-29.9442578125
-30.002412109375
-30.057174479166665
-30.097425130208332
-30.1349609375
-29.794772135416668
-29.304654947916667
-29.140999348958335
-29.16644205729167
-29.236031901041667
-29.299404296875
-29.348639322916668
-29.312594401041668
-29.2839453125
-29.326796875
-29.410830078125
-29.511826171875
-29.605045572916666
-29.688984375
-29.730914713541665
-29.801399739583335
-29.84814453125
-29.569192708333333
-29.072884114583335
-28.902408854166666
-28.928580729166665
-28.976061197916668
-29.589723307291667
-29.839280598958332
-29.882718098958332
-29.850009765625
-29.89708984375
-29.99759765625
-30.099371744791668
-30.169837239583334
-30.247233072916668
-30.31556640625
-30.35787109375
-30.41376953125
-30.485686848958334
-30.513141276041665
-30.108697916666667
-29.633336588541667
-29.5071484375
-29.554609375
-29.605087890625
-29.698899739583332
-29.718489583333334
-29.678330078125
-29.74640625
-29.828981119791667
-29.948014322916666
-30.033382161458334
-30.099169921875
-30.144612630208332
-30.188557942708332
-30.234619140625
-30.32473307291667
-30.3578125
-30.007236328125
-29.51882486979167
-29.423489583333332
-29.495826822916666
-29.577932942708333
-29.674749348958333
-29.7011328125
-29.638421223958332
-29.6754296875
-29.773811848958335
-29.873984375
-29.95087890625
-30.02463216145833
-30.072516276041668
-30.116985677083335
-30.181429036458333
-30.15609375
-29.705677083333335
-29.314345703125
-29.258108723958333
-29.352063802083332
-30.09375
-29.74688802083333
-29.646513671875
-29.589420572916666
-29.592496744791667
-29.669091796875
-29.769251302083333
-29.873987630208333
-29.97427734375
-30.053333333333335
-30.094713541666668
-30.149479166666666
-29.933284505208334
-29.18255859375
-29.281806640625
-29.422513020833332
-29.394853515625
-29.362740885416667
-29.413134765625
-29.510830078125
-29.630712890625
-29.731728515625
-29.82291015625
-29.90283203125
-29.99875325520833
-30.052646484375
